xof 0302txt 0032
Header {
 1;
 0;
 1;
}
template Header {
 <3D82AB43-62DA-11cf-AB39-0020AF71E433>
 WORD major;
 WORD minor;
 DWORD flags;
}

template Vector {
 <3D82AB5E-62DA-11cf-AB39-0020AF71E433>
 FLOAT x;
 FLOAT y;
 FLOAT z;
}

template Coords2d {
 <F6F23F44-7686-11cf-8F52-0040333594A3>
 FLOAT u;
 FLOAT v;
}

template Matrix4x4 {
 <F6F23F45-7686-11cf-8F52-0040333594A3>
 array FLOAT matrix[16];
}

template ColorRGBA {
 <35FF44E0-6C7C-11cf-8F52-0040333594A3>
 FLOAT red;
 FLOAT green;
 FLOAT blue;
 FLOAT alpha;
}

template ColorRGB {
 <D3E16E81-7835-11cf-8F52-0040333594A3>
 FLOAT red;
 FLOAT green;
 FLOAT blue;
}

template TextureFilename {
 <A42790E1-7810-11cf-8F52-0040333594A3>
 STRING filename;
}

template Material {
 <3D82AB4D-62DA-11cf-AB39-0020AF71E433>
 ColorRGBA faceColor;
 FLOAT power;
 ColorRGB specularColor;
 ColorRGB emissiveColor;
 [...]
}

template MeshFace {
 <3D82AB5F-62DA-11cf-AB39-0020AF71E433>
 DWORD nFaceVertexIndices;
 array DWORD faceVertexIndices[nFaceVertexIndices];
}

template MeshTextureCoords {
 <F6F23F40-7686-11cf-8F52-0040333594A3>
 DWORD nTextureCoords;
 array Coords2d textureCoords[nTextureCoords];
}

template MeshMaterialList {
 <F6F23F42-7686-11cf-8F52-0040333594A3>
 DWORD nMaterials;
 DWORD nFaceIndexes;
 array DWORD faceIndexes[nFaceIndexes];
 [Material]
}

template MeshNormals {
 <F6F23F43-7686-11cf-8F52-0040333594A3>
 DWORD nNormals;
 array Vector normals[nNormals];
 DWORD nFaceNormals;
 array MeshFace faceNormals[nFaceNormals];
}

template Mesh {
 <3D82AB44-62DA-11cf-AB39-0020AF71E433>
 DWORD nVertices;
 array Vector vertices[nVertices];
 DWORD nFaces;
 array MeshFace faces[nFaces];
 [...]
}

template FrameTransformMatrix {
 <F6F23F41-7686-11cf-8F52-0040333594A3>
 Matrix4x4 frameMatrix;
}

template Frame {
 <3D82AB46-62DA-11cf-AB39-0020AF71E433>
 [...]
}
template FloatKeys {
 <10DD46A9-775B-11cf-8F52-0040333594A3>
 DWORD nValues;
 array FLOAT values[nValues];
}

template TimedFloatKeys {
 <F406B180-7B3B-11cf-8F52-0040333594A3>
 DWORD time;
 FloatKeys tfkeys;
}

template AnimationKey {
 <10DD46A8-775B-11cf-8F52-0040333594A3>
 DWORD keyType;
 DWORD nKeys;
 array TimedFloatKeys keys[nKeys];
}

template AnimationOptions {
 <E2BF56C0-840F-11cf-8F52-0040333594A3>
 DWORD openclosed;
 DWORD positionquality;
}

template Animation {
 <3D82AB4F-62DA-11cf-AB39-0020AF71E433>
 [...]
}

template AnimationSet {
 <3D82AB50-62DA-11cf-AB39-0020AF71E433>
 [Animation]
}
Frame LINE01 {
   FrameTransformMatrix {
1.2,0.0,0.0,0.0,
0.0,1.57361e-07,-1.2,0.0,
0.0,1.2,1.57361e-07,0.0,
-0.00023656,-3.06085,-0.000191566,1.0;;
 }
Frame LINE01 {
   FrameTransformMatrix {
1.0,0.0,0.0,0.0,
0.0,1.0,-4.96308e-24,0.0,
0.0,4.96308e-24,1.0,0.0,
3.49533e-20,1.15144e-21,1.34441e-17,1.0;;
 }
Frame LINE01 {
   FrameTransformMatrix {
1.0,0.0,0.0,0.0,
0.0,1.0,-4.96308e-24,0.0,
0.0,4.96308e-24,1.0,0.0,
7.84829e-21,1.15144e-21,1.34441e-17,1.0;;
 }
Mesh LINE01 {
 635;
-0.0981939;0.138057;-55.8153;,
-16.7111;16.5717;-55.6449;,
-0.0981931;23.5348;-55.6449;,
-0.167087;0.0282238;-55.8153;,
-0.0981931;23.5348;-55.6449;,
-19.7105;19.5715;-52.0504;,
-0.0981931;27.7768;-52.0504;,
-16.7111;16.5717;-55.6449;,
-0.0981931;27.7768;-52.0504;,
-18.6846;18.5455;-50.06;,
-0.0981931;26.3255;-50.06;,
-19.7105;19.5715;-52.0504;,
-0.0981931;26.3255;-50.06;,
-19.5305;19.3921;-44.909;,
-0.0981931;27.522;-44.909;,
-18.6846;18.5455;-50.06;,
-0.0981931;27.522;-44.909;,
-14.3796;14.2411;-41.326;,
-0.0981939;20.2377;-41.326;,
-19.5305;19.3921;-44.909;,
-9.93828;9.7989;-30.152;,
-0.0981947;13.9566;-30.152;,
-9.56087;9.38451;-22.7743;,
-0.124707;13.3964;-22.7743;,
-0.124707;13.3964;-22.7743;,
-6.85001;6.68198;-19.5651;,
-0.118816;9.56849;-19.5651;,
-9.56087;9.38451;-22.7743;,
-0.118816;9.56849;-19.5651;,
-5.57642;5.3983;15.3952;,
-0.125947;7.76022;15.3952;,
-0.118816;9.56849;-19.5651;,
-6.85001;6.68198;-19.5651;,
-5.57642;5.3983;15.3952;,
-0.125947;7.76022;15.3952;,
-13.5897;13.4081;19.7728;,
-0.128079;19.091;19.7728;,
-0.125947;7.76022;15.3952;,
-5.57642;5.3983;15.3952;,
-0.128079;19.091;19.7728;,
-5.05337;16.8309;21.309;,
-0.175596;18.9302;21.309;,
-5.05337;16.8309;21.309;,
-13.5097;13.2611;21.309;,
-8.37423;8.21009;25.9046;,
-0.116049;11.7269;25.9046;,
-1.40146;10.4511;29.8568;,
-0.0638941;11.0159;29.8568;,
0.667538;6.90194;68.3698;,
-3.80349;3.71201;71.5916;,
-0.0647469;5.31429;71.5916;,
-4.40826;5.35219;68.3698;,
-0.0647469;5.31429;71.5916;,
-3.80349;3.71201;71.5916;,
0.00281343;-0.00259868;72.889;,
-23.5348;-0.0981727;-55.6449;,
-0.138044;-0.0981744;-55.8153;,
-27.7762;-0.0981727;-52.0504;,
-23.5348;-0.0981727;-55.6449;,
-19.7105;19.5715;-52.0504;,
-26.3259;-0.0981736;-50.06;,
-18.6846;18.5455;-50.06;,
-27.7762;-0.0981727;-52.0504;,
-18.6846;18.5455;-50.06;,
-27.5225;-0.0981736;-44.909;,
-19.5305;19.3921;-44.909;,
-26.3259;-0.0981736;-50.06;,
-20.2376;-0.0981736;-41.326;,
-27.5225;-0.0981736;-44.909;,
-13.9567;-0.0981778;-30.152;,
-9.93828;9.7989;-30.152;,
-13.3964;-0.124683;-22.7743;,
-9.56087;9.38451;-22.7743;,
-9.56847;-0.118791;-19.5651;,
-13.3964;-0.124683;-22.7743;,
-6.85001;6.68198;-19.5651;,
-7.76019;-0.125919;15.3952;,
-5.57642;5.3983;15.3952;,
-9.56847;-0.118791;-19.5651;,
-5.57642;5.3983;15.3952;,
-19.0906;-0.128048;19.7728;,
-13.5897;13.4081;19.7728;,
-7.76019;-0.125919;15.3952;,
-13.5897;13.4081;19.7728;,
-15.4743;8.32759;21.309;,
-13.5097;13.2611;21.309;,
-15.4743;8.32759;21.309;,
-18.9299;-0.175561;21.309;,
-11.7269;-0.116029;25.9046;,
-8.37423;8.21009;25.9046;,
-8.3812;6.39939;29.8568;,
-7.83472;7.7445;29.8568;,
-4.40826;5.35219;68.3698;,
-5.31428;-0.0646131;71.5916;,
-3.80349;3.71201;71.5916;,
-6.90174;0.667485;68.3698;,
-5.31428;-0.0646131;71.5916;,
-16.5722;-16.7111;-55.6449;,
-0.0282034;-0.167075;-55.8153;,
-19.5716;-19.7104;-52.0504;,
-16.5722;-16.7111;-55.6449;,
-27.7762;-0.0981727;-52.0504;,
-18.5457;-18.6846;-50.06;,
-26.3259;-0.0981736;-50.06;,
-19.5716;-19.7104;-52.0504;,
-26.3259;-0.0981736;-50.06;,
-19.3916;-19.5305;-44.909;,
-27.5225;-0.0981736;-44.909;,
-18.5457;-18.6846;-50.06;,
-14.2408;-14.3796;-41.326;,
-19.3916;-19.5305;-44.909;,
-9.79939;-9.93826;-30.152;,
-13.9567;-0.0981778;-30.152;,
-9.38448;-9.56085;-22.7743;,
-13.3964;-0.124683;-22.7743;,
-6.68196;-6.84999;-19.5651;,
-9.38448;-9.56085;-22.7743;,
-9.56847;-0.118791;-19.5651;,
-5.39829;-5.57639;15.3952;,
-7.76019;-0.125919;15.3952;,
-6.68196;-6.84999;-19.5651;,
-13.4085;-13.5896;19.7728;,
-5.39829;-5.57639;15.3952;,
-19.0906;-0.128048;19.7728;,
-16.8307;-5.05334;21.309;,
-18.9299;-0.175561;21.309;,
-16.8307;-5.05334;21.309;,
-13.2613;-13.5096;21.309;,
-8.2101;-8.37421;25.9046;,
-11.7269;-0.116029;25.9046;,
-10.4513;-1.40144;29.8568;,
-11.0161;-0.0638754;29.8568;,
-6.90174;0.667485;68.3698;,
-3.712;-3.80336;71.5916;,
-5.31428;-0.0646131;71.5916;,
-5.35224;-4.40834;68.3698;,
-3.712;-3.80336;71.5916;,
0.098193;-23.5348;-55.6449;,
0.0981947;-0.138123;-55.8153;,
0.098193;-27.7765;-52.0504;,
0.098193;-23.5348;-55.6449;,
-19.5716;-19.7104;-52.0504;,
0.098193;-26.3258;-50.06;,
-18.5457;-18.6846;-50.06;,
0.098193;-27.7765;-52.0504;,
-18.5457;-18.6846;-50.06;,
0.098193;-27.5222;-44.909;,
-19.3916;-19.5305;-44.909;,
0.098193;-26.3258;-50.06;,
0.098193;-20.2377;-41.326;,
0.098193;-27.5222;-44.909;,
0.0981922;-13.9566;-30.152;,
-9.79939;-9.93826;-30.152;,
0.124705;-13.3964;-22.7743;,
-9.38448;-9.56085;-22.7743;,
0.118813;-9.56857;-19.5651;,
0.124705;-13.3964;-22.7743;,
-6.68196;-6.84999;-19.5651;,
0.12594;-7.7603;15.3952;,
-5.39829;-5.57639;15.3952;,
0.118813;-9.56857;-19.5651;,
0.128074;-19.0905;19.7728;,
0.12594;-7.7603;15.3952;,
-13.4085;-13.5896;19.7728;,
-8.3278;-15.4743;21.309;,
-13.2613;-13.5096;21.309;,
-8.3278;-15.4743;21.309;,
0.175592;-18.9299;21.309;,
0.116044;-11.7269;25.9046;,
-8.2101;-8.37421;25.9046;,
-6.39923;-8.3812;29.8568;,
-7.74435;-7.8347;29.8568;,
-5.35224;-4.40834;68.3698;,
0.0646266;-5.31414;71.5916;,
-3.712;-3.80336;71.5916;,
-0.667455;-6.90185;68.3698;,
0.0646266;-5.31414;71.5916;,
16.7111;-16.5722;-55.6449;,
0.167088;-0.0281831;-55.8153;,
19.7105;-19.5716;-52.0504;,
16.7111;-16.5722;-55.6449;,
0.098193;-27.7765;-52.0504;,
18.6846;-18.5457;-50.06;,
0.098193;-26.3258;-50.06;,
19.7105;-19.5716;-52.0504;,
0.098193;-26.3258;-50.06;,
19.5305;-19.3916;-44.909;,
0.098193;-27.5222;-44.909;,
18.6846;-18.5457;-50.06;,
14.3797;-14.2407;-41.326;,
19.5305;-19.3916;-44.909;,
9.93827;-9.79938;-30.152;,
0.0981922;-13.9566;-30.152;,
9.56086;-9.38446;-22.7743;,
0.124705;-13.3964;-22.7743;,
6.85;-6.68193;-19.5651;,
9.56086;-9.38446;-22.7743;,
0.118813;-9.56857;-19.5651;,
5.57641;-5.39826;15.3952;,
0.12594;-7.7603;15.3952;,
6.85;-6.68193;-19.5651;,
13.5896;-13.4085;19.7728;,
5.57641;-5.39826;15.3952;,
0.128074;-19.0905;19.7728;,
5.05337;-16.8306;21.309;,
0.175592;-18.9299;21.309;,
5.05337;-16.8306;21.309;,
13.5096;-13.2613;21.309;,
8.37423;-8.21008;25.9046;,
0.116044;-11.7269;25.9046;,
1.40145;-10.4513;29.8568;,
0.0638867;-11.0161;29.8568;,
-0.667455;-6.90185;68.3698;,
3.80337;-3.71193;71.5916;,
0.0646266;-5.31414;71.5916;,
4.40835;-5.35235;68.3698;,
3.80337;-3.71193;71.5916;,
23.5348;0.0982058;-55.6449;,
0.138143;0.0982067;-55.8153;,
16.7111;-16.5722;-55.6449;,
27.7765;0.098205;-52.0504;,
19.7105;-19.5716;-52.0504;,
23.5348;0.0982058;-55.6449;,
19.7105;-19.5716;-52.0504;,
26.3258;0.098205;-50.06;,
18.6846;-18.5457;-50.06;,
27.7765;0.098205;-52.0504;,
18.6846;-18.5457;-50.06;,
27.5222;0.098205;-44.909;,
19.5305;-19.3916;-44.909;,
18.6846;-18.5457;-50.06;,
26.3258;0.098205;-50.06;,
27.5222;0.098205;-44.909;,
20.2377;0.098205;-41.326;,
27.5222;0.098205;-44.909;,
13.9566;0.0982016;-30.152;,
9.93827;-9.79938;-30.152;,
13.3964;0.12472;-22.7743;,
9.56086;-9.38446;-22.7743;,
9.56847;0.118829;-19.5651;,
13.3964;0.12472;-22.7743;,
6.85;-6.68193;-19.5651;,
7.76019;0.125957;15.3952;,
5.57641;-5.39826;15.3952;,
9.56847;0.118829;-19.5651;,
19.0906;0.128095;19.7728;,
7.76019;0.125957;15.3952;,
13.5896;-13.4085;19.7728;,
15.4743;-8.32777;21.309;,
13.5096;-13.2613;21.309;,
15.4743;-8.32777;21.309;,
18.9299;0.175614;21.309;,
11.7269;0.116055;25.9046;,
8.37423;-8.21008;25.9046;,
8.38121;-6.39922;29.8568;,
7.83471;-7.74435;29.8568;,
4.40835;-5.35235;68.3698;,
5.31416;0.0647548;71.5916;,
3.80337;-3.71193;71.5916;,
6.90186;-0.667527;68.3698;,
5.31416;0.0647548;71.5916;,
16.5722;16.7115;-55.6449;,
0.0282034;0.167108;-55.8153;,
19.5716;19.7103;-52.0504;,
16.5722;16.7115;-55.6449;,
27.7765;0.098205;-52.0504;,
18.5457;18.6842;-50.06;,
26.3258;0.098205;-50.06;,
19.5716;19.7103;-52.0504;,
26.3258;0.098205;-50.06;,
19.3916;19.5308;-44.909;,
27.5222;0.098205;-44.909;,
18.5457;18.6842;-50.06;,
14.2408;14.3799;-41.326;,
19.3916;19.5308;-44.909;,
9.79939;9.93869;-30.152;,
13.9566;0.0982016;-30.152;,
9.38448;9.56089;-22.7743;,
13.3964;0.12472;-22.7743;,
6.68195;6.85003;-19.5651;,
9.38448;9.56089;-22.7743;,
9.56847;0.118829;-19.5651;,
5.39828;5.57632;15.3952;,
7.76019;0.125957;15.3952;,
9.56847;0.118829;-19.5651;,
6.68195;6.85003;-19.5651;,
5.39828;5.57632;15.3952;,
13.4085;13.5892;19.7728;,
5.39828;5.57632;15.3952;,
19.0906;0.128095;19.7728;,
16.8306;5.05339;21.309;,
18.9299;0.175614;21.309;,
16.8306;5.05339;21.309;,
13.2613;13.5093;21.309;,
8.21008;8.37419;25.9046;,
11.7269;0.116055;25.9046;,
10.4513;1.40144;29.8568;,
11.0161;0.0639009;29.8568;,
6.90186;-0.667527;68.3698;,
3.71188;3.80351;71.5916;,
5.31416;0.0647548;71.5916;,
5.35232;4.40821;68.3698;,
3.71188;3.80351;71.5916;,
-0.0981931;27.7768;-52.0504;,
-0.0981931;23.5348;-55.6449;,
19.5716;19.7103;-52.0504;,
-0.0981931;26.3255;-50.06;,
18.5457;18.6842;-50.06;,
-0.0981931;27.7768;-52.0504;,
18.5457;18.6842;-50.06;,
-0.0981931;27.522;-44.909;,
19.3916;19.5308;-44.909;,
-0.0981931;26.3255;-50.06;,
-0.0981947;13.9566;-30.152;,
9.79939;9.93869;-30.152;,
-0.124707;13.3964;-22.7743;,
9.38448;9.56089;-22.7743;,
6.68195;6.85003;-19.5651;,
-0.125947;7.76022;15.3952;,
5.39828;5.57632;15.3952;,
-0.118816;9.56849;-19.5651;,
-0.125947;7.76022;15.3952;,
13.4085;13.5892;19.7728;,
8.3278;15.474;21.309;,
13.2613;13.5093;21.309;,
8.3278;15.474;21.309;,
-0.175596;18.9302;21.309;,
-0.116049;11.7269;25.9046;,
8.21008;8.37419;25.9046;,
6.39922;8.38138;29.8568;,
7.74434;7.8348;29.8568;,
5.35232;4.40821;68.3698;,
-0.0647469;5.31429;71.5916;,
3.71188;3.80351;71.5916;,
0.667538;6.90194;68.3698;,
-8.37423;8.21009;25.9046;,
-7.83472;7.7445;29.8568;,
-8.37423;8.21009;25.9046;,
-1.72107;3.39088;66.0743;,
-2.92212;2.88557;66.0743;,
-4.40826;5.35219;68.3698;,
-11.7269;-0.116029;25.9046;,
-11.0161;-0.0638754;29.8568;,
-8.3812;6.39939;29.8568;,
-8.3812;6.39939;29.8568;,
-8.37423;8.21009;25.9046;,
-11.7269;-0.116029;25.9046;,
-3.61475;1.18076;66.0743;,
-4.10666;-0.0258906;66.0742;,
-6.90174;0.667485;68.3698;,
-8.2101;-8.37421;25.9046;,
-7.74435;-7.8347;29.8568;,
-10.4513;-1.40144;29.8568;,
-10.4513;-1.40144;29.8568;,
-11.7269;-0.116029;25.9046;,
-3.39093;-1.72115;66.0743;,
-2.88555;-2.9222;66.0742;,
-5.35224;-4.40834;68.3698;,
0.116044;-11.7269;25.9046;,
0.0638867;-11.0161;29.8568;,
-1.18072;-3.61484;66.0742;,
0.0259057;-4.10675;66.0743;,
-0.667455;-6.90185;68.3698;,
8.37423;-8.21008;25.9046;,
7.83471;-7.74435;29.8568;,
1.72116;-3.39101;66.0742;,
2.92221;-2.88563;66.0742;,
4.40835;-5.35235;68.3698;,
11.7269;0.116055;25.9046;,
11.0161;0.0639009;29.8568;,
3.61485;-1.18079;66.0742;,
4.10677;0.0258317;66.0743;,
6.90186;-0.667527;68.3698;,
8.21008;8.37419;25.9046;,
7.74434;7.8348;29.8568;,
3.39101;1.72106;66.0743;,
2.88563;2.92213;66.0743;,
5.35232;4.40821;68.3698;,
-0.116049;11.7269;25.9046;,
-0.0638941;11.0159;29.8568;,
1.18081;3.61487;66.0743;,
-0.0258185;4.10671;66.0743;,
0.667538;6.90194;68.3698;,
-1.72107;3.39088;66.0743;,
-4.87894;15.8291;46.7302;,
-12.6938;12.5413;46.7302;,
-2.92212;2.88557;66.0743;,
-3.61475;1.18076;66.0743;,
-14.6431;7.74339;46.7303;,
-17.8438;-0.107923;46.7302;,
-4.10666;-0.0258906;66.0742;,
-3.39093;-1.72115;66.0743;,
-13.1714;-4.20411;50.8641;,
-7.18853;-7.27688;57.4537;,
-2.88555;-2.9222;66.0742;,
-1.18072;-3.61484;66.0742;,
-3.69523;-7.84048;58.6623;,
0.0518218;-8.44686;59.9627;,
0.0259057;-4.10675;66.0743;,
2.88453;-7.97354;58.9476;,
7.32308;-7.23423;57.3622;,
2.92221;-2.88563;66.0742;,
1.72116;-3.39101;66.0742;,
4.10677;0.0258317;66.0743;,
3.61485;-1.18079;66.0742;,
10.7742;-5.44096;53.5165;,
16.8718;-2.27647;46.7302;,
17.8438;0.107947;46.7303;,
3.39101;1.72106;66.0743;,
15.8295;4.87886;46.7303;,
12.5411;12.6938;46.7302;,
2.88563;2.92213;66.0743;,
1.18081;3.61487;66.0743;,
7.74319;14.6434;46.7302;,
-0.107944;17.8437;46.7302;,
-0.0258185;4.10671;66.0743;,
-0.0258185;4.10671;66.0743;,
-0.107944;17.8437;46.7302;,
-2.92212;2.88557;66.0743;,
-12.6938;12.5413;46.7302;,
-4.10666;-0.0258906;66.0742;,
-17.8438;-0.107923;46.7302;,
-16.9282;-2.27647;46.7302;,
-2.88555;-2.9222;66.0742;,
-7.18853;-7.27688;57.4537;,
0.0259057;-4.10675;66.0743;,
0.0518218;-8.44686;59.9627;,
2.92221;-2.88563;66.0742;,
7.32308;-7.23423;57.3622;,
4.10677;0.0258317;66.0743;,
17.8438;0.107947;46.7303;,
2.88563;2.92213;66.0743;,
12.5411;12.6938;46.7302;,
-4.87894;15.8291;46.7302;,
-3.90981;16.2429;37.4733;,
-12.6964;12.5462;37.4733;,
-12.6938;12.5413;46.7302;,
-4.87894;15.8291;46.7302;,
-12.5411;-12.6938;46.7303;,
-15.1999;-6.37506;46.7302;,
-16.0144;-4.44577;42.5929;,
-16.2433;-3.90979;37.4733;,
-12.546;-12.6964;37.4733;,
-7.7432;-14.6431;46.7303;,
-8.72107;-14.2504;37.4733;,
0.106311;-17.8491;37.4733;,
0.107934;-17.8438;46.7303;,
4.87893;-15.8295;46.7303;,
3.9098;-16.2433;37.4733;,
12.6964;-12.546;37.4733;,
12.6938;-12.5412;46.7303;,
17.8468;0.107051;41.6188;,
16.2433;3.90974;37.4733;,
12.546;12.6965;37.4733;,
8.72106;14.2507;37.4733;,
-0.10632;17.8489;37.4733;,
-0.10632;17.8489;37.4733;,
-3.90981;16.2429;37.4733;,
-3.90981;16.2429;37.4733;,
-12.6938;12.5413;46.7302;,
-12.6964;12.5462;37.4733;,
-14.2504;8.72129;37.4733;,
-14.6431;7.74339;46.7303;,
-12.6938;12.5413;46.7302;,
-17.0249;-2.05848;37.4733;,
-12.5411;-12.6938;46.7303;,
-12.546;-12.6964;37.4733;,
0.107934;-17.8438;46.7303;,
0.106311;-17.8491;37.4733;,
12.6938;-12.5412;46.7303;,
12.6964;-12.546;37.4733;,
14.2504;-8.72106;37.4733;,
14.6431;-7.74318;46.7302;,
17.276;1.46221;38.7126;,
17.8488;0.106431;38.0804;,
17.8491;0.106325;37.4733;,
17.8468;0.107051;41.6188;,
12.546;12.6965;37.4733;,
-12.6964;12.5462;37.4733;,
-3.90981;16.2429;37.4733;,
-1.40146;10.4511;29.8568;,
-7.83472;7.7445;29.8568;,
-12.6964;12.5462;37.4733;,
-17.8491;-0.106299;37.4733;,
-14.2504;8.72129;37.4733;,
-8.3812;6.39939;29.8568;,
-8.3812;6.39939;29.8568;,
-11.0161;-0.0638754;29.8568;,
-12.546;-12.6964;37.4733;,
-16.2433;-3.90979;37.4733;,
-10.4513;-1.40144;29.8568;,
-10.4513;-1.40144;29.8568;,
-7.74435;-7.8347;29.8568;,
0.106311;-17.8491;37.4733;,
-8.72107;-14.2504;37.4733;,
-6.39923;-8.3812;29.8568;,
0.0638867;-11.0161;29.8568;,
12.6964;-12.546;37.4733;,
3.9098;-16.2433;37.4733;,
1.40145;-10.4513;29.8568;,
7.83471;-7.74435;29.8568;,
12.546;12.6965;37.4733;,
16.2433;3.90974;37.4733;,
10.4513;1.40144;29.8568;,
7.74434;7.8348;29.8568;,
-0.10632;17.8489;37.4733;,
8.72106;14.2507;37.4733;,
6.39922;8.38138;29.8568;,
-0.0638941;11.0159;29.8568;,
-3.90981;16.2429;37.4733;,
-12.6964;12.5462;37.4733;,
-7.83472;7.7445;29.8568;,
-8.3812;6.39939;29.8568;,
-8.3812;6.39939;29.8568;,
-14.2504;8.72129;37.4733;,
-12.6964;12.5462;37.4733;,
-16.7926;-1.90434;37.1428;,
-17.3893;-1.19545;37.4733;,
-11.0161;-0.0638754;29.8568;,
-11.0161;-0.0638754;29.8568;,
-10.4513;-1.40144;29.8568;,
-10.4513;-1.40144;29.8568;,
-17.0249;-2.05848;37.4733;,
-10.4513;-1.40144;29.8568;,
8.38121;-6.39922;29.8568;,
14.2504;-8.72106;37.4733;,
17.8491;0.106325;37.4733;,
11.0161;0.0639009;29.8568;,
-0.116049;11.7269;25.9046;,
-0.175596;18.9302;21.309;,
-5.05337;16.8309;21.309;,
-8.37423;8.21009;25.9046;,
-0.116049;11.7269;25.9046;,
-13.5897;13.4081;19.7728;,
-13.5097;13.2611;21.309;,
-0.128079;19.091;19.7728;,
-13.5897;13.4081;19.7728;,
-19.0906;-0.128048;19.7728;,
-18.9299;-0.175561;21.309;,
-13.5897;13.4081;19.7728;,
-11.7269;-0.116029;25.9046;,
-18.9299;-0.175561;21.309;,
-16.8307;-5.05334;21.309;,
-16.8307;-5.05334;21.309;,
-11.7269;-0.116029;25.9046;,
-13.4085;-13.5896;19.7728;,
-13.2613;-13.5096;21.309;,
0.128074;-19.0905;19.7728;,
0.175592;-18.9299;21.309;,
13.5896;-13.4085;19.7728;,
13.5096;-13.2613;21.309;,
19.0906;0.128095;19.7728;,
18.9299;0.175614;21.309;,
13.4085;13.5892;19.7728;,
13.2613;13.5093;21.309;,
-0.128079;19.091;19.7728;,
-0.175596;18.9302;21.309;,
-5.03682;-10.095;54.7077;,
-9.29446;-9.4081;53.2346;,
3.48766;-10.3493;55.253;,
0.066595;-10.9209;56.4788;,
13.6748;-7.16702;48.4286;,
9.46755;-9.35324;53.117;,
16.9666;-2.05848;37.4733;,
15.2009;-6.37505;46.7302;,
-17.8465;-0.107107;42.078;,
-17.2089;1.46221;38.7126;,
-17.8465;-0.107107;42.078;,
-17.8438;-0.107923;46.7302;,
-17.8438;-0.107923;46.7302;,
-14.6431;7.74339;46.7303;,
-14.6431;7.74339;46.7303;,
-17.2089;1.46221;38.7126;,
-14.2504;8.72129;37.4733;,
-17.8491;-0.106299;37.4733;,
-17.8491;-0.106299;37.4733;,
-17.8488;-0.106388;37.9812;,
17.3184;-1.19544;37.4733;,
17.8491;0.106325;37.4733;,
17.8488;0.106431;38.0804;,
-9.29446;-9.4081;53.2346;,
17.3184;-1.19544;37.4733;,
16.7336;-1.90434;37.1428;,
16.9666;-2.05848;37.4733;,
0.066595;-10.9209;56.4788;,
9.46755;-9.35324;53.117;,
-17.8488;-0.106388;37.9812;,
-17.8491;-0.106299;37.4733;,
-17.3893;-1.19545;37.4733;,
-13.1714;-4.20411;50.8641;,
-16.9282;-2.27647;46.7302;,
-17.8465;-0.107107;42.078;,
-17.2089;1.46221;38.7126;,
-17.8488;-0.106388;37.9812;,
-17.3893;-1.19545;37.4733;,
-17.2089;1.46221;38.7126;,
-17.3893;-1.19545;37.4733;,
-16.7926;-1.90434;37.1428;,
-17.0249;-2.05848;37.4733;,
-16.0144;-4.44577;42.5929;,
-15.1999;-6.37506;46.7302;,
-16.7926;-1.90434;37.1428;,
-17.0249;-2.05848;37.4733;,
-15.1999;-6.37506;46.7302;,
-9.29446;-9.4081;53.2346;,
-9.29446;-9.4081;53.2346;,
-5.03682;-10.095;54.7077;,
0.066595;-10.9209;56.4788;,
0.066595;-10.9209;56.4788;,
3.48766;-10.3493;55.253;,
9.46755;-9.35324;53.117;,
9.46755;-9.35324;53.117;,
13.6748;-7.16702;48.4286;,
15.2009;-6.37505;46.7302;,
15.2009;-6.37505;46.7302;,
16.9666;-2.05848;37.4733;,
16.7336;-1.90434;37.1428;,
16.7336;-1.90434;37.1428;,
17.3184;-1.19544;37.4733;,
17.8488;0.106431;38.0804;,
17.276;1.46221;38.7126;,
17.276;1.46221;38.7126;,
17.8468;0.107051;41.6188;,
16.8718;-2.27647;46.7302;,
10.7742;-5.44096;53.5165;,
-16.7926;-1.90434;37.1428;,
-17.2089;1.46221;38.7126;,
10.7742;-5.44096;53.5165;,
7.32308;-7.23423;57.3622;,
2.88453;-7.97354;58.9476;,
0.0518218;-8.44686;59.9627;,
-3.69523;-7.84048;58.6623;,
-17.2089;1.46221;38.7126;,
-17.2089;1.46221;38.7126;,
-7.18853;-7.27688;57.4537;;

 440;
3;0,1,2;,
3;0,3,1;,
3;4,5,6;,
3;4,7,5;,
3;8,9,10;,
3;8,11,9;,
3;12,13,14;,
3;12,15,13;,
3;16,17,18;,
3;16,19,17;,
3;18,20,21;,
3;18,17,20;,
3;21,22,23;,
3;21,20,22;,
3;24,25,26;,
3;24,27,25;,
3;28,29,30;,
3;31,32,33;,
3;34,35,36;,
3;37,38,35;,
3;39,40,41;,
3;42,43,44;,
3;45,46,47;,
3;48,49,50;,
3;48,51,49;,
3;52,53,54;,
3;3,55,1;,
3;3,56,55;,
3;7,57,5;,
3;7,58,57;,
3;59,60,61;,
3;59,62,60;,
3;63,64,65;,
3;63,66,64;,
3;19,67,17;,
3;19,68,67;,
3;17,69,70;,
3;17,67,69;,
3;70,71,72;,
3;70,69,71;,
3;27,73,25;,
3;27,74,73;,
3;75,76,77;,
3;75,78,76;,
3;79,80,81;,
3;79,82,80;,
3;83,84,85;,
3;86,87,88;,
3;89,90,91;,
3;92,93,94;,
3;92,95,93;,
3;53,96,54;,
3;56,97,55;,
3;56,98,97;,
3;58,99,57;,
3;58,100,99;,
3;101,102,103;,
3;101,104,102;,
3;105,106,107;,
3;105,108,106;,
3;68,109,67;,
3;68,110,109;,
3;67,111,112;,
3;67,109,111;,
3;112,113,114;,
3;112,111,113;,
3;74,115,73;,
3;74,116,115;,
3;117,118,119;,
3;117,120,118;,
3;82,121,80;,
3;82,122,121;,
3;123,124,125;,
3;126,127,128;,
3;129,130,131;,
3;132,133,134;,
3;132,135,133;,
3;96,136,54;,
3;98,137,97;,
3;98,138,137;,
3;100,139,99;,
3;100,140,139;,
3;141,142,143;,
3;141,144,142;,
3;145,146,147;,
3;145,148,146;,
3;110,149,109;,
3;110,150,149;,
3;109,151,152;,
3;109,149,151;,
3;152,153,154;,
3;152,151,153;,
3;116,155,115;,
3;116,156,155;,
3;157,158,159;,
3;157,160,158;,
3;122,161,121;,
3;122,162,161;,
3;163,164,165;,
3;166,167,168;,
3;169,170,171;,
3;172,173,174;,
3;172,175,173;,
3;136,176,54;,
3;138,177,137;,
3;138,178,177;,
3;140,179,139;,
3;140,180,179;,
3;181,182,183;,
3;181,184,182;,
3;185,186,187;,
3;185,188,186;,
3;150,189,149;,
3;150,190,189;,
3;149,191,192;,
3;149,189,191;,
3;192,193,194;,
3;192,191,193;,
3;156,195,155;,
3;156,196,195;,
3;197,198,199;,
3;197,200,198;,
3;162,201,161;,
3;162,202,201;,
3;203,204,205;,
3;206,207,208;,
3;209,210,211;,
3;212,213,214;,
3;212,215,213;,
3;176,216,54;,
3;178,217,177;,
3;178,218,217;,
3;219,220,221;,
3;219,222,220;,
3;223,224,225;,
3;223,226,224;,
3;227,228,229;,
3;230,231,232;,
3;190,233,189;,
3;190,234,233;,
3;189,235,236;,
3;189,233,235;,
3;236,237,238;,
3;236,235,237;,
3;196,239,195;,
3;196,240,239;,
3;241,242,243;,
3;241,244,242;,
3;202,245,201;,
3;202,246,245;,
3;247,248,249;,
3;250,251,252;,
3;253,254,255;,
3;256,257,258;,
3;256,259,257;,
3;216,260,54;,
3;218,261,217;,
3;218,262,261;,
3;222,263,220;,
3;222,264,263;,
3;265,266,267;,
3;265,268,266;,
3;269,270,271;,
3;269,272,270;,
3;234,273,233;,
3;234,274,273;,
3;233,275,276;,
3;233,273,275;,
3;276,277,278;,
3;276,275,277;,
3;240,279,239;,
3;240,280,279;,
3;281,282,283;,
3;284,285,286;,
3;246,287,245;,
3;246,288,287;,
3;289,290,291;,
3;292,293,294;,
3;295,296,297;,
3;298,299,300;,
3;298,301,299;,
3;260,302,54;,
3;262,2,261;,
3;262,0,2;,
3;264,303,263;,
3;264,304,303;,
3;305,306,307;,
3;305,308,306;,
3;309,310,311;,
3;309,312,310;,
3;274,18,273;,
3;274,16,18;,
3;273,313,314;,
3;273,18,313;,
3;314,315,316;,
3;314,313,315;,
3;280,26,279;,
3;280,24,26;,
3;317,318,319;,
3;317,320,318;,
3;288,36,287;,
3;288,321,36;,
3;322,323,324;,
3;325,326,327;,
3;328,329,330;,
3;331,332,333;,
3;331,334,332;,
3;302,52,54;,
3;335,336,46;,
3;46,45,337;,
3;338,339,340;,
3;341,342,343;,
3;344,345,346;,
3;347,348,349;,
3;350,351,352;,
3;353,354,350;,
3;355,356,357;,
3;358,359,170;,
3;170,169,358;,
3;360,361,362;,
3;363,364,210;,
3;210,209,363;,
3;365,366,367;,
3;368,369,254;,
3;254,253,368;,
3;370,371,372;,
3;373,374,296;,
3;296,295,373;,
3;375,376,377;,
3;378,379,329;,
3;329,328,378;,
3;380,381,382;,
3;382,381,338;,
3;338,340,382;,
3;340,339,347;,
3;347,349,340;,
3;349,348,355;,
3;355,357,349;,
3;357,356,360;,
3;360,362,357;,
3;362,361,365;,
3;365,367,362;,
3;367,366,370;,
3;370,372,367;,
3;372,371,375;,
3;375,377,372;,
3;377,376,380;,
3;380,382,377;,
3;383,384,385;,
3;385,386,383;,
3;387,388,389;,
3;389,390,387;,
3;391,392,393;,
3;393,394,391;,
3;395,396,397;,
3;397,398,395;,
3;399,400,401;,
3;401,402,399;,
3;403,404,405;,
3;405,406,407;,
3;403,405,407;,
3;408,409,410;,
3;410,411,408;,
3;412,413,414;,
3;414,415,412;,
3;416,417,384;,
3;384,383,416;,
3;418,419,388;,
3;388,387,418;,
3;392,391,420;,
3;392,420,421;,
3;392,421,422;,
3;395,423,424;,
3;424,396,395;,
3;402,425,426;,
3;426,399,402;,
3;404,427,428;,
3;428,405,404;,
3;429,430,409;,
3;409,408,429;,
3;431,432,413;,
3;413,412,431;,
3;433,434,435;,
3;435,436,437;,
3;438,439,440;,
3;440,441,442;,
3;438,440,442;,
3;443,444,445;,
3;445,446,443;,
3;447,448,449;,
3;449,450,447;,
3;451,407,406;,
3;409,452,453;,
3;453,410,409;,
3;413,454,455;,
3;455,414,413;,
3;417,456,457;,
3;458,384,417;,
3;459,460,461;,
3;461,462,463;,
3;464,441,440;,
3;465,466,444;,
3;444,443,465;,
3;467,468,448;,
3;448,447,467;,
3;469,470,471;,
3;471,472,469;,
3;473,474,475;,
3;473,475,452;,
3;452,409,430;,
3;452,430,476;,
3;473,452,476;,
3;432,477,454;,
3;454,413,432;,
3;478,479,480;,
3;480,481,482;,
3;483,484,485;,
3;486,487,483;,
3;488,489,490;,
3;491,492,488;,
3;493,494,495;,
3;495,496,493;,
3;497,498,499;,
3;499,500,497;,
3;501,502,503;,
3;503,504,501;,
3;505,506,507;,
3;507,508,505;,
3;505,508,480;,
3;480,509,505;,
3;510,511,512;,
3;513,514,515;,
3;516,517,483;,
3;516,483,518;,
3;516,519,520;,
3;521,489,522;,
3;516,523,522;,
3;488,492,495;,
3;495,494,488;,
3;493,496,499;,
3;499,498,493;,
3;497,500,524;,
3;524,525,497;,
3;526,527,503;,
3;503,502,526;,
3;501,504,507;,
3;507,506,501;,
3;528,529,530;,
3;530,531,532;,
3;533,534,40;,
3;40,535,536;,
3;44,43,86;,
3;86,88,44;,
3;537,538,84;,
3;84,539,537;,
3;540,541,542;,
3;543,128,544;,
3;545,546,124;,
3;124,123,545;,
3;128,127,166;,
3;166,168,128;,
3;547,548,164;,
3;164,163,547;,
3;168,167,206;,
3;206,208,168;,
3;549,550,204;,
3;204,203,549;,
3;208,207,250;,
3;250,252,208;,
3;551,552,248;,
3;248,247,551;,
3;252,251,292;,
3;292,294,252;,
3;553,554,290;,
3;290,289,553;,
3;294,293,325;,
3;325,327,294;,
3;555,556,323;,
3;323,322,555;,
3;443,557,558;,
3;558,465,443;,
3;559,560,467;,
3;467,447,559;,
3;561,562,469;,
3;469,472,561;,
3;471,563,564;,
3;564,472,471;,
3;422,421,565;,
3;566,567,568;,
3;566,569,570;,
3;566,571,461;,
3;572,573,574;,
3;572,575,576;,
3;577,578,579;,
3;439,438,580;,
3;525,524,527;,
3;526,581,582;,
3;527,526,582;,
3;525,527,582;,
3;525,582,583;,
3;446,584,557;,
3;557,443,446;,
3;585,559,447;,
3;447,450,585;,
3;561,472,564;,
3;586,587,588;,
3;262,218,178;,
3;178,138,98;,
3;98,56,3;,
3;178,98,3;,
3;262,178,3;,
3;0,262,3;,
3;589,590,591;,
3;592,593,594;,
3;595,596,597;,
3;598,599,600;,
3;601,602,603;,
3;601,603,604;,
3;605,606,607;,
3;601,604,608;,
3;607,609,610;,
3;601,608,611;,
3;610,612,613;,
3;601,611,614;,
3;601,614,615;,
3;601,615,616;,
3;617,618,619;,
3;617,619,620;,
3;597,617,620;,
3;621,622,623;,
3;621,623,624;,
3;625,621,624;,
3;626,597,627;,
3;624,628,629;,
3;629,630,631;,
3;624,629,631;,
3;632,624,631;,
3;591,633,631;,
3;589,591,631;,
3;589,631,634;;
MeshMaterialList {
 1;
 440;
  0,
  0,
  0,
  0,
  0,
  0,
  0,
  0,
  0,
  0,
  0,
  0,
  0,
  0,
  0,
  0,
  0,
  0,
  0,
  0,
  0,
  0,
  0,
  0,
  0,
  0,
  0,
  0,
  0,
  0,
  0,
  0,
  0,
  0,
  0,
  0,
  0,
  0,
  0,
  0,
  0,
  0,
  0,
  0,
  0,
  0,
  0,
  0,
  0,
  0,
  0,
  0,
  0,
  0,
  0,
  0,
  0,
  0,
  0,
  0,
  0,
  0,
  0,
  0,
  0,
  0,
  0,
  0,
  0,
  0,
  0,
  0,
  0,
  0,
  0,
  0,
  0,
  0,
  0,
  0,
  0,
  0,
  0,
  0,
  0,
  0,
  0,
  0,
  0,
  0,
  0,
  0,
  0,
  0,
  0,
  0,
  0,
  0,
  0,
  0,
  0,
  0,
  0,
  0,
  0,
  0,
  0,
  0,
  0,
  0,
  0,
  0,
  0,
  0,
  0,
  0,
  0,
  0,
  0,
  0,
  0,
  0,
  0,
  0,
  0,
  0,
  0,
  0,
  0,
  0,
  0,
  0,
  0,
  0,
  0,
  0,
  0,
  0,
  0,
  0,
  0,
  0,
  0,
  0,
  0,
  0,
  0,
  0,
  0,
  0,
  0,
  0,
  0,
  0,
  0,
  0,
  0,
  0,
  0,
  0,
  0,
  0,
  0,
  0,
  0,
  0,
  0,
  0,
  0,
  0,
  0,
  0,
  0,
  0,
  0,
  0,
  0,
  0,
  0,
  0,
  0,
  0,
  0,
  0,
  0,
  0,
  0,
  0,
  0,
  0,
  0,
  0,
  0,
  0,
  0,
  0,
  0,
  0,
  0,
  0,
  0,
  0,
  0,
  0,
  0,
  0,
  0,
  0,
  0,
  0,
  0,
  0,
  0,
  0,
  0,
  0,
  0,
  0,
  0,
  0,
  0,
  0,
  0,
  0,
  0,
  0,
  0,
  0,
  0,
  0,
  0,
  0,
  0,
  0,
  0,
  0,
  0,
  0,
  0,
  0,
  0,
  0,
  0,
  0,
  0,
  0,
  0,
  0,
  0,
  0,
  0,
  0,
  0,
  0,
  0,
  0,
  0,
  0,
  0,
  0,
  0,
  0,
  0,
  0,
  0,
  0,
  0,
  0,
  0,
  0,
  0,
  0,
  0,
  0,
  0,
  0,
  0,
  0,
  0,
  0,
  0,
  0,
  0,
  0,
  0,
  0,
  0,
  0,
  0,
  0,
  0,
  0,
  0,
  0,
  0,
  0,
  0,
  0,
  0,
  0,
  0,
  0,
  0,
  0,
  0,
  0,
  0,
  0,
  0,
  0,
  0,
  0,
  0,
  0,
  0,
  0,
  0,
  0,
  0,
  0,
  0,
  0,
  0,
  0,
  0,
  0,
  0,
  0,
  0,
  0,
  0,
  0,
  0,
  0,
  0,
  0,
  0,
  0,
  0,
  0,
  0,
  0,
  0,
  0,
  0,
  0,
  0,
  0,
  0,
  0,
  0,
  0,
  0,
  0,
  0,
  0,
  0,
  0,
  0,
  0,
  0,
  0,
  0,
  0,
  0,
  0,
  0,
  0,
  0,
  0,
  0,
  0,
  0,
  0,
  0,
  0,
  0,
  0,
  0,
  0,
  0,
  0,
  0,
  0,
  0,
  0,
  0,
  0,
  0,
  0,
  0,
  0,
  0,
  0,
  0,
  0,
  0,
  0,
  0,
  0,
  0,
  0,
  0,
  0,
  0,
  0,
  0,
  0,
  0,
  0,
  0,
  0,
  0,
  0,
  0,
  0,
  0,
  0,
  0,
  0,
  0,
  0,
  0,
  0,
  0,
  0,
  0,
  0,
  0,
  0,
  0,
  0,
  0,
  0,
  0,
  0,
  0,
  0,
  0,
  0;;
Material {
 0.588235;0.588235;0.588235;1.0;;
 50.000000;
 0.898039;0.898039;0.898039;;
 0.117647;0.117647;0.117647;;
TextureFilename {
"bishop_0.bmp";
}
 }
}

 MeshNormals {
 635;
-0.00276403;-0.00463394;0.999985;,
-0.00556345;-0.00474813;0.999973;,
-0.000578396;-0.00729126;0.999973;,
-0.00298869;-0.000755353;0.999995;,
-0.261061;-0.62342;0.737017;,
-0.394586;-0.516767;0.759772;,
-0.261089;-0.624055;0.73647;,
-0.519642;-0.390187;0.760083;,
-0.320187;-0.765118;-0.558637;,
-0.320187;-0.765118;-0.558637;,
-0.320393;-0.765419;-0.558106;,
-0.31998;-0.764816;-0.559169;,
-0.377441;-0.901938;0.209873;,
-0.377441;-0.901938;0.209873;,
-0.377387;-0.90204;0.209531;,
-0.377495;-0.901835;0.210215;,
-0.0626793;-0.440156;-0.895731;,
-0.505186;-0.459127;-0.730746;,
-0.0325805;-0.681877;-0.730741;,
-0.355546;-0.266908;-0.895738;,
-0.365799;-0.867475;-0.337161;,
-0.381754;-0.901558;-0.203608;,
-0.389284;-0.918462;-0.069889;,
-0.390352;-0.918128;-0.0683119;,
-0.0951985;-0.638652;-0.763585;,
-0.396429;-0.510873;-0.762793;,
0.0809248;-0.641559;-0.762793;,
-0.518914;-0.384278;-0.763583;,
-0.397169;-0.916525;-0.0473248;,
-0.397169;-0.916525;-0.0473248;,
-0.397169;-0.916525;-0.0473248;,
-0.393662;-0.917999;-0.0480481;,
-0.393662;-0.917999;-0.0480481;,
-0.393662;-0.917999;-0.0480481;,
-0.150398;-0.356261;0.922203;,
-0.151482;-0.354165;0.922833;,
0.0458644;-0.360581;0.931599;,
-0.152565;-0.352066;0.923457;,
-0.152565;-0.352066;0.923457;,
-0.393938;-0.915325;-0.0836248;,
-0.389107;-0.915776;-0.0997518;,
-0.393938;-0.915325;-0.0836248;,
-0.22109;-0.523731;-0.822694;,
-0.384283;-0.376318;-0.843037;,
-0.435477;-0.322645;-0.840393;,
-0.38487;-0.907589;-0.167802;,
-0.384195;-0.908384;-0.165022;,
-0.383444;-0.908077;-0.168423;,
-0.314736;-0.855795;-0.410557;,
-0.314736;-0.855795;-0.410557;,
-0.370222;-0.863873;-0.341554;,
-0.25676;-0.840951;-0.476314;,
-0.00286534;-0.237024;-0.9715;,
-0.169605;-0.165527;-0.971512;,
7.17051e-05;6.72392e-05;-1.0;,
-0.00729139;0.000578205;0.999973;,
-0.00463408;0.00276394;0.999985;,
-0.644465;-0.0864122;0.759736;,
-0.643377;0.0915177;0.76006;,
-0.767513;-0.314649;-0.558498;,
-0.767513;-0.314649;-0.558498;,
-0.767852;-0.314712;-0.557996;,
-0.767173;-0.314585;-0.559;,
-0.904665;-0.370872;0.209846;,
-0.904665;-0.370872;0.209846;,
-0.904695;-0.370971;0.209541;,
-0.904635;-0.370774;0.210151;,
-0.681877;0.0325765;-0.730741;,
-0.440135;0.0626834;-0.895741;,
-0.872041;-0.354766;-0.337172;,
-0.907419;-0.367592;-0.203633;,
-0.924704;-0.374213;-0.0699133;,
-0.925236;-0.373194;-0.0682924;,
-0.641558;-0.0809253;-0.762794;,
-0.63865;0.0951986;-0.763586;,
-0.928213;-0.36898;-0.0476866;,
-0.928213;-0.36898;-0.0476866;,
-0.928932;-0.367214;-0.047324;,
-0.927491;-0.370744;-0.0480489;,
-0.35754;-0.143323;0.922835;,
-0.36059;-0.0458626;0.931596;,
-0.358262;-0.145592;0.922199;,
-0.358474;0.054484;0.931949;,
-0.925804;-0.368669;-0.0834902;,
-0.922675;-0.372442;-0.0997932;,
-0.925804;-0.368669;-0.0834902;,
-0.527945;-0.212455;-0.822275;,
-0.526657;-0.214029;-0.822693;,
-0.52755;-0.213408;-0.822282;,
-0.913233;-0.37102;-0.168372;,
-0.913233;-0.37102;-0.168372;,
-0.913233;-0.37102;-0.168372;,
-0.827681;-0.382621;-0.410542;,
-0.827681;-0.382621;-0.410542;,
-0.87264;-0.349089;-0.341521;,
-0.776176;-0.413127;-0.476316;,
-0.237017;0.00290438;-0.971501;,
-0.00474824;0.00556344;0.999973;,
-0.000882264;0.00348692;0.999994;,
-0.516808;0.394593;0.75974;,
-0.390205;0.519641;0.760074;,
-0.765216;0.320219;-0.558483;,
-0.765216;0.320219;-0.558483;,
-0.765581;0.320469;-0.557839;,
-0.764851;0.319968;-0.559127;,
-0.901938;0.377469;0.209821;,
-0.901938;0.377469;0.209821;,
-0.902021;0.377425;0.209543;,
-0.901855;0.377513;0.210098;,
-0.459125;0.505195;-0.730741;,
-0.266909;0.355559;-0.895733;,
-0.867482;0.365782;-0.337163;,
-0.901562;0.381733;-0.203631;,
-0.918466;0.389269;-0.0699273;,
-0.918126;0.390354;-0.0683247;,
-0.510874;0.396427;-0.762793;,
-0.384282;0.518915;-0.76358;,
-0.917264;0.395414;-0.0476868;,
-0.917264;0.395414;-0.0476868;,
-0.916526;0.397166;-0.0473253;,
-0.917999;0.393661;-0.0480481;,
-0.287408;0.222545;0.931596;,
-0.214957;0.292005;0.931948;,
-0.915699;0.390296;-0.0957328;,
-0.915786;0.389073;-0.0997893;,
-0.915336;0.393924;-0.0835689;,
-0.523737;0.22107;-0.822696;,
-0.376326;0.38427;-0.84304;,
-0.37693;0.384675;-0.842584;,
-0.908084;0.383448;-0.168378;,
-0.908084;0.383448;-0.168378;,
-0.908084;0.383448;-0.168378;,
-0.855802;0.314716;-0.410557;,
-0.855802;0.314716;-0.410557;,
-0.863882;0.370226;-0.341528;,
-0.84095;0.256717;-0.476339;,
-0.165618;0.169741;-0.971472;,
0.000576365;0.00729153;0.999973;,
0.00276312;0.00463361;0.999985;,
-0.086413;0.644453;0.759745;,
0.0915223;0.643357;0.760076;,
-0.314643;0.767492;-0.558531;,
-0.314643;0.767492;-0.558531;,
-0.314715;0.767879;-0.557957;,
-0.314571;0.767104;-0.559104;,
-0.37087;0.904675;0.209805;,
-0.37087;0.904675;0.209805;,
-0.370971;0.904706;0.209492;,
-0.370768;0.904644;0.210118;,
0.032575;0.681879;-0.730739;,
0.062684;0.440148;-0.895734;,
-0.354756;0.872048;-0.337165;,
-0.367578;0.907426;-0.20363;,
-0.374203;0.924707;-0.0699208;,
-0.373195;0.925234;-0.0683187;,
-0.0809248;0.641563;-0.76279;,
0.0952027;0.638656;-0.76358;,
-0.368997;0.928206;-0.0476867;,
-0.368997;0.928206;-0.0476867;,
-0.367234;0.928924;-0.0473248;,
-0.370758;0.927486;-0.0480485;,
-0.0458649;0.360594;0.931595;,
0.0544825;0.358476;0.931948;,
-0.371511;0.923481;-0.0957239;,
-0.372442;0.922677;-0.0997728;,
-0.368685;0.925793;-0.0835393;,
-0.212456;0.527941;-0.822278;,
0.00561679;0.537823;-0.843039;,
0.00547671;0.538537;-0.842584;,
-0.369651;0.913902;-0.167755;,
-0.370665;0.913992;-0.165002;,
-0.371028;0.913227;-0.168388;,
-0.382609;0.827662;-0.410593;,
-0.382609;0.827662;-0.410593;,
-0.349078;0.872622;-0.341576;,
-0.413114;0.776155;-0.476362;,
0.00290659;0.237252;-0.971444;,
0.00556414;0.00474756;0.999973;,
0.00298902;0.000756047;0.999995;,
0.26106;0.623454;0.736989;,
0.261032;0.622827;0.737529;,
0.320206;0.765178;-0.558543;,
0.320206;0.765178;-0.558543;,
0.320438;0.765516;-0.557946;,
0.319974;0.764839;-0.55914;,
0.377463;0.901945;0.209805;,
0.377463;0.901945;0.209805;,
0.377416;0.902032;0.209511;,
0.377509;0.901857;0.210098;,
0.505198;0.459126;-0.730738;,
0.355558;0.26691;-0.895733;,
0.36578;0.867481;-0.337167;,
0.381729;0.901563;-0.203632;,
0.389267;0.918467;-0.0699214;,
0.390357;0.918126;-0.0683119;,
0.396434;0.510874;-0.76279;,
0.518914;0.384278;-0.763583;,
0.395432;0.917256;-0.0476866;,
0.395432;0.917256;-0.0476866;,
0.397186;0.916517;-0.0473246;,
0.393677;0.917992;-0.0480484;,
0.222547;0.287408;0.931595;,
0.292005;0.214952;0.931949;,
0.390302;0.915698;-0.0957111;,
0.389075;0.915787;-0.0997748;,
0.393942;0.915334;-0.0835072;,
0.223084;0.523539;-0.822277;,
0.384269;0.376327;-0.84304;,
0.384676;0.376931;-0.842584;,
0.384874;0.907596;-0.167757;,
0.384211;0.908381;-0.165004;,
0.383448;0.908084;-0.168379;,
0.314702;0.855782;-0.410609;,
0.314702;0.855782;-0.410609;,
0.370202;0.863865;-0.341595;,
0.256713;0.840931;-0.476375;,
0.16984;0.165756;-0.971431;,
0.00729141;-0.000576114;0.999973;,
0.00463354;-0.0027628;0.999985;,
0.625448;0.256247;0.736988;,
0.644451;0.0864101;0.759748;,
0.625906;0.256665;0.736454;,
0.643366;-0.0915245;0.760068;,
0.767484;0.314638;-0.558544;,
0.767484;0.314638;-0.558544;,
0.767863;0.314708;-0.557984;,
0.767105;0.314567;-0.559104;,
0.904706;0.370971;0.209492;,
0.904706;0.370971;0.209492;,
0.904706;0.370971;0.209492;,
0.904644;0.370768;0.210118;,
0.904644;0.370768;0.210118;,
0.904644;0.370768;0.210118;,
0.681881;-0.0325708;-0.730738;,
0.44015;-0.0626821;-0.895734;,
0.872048;0.354754;-0.337166;,
0.907426;0.367577;-0.203631;,
0.924708;0.374202;-0.0699211;,
0.925234;0.373195;-0.0683192;,
0.641558;0.0809255;-0.762794;,
0.63865;-0.0951986;-0.763586;,
0.928213;0.368982;-0.0476866;,
0.928213;0.368982;-0.0476866;,
0.928931;0.367216;-0.047324;,
0.927491;0.370746;-0.048049;,
0.36059;0.0458606;0.931596;,
0.358474;-0.0544867;0.931948;,
0.923479;0.371512;-0.0957377;,
0.922674;0.372442;-0.0998018;,
0.925794;0.368683;-0.083539;,
0.527942;0.212456;-0.822277;,
0.537823;-0.00561666;-0.843039;,
0.538537;-0.00547708;-0.842584;,
0.913902;0.369649;-0.167756;,
0.913993;0.370663;-0.165002;,
0.913227;0.371027;-0.168388;,
0.827656;0.382603;-0.41061;,
0.827656;0.382603;-0.41061;,
0.872618;0.349074;-0.341593;,
0.776148;0.413107;-0.476379;,
0.237257;-0.00286951;-0.971443;,
0.00474745;-0.00556386;0.999973;,
0.000880912;-0.003487;0.999994;,
0.516815;-0.394606;0.759729;,
0.390213;-0.519647;0.760066;,
0.76517;-0.320208;-0.558554;,
0.76517;-0.320208;-0.558554;,
0.765515;-0.320445;-0.557945;,
0.764824;-0.319971;-0.559162;,
0.901939;-0.377462;0.20983;,
0.901939;-0.377462;0.20983;,
0.902034;-0.377411;0.209512;,
0.901844;-0.377512;0.210148;,
0.459122;-0.505202;-0.730738;,
0.266907;-0.355563;-0.895732;,
0.867484;-0.365767;-0.337173;,
0.901566;-0.381719;-0.203639;,
0.91847;-0.389258;-0.0699306;,
0.918127;-0.390355;-0.0683116;,
0.510872;-0.39643;-0.762794;,
0.384278;-0.518915;-0.763583;,
0.916522;-0.397174;-0.047325;,
0.916522;-0.397174;-0.047325;,
0.916522;-0.397174;-0.047325;,
0.917998;-0.393662;-0.0480493;,
0.917998;-0.393662;-0.0480493;,
0.917998;-0.393662;-0.0480493;,
0.287415;-0.222546;0.931593;,
0.214962;-0.291999;0.931949;,
0.915692;-0.390309;-0.0957394;,
0.915782;-0.389084;-0.0997853;,
0.91533;-0.39394;-0.0835661;,
0.523539;-0.223087;-0.822277;,
0.37633;-0.384279;-0.843033;,
0.376935;-0.384685;-0.842578;,
0.907594;-0.384878;-0.167757;,
0.908381;-0.384212;-0.165001;,
0.908081;-0.383454;-0.168378;,
0.855787;-0.314716;-0.410588;,
0.855787;-0.314716;-0.410588;,
0.863869;-0.37022;-0.341566;,
0.840935;-0.256724;-0.476362;,
0.165664;-0.169707;-0.97147;,
0.256251;-0.625457;0.736979;,
0.255804;-0.624969;0.737549;,
0.314621;-0.767415;-0.558648;,
0.314621;-0.767415;-0.558648;,
0.314698;-0.767828;-0.558037;,
0.314544;-0.767001;-0.559259;,
0.370856;-0.904665;0.209871;,
0.370856;-0.904665;0.209871;,
0.370941;-0.904692;0.209608;,
0.370771;-0.904639;0.210134;,
0.354729;-0.87206;-0.337161;,
0.367554;-0.907433;-0.203641;,
0.374183;-0.924713;-0.0699453;,
0.373191;-0.925232;-0.0683671;,
0.368989;-0.928209;-0.0476881;,
0.368989;-0.928209;-0.0476881;,
0.367233;-0.928924;-0.0473275;,
0.370745;-0.927491;-0.0480486;,
0.141056;-0.356805;0.923468;,
0.371536;-0.923467;-0.0957631;,
0.372475;-0.922656;-0.0998378;,
0.368686;-0.925798;-0.083479;,
0.21247;-0.527944;-0.822272;,
0.214052;-0.526639;-0.822699;,
0.213423;-0.527546;-0.822281;,
0.369678;-0.913897;-0.16772;,
0.370666;-0.913993;-0.164995;,
0.371077;-0.913212;-0.168363;,
0.382627;-0.827663;-0.410574;,
0.382627;-0.827663;-0.410574;,
0.349085;-0.872638;-0.341528;,
0.413141;-0.776136;-0.476369;,
-0.382834;-0.909951;-0.159457;,
-0.382834;-0.909951;-0.159457;,
-0.386295;-0.907098;-0.16718;,
-0.236512;-0.618575;0.749285;,
-0.464503;-0.43696;0.770262;,
-0.430715;-0.459467;0.776772;,
-0.914153;-0.372676;-0.159492;,
-0.914153;-0.372676;-0.159492;,
-0.914153;-0.372676;-0.159492;,
-0.914576;-0.368272;-0.167111;,
-0.914576;-0.368272;-0.167111;,
-0.914576;-0.368272;-0.167111;,
-0.604635;-0.270194;0.749274;,
-0.637441;0.0194873;0.770252;,
-0.62946;-0.0203338;0.776767;,
-0.908525;0.384589;-0.163318;,
-0.909928;0.382874;-0.159497;,
-0.909928;0.382874;-0.159497;,
-0.907106;0.386297;-0.167136;,
-0.907106;0.386297;-0.167136;,
-0.618601;0.236502;0.749266;,
-0.436976;0.464498;0.770255;,
-0.459483;0.430711;0.776765;,
-0.370481;0.914371;-0.163308;,
-0.372683;0.91415;-0.159491;,
-0.270158;0.604649;0.749276;,
0.0195035;0.637424;0.770266;,
-0.0203253;0.629458;0.776769;,
0.38459;0.908525;-0.163316;,
0.382874;0.909928;-0.159493;,
0.236492;0.618589;0.749279;,
0.464521;0.436955;0.770253;,
0.430724;0.459475;0.776762;,
0.914371;0.370479;-0.163309;,
0.91415;0.372681;-0.159491;,
0.604649;0.270158;0.749276;,
0.637429;-0.0195288;0.770262;,
0.629456;0.0203116;0.77677;,
0.908526;-0.38459;-0.163311;,
0.909931;-0.382871;-0.159483;,
0.618581;-0.236509;0.74928;,
0.436963;-0.464498;0.770263;,
0.459478;-0.430705;0.77677;,
0.370459;-0.91438;-0.16331;,
0.372634;-0.914161;-0.15954;,
0.270179;-0.604622;0.74929;,
-0.0195283;-0.63741;0.770278;,
0.0203118;-0.629438;0.776785;,
-0.324596;-0.77059;-0.548478;,
-0.351917;-0.834145;-0.424684;,
-0.324253;-0.770716;-0.548504;,
-0.324257;-0.770714;-0.548505;,
-0.774419;-0.315328;-0.548492;,
-0.774552;-0.315044;-0.548467;,
-0.774282;-0.315621;-0.548517;,
-0.774286;-0.315604;-0.548521;,
-0.770574;0.324612;-0.548492;,
-0.770439;0.324997;-0.548453;,
-0.770682;0.324314;-0.548516;,
-0.770671;0.32433;-0.548522;,
-0.315207;0.774481;-0.548474;,
-0.315197;0.774483;-0.548477;,
-0.315676;0.774267;-0.548506;,
-0.315694;0.774264;-0.5485;,
0.324612;0.770577;-0.548486;,
0.324293;0.770695;-0.54851;,
0.324294;0.770695;-0.54851;,
0.324939;0.770459;-0.54846;,
0.774264;0.315676;-0.54851;,
0.774547;0.31506;-0.548465;,
0.774374;0.315437;-0.548492;,
0.887187;0.36167;-0.286522;,
0.856568;0.349193;-0.379942;,
0.770578;-0.324616;-0.548483;,
0.882876;-0.372111;-0.286468;,
0.852606;-0.358763;-0.379938;,
0.7707;-0.324291;-0.548505;,
0.315337;-0.774417;-0.54849;,
0.361175;-0.887405;-0.286469;,
0.34916;-0.856583;-0.379938;,
0.315612;-0.774289;-0.548512;,
-0.325281;-0.770338;-0.548427;,
-0.3819;-0.904431;-0.190152;,
-0.774689;-0.314747;-0.548444;,
-0.774687;-0.314752;-0.548444;,
-0.770354;0.325215;-0.548443;,
-0.852209;0.359806;-0.37984;,
-0.88266;0.372675;-0.2864;,
-0.314742;0.774691;-0.548444;,
-0.314739;0.774693;-0.548443;,
0.325272;0.770339;-0.54843;,
0.325261;0.770341;-0.548435;,
0.774694;0.314741;-0.548441;,
0.774694;0.314742;-0.548441;,
0.770344;-0.325249;-0.548437;,
0.904441;-0.381868;-0.190166;,
0.314783;-0.774673;-0.548447;,
0.369579;-0.909531;-0.19017;,
-0.387797;-0.921745;-0.000604079;,
-0.387797;-0.921745;-0.000604079;,
-0.387793;-0.921746;-0.000600417;,
-0.38779;-0.921748;-0.000596755;,
-0.38779;-0.921748;-0.000596755;,
-0.904886;0.380755;-0.190281;,
-0.883083;0.371579;-0.286519;,
-0.921608;0.388121;-0.000568417;,
-0.921492;0.388398;-0.000538261;,
-0.921723;0.387847;-0.000601372;,
-0.361172;0.887406;-0.286471;,
-0.376771;0.926306;-0.000504845;,
-0.377509;0.926006;-0.000596047;,
-0.349202;0.856564;-0.379942;,
0.371942;0.882943;-0.286479;,
0.388583;0.921413;-0.000506176;,
0.387845;0.921724;-0.000592263;,
0.37158;0.883085;-0.286513;,
0.926015;0.377487;-0.000609854;,
0.921351;-0.388732;-0.000484644;,
0.921724;-0.387845;-0.000599765;,
0.376786;-0.9263;-0.000508253;,
0.377466;-0.926023;-0.000588137;,
-0.388989;-0.921242;-0.000449208;,
-0.388989;-0.921242;-0.000449208;,
-0.389001;-0.921237;-0.000455298;,
-0.926455;-0.376404;-0.000459457;,
-0.926455;-0.376404;-0.000459457;,
-0.926307;-0.37677;-0.000505401;,
-0.926456;-0.376402;-0.000460629;,
-0.926456;-0.376402;-0.000460629;,
-0.921261;0.388945;-0.000470591;,
-0.369534;0.909551;-0.190164;,
-0.376402;0.926456;-0.00045951;,
0.372653;0.882665;-0.286411;,
0.388948;0.92126;-0.000459469;,
0.887649;0.360622;-0.28641;,
0.926456;0.376402;-0.000455445;,
0.926229;0.376962;-0.000526576;,
0.88741;0.361165;-0.286466;,
0.921251;-0.388969;-0.000425483;,
0.921226;-0.389028;-0.000385475;,
0.921241;-0.388991;-0.000433196;,
0.921258;-0.388953;-0.000441345;,
0.376443;-0.92644;-0.00046939;,
-0.298603;-0.709741;0.638047;,
-0.298603;-0.709741;0.638047;,
-0.299064;-0.709546;0.638048;,
-0.298603;-0.709742;0.638046;,
-0.298603;-0.709742;0.638046;,
-0.744292;0.004599;0.667839;,
-0.713018;-0.290672;0.638056;,
-0.713018;-0.290672;0.638056;,
-0.713019;-0.290679;0.638052;,
-0.713019;-0.290679;0.638052;,
-0.523065;0.52958;0.667793;,
-0.709536;0.299061;0.63806;,
-0.709716;0.29864;0.638058;,
-0.709725;0.298634;0.638051;,
-0.523067;0.529579;0.667792;,
0.00461834;0.744333;0.667793;,
-0.290252;0.713188;0.638057;,
-0.290254;0.713188;0.638056;,
0.0046289;0.744334;0.667791;,
0.529581;0.523065;0.667793;,
0.299062;0.709536;0.63806;,
0.299072;0.709537;0.638055;,
0.52958;0.523067;0.667792;,
0.52308;-0.529565;0.667794;,
0.709537;-0.299063;0.638059;,
0.709537;-0.299073;0.638054;,
0.523083;-0.529563;0.667793;,
-0.00464693;-0.744333;0.667792;,
0.290248;-0.713183;0.638064;,
0.290251;-0.713183;0.638064;,
-0.00464846;-0.744334;0.667791;,
-0.299519;-0.709351;0.638051;,
-0.713363;-0.289819;0.638058;,
-0.713363;-0.289819;0.638058;,
-0.713363;-0.289819;0.638058;,
-0.713358;-0.289826;0.638061;,
-0.713358;-0.289826;0.638061;,
-0.713358;-0.289826;0.638061;,
-0.709351;0.299369;0.638122;,
-0.709217;0.299406;0.638253;,
-0.709351;0.299522;0.63805;,
-0.709348;0.29953;0.638049;,
-0.709348;0.29953;0.638049;,
-0.709357;0.299482;0.638062;,
-0.709422;0.29925;0.638099;,
-0.709488;0.299017;0.638135;,
0.713245;0.290111;0.638057;,
0.713083;0.290458;0.638081;,
0.744321;-0.00462185;0.667806;,
0.736562;0.148046;0.659968;,
-0.224976;-0.522738;-0.822272;,
-0.224976;-0.522738;-0.822272;,
-0.224086;-0.523424;-0.822078;,
-0.223196;-0.52411;-0.821883;,
-0.223196;-0.52411;-0.821883;,
-0.386647;-0.915908;-0.107779;,
-0.386647;-0.915908;-0.107779;,
-0.386652;-0.9159;-0.107831;,
-0.386652;-0.9159;-0.107831;,
-0.92101;-0.374288;-0.107934;,
-0.92101;-0.37429;-0.107922;,
-0.921009;-0.374285;-0.107945;,
-0.522754;0.224972;-0.822263;,
-0.522754;0.224972;-0.822263;,
-0.522754;0.224972;-0.822263;,
-0.52412;0.2232;-0.821876;,
-0.52412;0.2232;-0.821876;,
-0.915912;0.386607;-0.107889;,
-0.915911;0.386607;-0.107896;,
-0.37428;0.921019;-0.107879;,
-0.374283;0.92102;-0.107864;,
0.3866;0.915914;-0.107898;,
0.386599;0.915914;-0.107896;,
0.921014;0.374281;-0.107922;,
0.921014;0.374281;-0.107924;,
0.91591;-0.386614;-0.107884;,
0.915912;-0.386613;-0.107871;,
0.374329;-0.920985;-0.108006;,
0.374334;-0.920985;-0.107981;,
-0.31535;0.774411;-0.548491;,
-0.314741;0.77469;-0.548446;,
0.324921;0.770465;-0.548462;,
0.325225;0.77035;-0.548443;,
0.774554;0.315042;-0.548465;,
0.774701;0.314726;-0.548439;,
0.926004;0.377513;-0.000592319;,
0.909079;0.370631;-0.190281;,
-0.921251;0.388968;-0.000466886;,
-0.926006;-0.377509;-0.000599766;,
-0.926;-0.377522;-0.000604022;,
-0.926;-0.377522;-0.000604022;,
-0.926009;-0.377501;-0.000599159;,
-0.926009;-0.377501;-0.000599159;,
-0.926008;-0.377504;-0.000596118;,
-0.926013;-0.37749;-0.000594472;,
-0.926009;-0.377501;-0.000578011;,
-0.926009;-0.377501;-0.000578011;,
-0.926018;-0.377479;-0.000610934;,
-0.926018;-0.377479;-0.000610934;,
0.926005;0.377512;-0.000521731;,
0.926005;0.377512;-0.000521731;,
0.926005;0.377512;-0.000521731;,
-0.770697;0.324285;-0.548511;,
0.712977;0.290665;0.638105;,
0.712987;0.290671;0.638091;,
0.712934;0.290649;0.63816;,
-0.315659;0.774271;-0.54851;,
0.324294;0.770695;-0.548509;,
-0.921269;0.388926;-0.000473891;,
-0.921269;0.388926;-0.000473891;,
-0.921269;0.388926;-0.000473891;,
-9.62721e-07;0.906309;0.422615;,
9.99222e-06;0.906307;0.42262;,
2.36077e-06;0.906308;0.422618;,
9.9319e-05;0.422627;-0.906304;,
9.9319e-05;0.422627;-0.906304;,
9.9319e-05;0.422627;-0.906304;,
-8.71665e-05;0.422617;-0.906308;,
-8.71665e-05;0.422617;-0.906308;,
-0.173186;0.433732;-0.884242;,
0.0218793;0.904431;0.426058;,
0.0218793;0.904431;0.426058;,
0.0218793;0.904431;0.426058;,
-1.13113e-05;-0.906303;-0.422629;,
-7.21147e-05;-0.906302;-0.422631;,
-3.97593e-05;-0.906304;-0.422627;,
-3.81745e-06;-0.906307;-0.422621;,
0.00240958;0.903624;0.42832;,
0.00240958;0.903624;0.42832;,
0.00195446;0.905775;0.423754;,
-9.08705e-07;-0.906307;-0.42262;,
0.00149929;0.907903;0.419177;,
0.000709082;0.907094;0.420927;,
-3.66615e-08;-0.906308;-0.422619;,
-8.11334e-05;0.906281;0.422675;,
-8.11334e-05;0.906281;0.422675;,
1.07858e-06;-0.906308;-0.422618;,
3.22061e-07;-0.906295;-0.422646;,
0.0;-0.906282;-0.422673;,
8.29049e-05;0.422644;-0.906296;,
0.000238828;0.422714;-0.906263;,
0.000124357;0.422661;-0.906288;,
4.94356e-06;0.422609;-0.906312;,
0.036162;0.911702;0.409257;,
3.62457e-05;0.906308;0.422618;,
1.65212e-05;0.906308;0.422618;,
0.0216819;0.909709;0.414681;,
0.108289;0.918347;0.380672;,
-0.503318;0.415521;-0.757637;,
-0.503318;0.415521;-0.757637;,
8.92598e-06;0.906312;0.422609;,
8.70622e-07;0.90631;0.422613;,
-3.60205e-06;0.906313;0.422606;,
-2.86523e-06;0.906309;0.422615;,
-2.67311e-07;0.906308;0.422618;,
2.27042e-06;0.906307;0.422619;,
-7.70004e-06;0.906311;0.422611;;

 440;
3;0,1,2;,
3;0,3,1;,
3;4,5,6;,
3;4,7,5;,
3;8,9,10;,
3;8,11,9;,
3;12,13,14;,
3;12,15,13;,
3;16,17,18;,
3;16,19,17;,
3;18,20,21;,
3;18,17,20;,
3;21,22,23;,
3;21,20,22;,
3;24,25,26;,
3;24,27,25;,
3;28,29,30;,
3;31,32,33;,
3;34,35,36;,
3;37,38,35;,
3;39,40,41;,
3;42,43,44;,
3;45,46,47;,
3;48,49,50;,
3;48,51,49;,
3;52,53,54;,
3;3,55,1;,
3;3,56,55;,
3;7,57,5;,
3;7,58,57;,
3;59,60,61;,
3;59,62,60;,
3;63,64,65;,
3;63,66,64;,
3;19,67,17;,
3;19,68,67;,
3;17,69,70;,
3;17,67,69;,
3;70,71,72;,
3;70,69,71;,
3;27,73,25;,
3;27,74,73;,
3;75,76,77;,
3;75,78,76;,
3;79,80,81;,
3;79,82,80;,
3;83,84,85;,
3;86,87,88;,
3;89,90,91;,
3;92,93,94;,
3;92,95,93;,
3;53,96,54;,
3;56,97,55;,
3;56,98,97;,
3;58,99,57;,
3;58,100,99;,
3;101,102,103;,
3;101,104,102;,
3;105,106,107;,
3;105,108,106;,
3;68,109,67;,
3;68,110,109;,
3;67,111,112;,
3;67,109,111;,
3;112,113,114;,
3;112,111,113;,
3;74,115,73;,
3;74,116,115;,
3;117,118,119;,
3;117,120,118;,
3;82,121,80;,
3;82,122,121;,
3;123,124,125;,
3;126,127,128;,
3;129,130,131;,
3;132,133,134;,
3;132,135,133;,
3;96,136,54;,
3;98,137,97;,
3;98,138,137;,
3;100,139,99;,
3;100,140,139;,
3;141,142,143;,
3;141,144,142;,
3;145,146,147;,
3;145,148,146;,
3;110,149,109;,
3;110,150,149;,
3;109,151,152;,
3;109,149,151;,
3;152,153,154;,
3;152,151,153;,
3;116,155,115;,
3;116,156,155;,
3;157,158,159;,
3;157,160,158;,
3;122,161,121;,
3;122,162,161;,
3;163,164,165;,
3;166,167,168;,
3;169,170,171;,
3;172,173,174;,
3;172,175,173;,
3;136,176,54;,
3;138,177,137;,
3;138,178,177;,
3;140,179,139;,
3;140,180,179;,
3;181,182,183;,
3;181,184,182;,
3;185,186,187;,
3;185,188,186;,
3;150,189,149;,
3;150,190,189;,
3;149,191,192;,
3;149,189,191;,
3;192,193,194;,
3;192,191,193;,
3;156,195,155;,
3;156,196,195;,
3;197,198,199;,
3;197,200,198;,
3;162,201,161;,
3;162,202,201;,
3;203,204,205;,
3;206,207,208;,
3;209,210,211;,
3;212,213,214;,
3;212,215,213;,
3;176,216,54;,
3;178,217,177;,
3;178,218,217;,
3;219,220,221;,
3;219,222,220;,
3;223,224,225;,
3;223,226,224;,
3;227,228,229;,
3;230,231,232;,
3;190,233,189;,
3;190,234,233;,
3;189,235,236;,
3;189,233,235;,
3;236,237,238;,
3;236,235,237;,
3;196,239,195;,
3;196,240,239;,
3;241,242,243;,
3;241,244,242;,
3;202,245,201;,
3;202,246,245;,
3;247,248,249;,
3;250,251,252;,
3;253,254,255;,
3;256,257,258;,
3;256,259,257;,
3;216,260,54;,
3;218,261,217;,
3;218,262,261;,
3;222,263,220;,
3;222,264,263;,
3;265,266,267;,
3;265,268,266;,
3;269,270,271;,
3;269,272,270;,
3;234,273,233;,
3;234,274,273;,
3;233,275,276;,
3;233,273,275;,
3;276,277,278;,
3;276,275,277;,
3;240,279,239;,
3;240,280,279;,
3;281,282,283;,
3;284,285,286;,
3;246,287,245;,
3;246,288,287;,
3;289,290,291;,
3;292,293,294;,
3;295,296,297;,
3;298,299,300;,
3;298,301,299;,
3;260,302,54;,
3;262,2,261;,
3;262,0,2;,
3;264,303,263;,
3;264,304,303;,
3;305,306,307;,
3;305,308,306;,
3;309,310,311;,
3;309,312,310;,
3;274,18,273;,
3;274,16,18;,
3;273,313,314;,
3;273,18,313;,
3;314,315,316;,
3;314,313,315;,
3;280,26,279;,
3;280,24,26;,
3;317,318,319;,
3;317,320,318;,
3;288,36,287;,
3;288,321,36;,
3;322,323,324;,
3;325,326,327;,
3;328,329,330;,
3;331,332,333;,
3;331,334,332;,
3;302,52,54;,
3;335,336,46;,
3;46,45,337;,
3;338,339,340;,
3;341,342,343;,
3;344,345,346;,
3;347,348,349;,
3;350,351,352;,
3;353,354,350;,
3;355,356,357;,
3;358,359,170;,
3;170,169,358;,
3;360,361,362;,
3;363,364,210;,
3;210,209,363;,
3;365,366,367;,
3;368,369,254;,
3;254,253,368;,
3;370,371,372;,
3;373,374,296;,
3;296,295,373;,
3;375,376,377;,
3;378,379,329;,
3;329,328,378;,
3;380,381,382;,
3;382,381,338;,
3;338,340,382;,
3;340,339,347;,
3;347,349,340;,
3;349,348,355;,
3;355,357,349;,
3;357,356,360;,
3;360,362,357;,
3;362,361,365;,
3;365,367,362;,
3;367,366,370;,
3;370,372,367;,
3;372,371,375;,
3;375,377,372;,
3;377,376,380;,
3;380,382,377;,
3;383,384,385;,
3;385,386,383;,
3;387,388,389;,
3;389,390,387;,
3;391,392,393;,
3;393,394,391;,
3;395,396,397;,
3;397,398,395;,
3;399,400,401;,
3;401,402,399;,
3;403,404,405;,
3;405,406,407;,
3;403,405,407;,
3;408,409,410;,
3;410,411,408;,
3;412,413,414;,
3;414,415,412;,
3;416,417,384;,
3;384,383,416;,
3;418,419,388;,
3;388,387,418;,
3;392,391,420;,
3;392,420,421;,
3;392,421,422;,
3;395,423,424;,
3;424,396,395;,
3;402,425,426;,
3;426,399,402;,
3;404,427,428;,
3;428,405,404;,
3;429,430,409;,
3;409,408,429;,
3;431,432,413;,
3;413,412,431;,
3;433,434,435;,
3;435,436,437;,
3;438,439,440;,
3;440,441,442;,
3;438,440,442;,
3;443,444,445;,
3;445,446,443;,
3;447,448,449;,
3;449,450,447;,
3;451,407,406;,
3;409,452,453;,
3;453,410,409;,
3;413,454,455;,
3;455,414,413;,
3;417,456,457;,
3;458,384,417;,
3;459,460,461;,
3;461,462,463;,
3;464,441,440;,
3;465,466,444;,
3;444,443,465;,
3;467,468,448;,
3;448,447,467;,
3;469,470,471;,
3;471,472,469;,
3;473,474,475;,
3;473,475,452;,
3;452,409,430;,
3;452,430,476;,
3;473,452,476;,
3;432,477,454;,
3;454,413,432;,
3;478,479,480;,
3;480,481,482;,
3;483,484,485;,
3;486,487,483;,
3;488,489,490;,
3;491,492,488;,
3;493,494,495;,
3;495,496,493;,
3;497,498,499;,
3;499,500,497;,
3;501,502,503;,
3;503,504,501;,
3;505,506,507;,
3;507,508,505;,
3;505,508,480;,
3;480,509,505;,
3;510,511,512;,
3;513,514,515;,
3;516,517,483;,
3;516,483,518;,
3;516,519,520;,
3;521,489,522;,
3;516,523,522;,
3;488,492,495;,
3;495,494,488;,
3;493,496,499;,
3;499,498,493;,
3;497,500,524;,
3;524,525,497;,
3;526,527,503;,
3;503,502,526;,
3;501,504,507;,
3;507,506,501;,
3;528,529,530;,
3;530,531,532;,
3;533,534,40;,
3;40,535,536;,
3;44,43,86;,
3;86,88,44;,
3;537,538,84;,
3;84,539,537;,
3;540,541,542;,
3;543,128,544;,
3;545,546,124;,
3;124,123,545;,
3;128,127,166;,
3;166,168,128;,
3;547,548,164;,
3;164,163,547;,
3;168,167,206;,
3;206,208,168;,
3;549,550,204;,
3;204,203,549;,
3;208,207,250;,
3;250,252,208;,
3;551,552,248;,
3;248,247,551;,
3;252,251,292;,
3;292,294,252;,
3;553,554,290;,
3;290,289,553;,
3;294,293,325;,
3;325,327,294;,
3;555,556,323;,
3;323,322,555;,
3;443,557,558;,
3;558,465,443;,
3;559,560,467;,
3;467,447,559;,
3;561,562,469;,
3;469,472,561;,
3;471,563,564;,
3;564,472,471;,
3;422,421,565;,
3;566,567,568;,
3;566,569,570;,
3;566,571,461;,
3;572,573,574;,
3;572,575,576;,
3;577,578,579;,
3;439,438,580;,
3;525,524,527;,
3;526,581,582;,
3;527,526,582;,
3;525,527,582;,
3;525,582,583;,
3;446,584,557;,
3;557,443,446;,
3;585,559,447;,
3;447,450,585;,
3;561,472,564;,
3;586,587,588;,
3;262,218,178;,
3;178,138,98;,
3;98,56,3;,
3;178,98,3;,
3;262,178,3;,
3;0,262,3;,
3;589,590,591;,
3;592,593,594;,
3;595,596,597;,
3;598,599,600;,
3;601,602,603;,
3;601,603,604;,
3;605,606,607;,
3;601,604,608;,
3;607,609,610;,
3;601,608,611;,
3;610,612,613;,
3;601,611,614;,
3;601,614,615;,
3;601,615,616;,
3;617,618,619;,
3;617,619,620;,
3;597,617,620;,
3;621,622,623;,
3;621,623,624;,
3;625,621,624;,
3;626,597,627;,
3;624,628,629;,
3;629,630,631;,
3;624,629,631;,
3;632,624,631;,
3;591,633,631;,
3;589,591,631;,
3;589,631,634;;
 }
MeshTextureCoords {
 635;
0.361794;0.99265;,
0.290924;0.953576;,
0.268474;1.03985;,
0.362073;0.992126;,
0.268474;1.03985;,
0.27839;0.924836;,
0.246379;1.02666;,
0.290924;0.953576;,
0.246379;1.02666;,
0.27957;0.915013;,
0.248505;1.01152;,
0.27839;0.924836;,
0.248505;1.01152;,
0.271578;0.881656;,
0.233832;0.982543;,
0.27957;0.915013;,
0.233832;0.982543;,
0.285389;0.871464;,
0.258818;0.945654;,
0.271578;0.881656;,
0.291931;0.813328;,
0.269977;0.864499;,
0.282658;0.769075;,
0.253604;0.818197;,
0.253604;0.818197;,
0.295199;0.75565;,
0.275104;0.790742;,
0.282658;0.769075;,
1.2751;0.790742;,
1.06765;0.545127;,
0.990785;0.573592;,
0.275104;0.790742;,
0.295199;0.75565;,
0.0676526;0.545127;,
0.990785;0.573592;,
1.09632;0.500232;,
1.00808;0.570226;,
0.990785;0.573592;,
1.06765;0.545127;,
0.00807556;0.570226;,
0.0293612;0.534867;,
0.00265153;0.560312;,
0.0293612;0.534867;,
0.0877523;0.490899;,
0.0167193;0.474666;,
0.962611;0.517667;,
0.952955;0.485348;,
0.947515;0.492303;,
0.886074;0.251912;,
0.883498;0.206315;,
0.881242;0.225803;,
0.892153;0.226743;,
0.881242;0.225803;,
0.883498;0.206315;,
0.862447;0.207214;,
0.334442;0.889664;,
0.362578;0.991991;,
0.329925;0.849362;,
0.334442;0.889664;,
0.27839;0.924836;,
0.330357;0.843492;,
0.27957;0.915013;,
0.329925;0.849362;,
0.27957;0.915013;,
0.327487;0.806871;,
0.271578;0.881656;,
0.330357;0.843492;,
0.332494;0.816538;,
0.327487;0.806871;,
0.334932;0.775526;,
0.291931;0.813328;,
0.33174;0.732864;,
0.282658;0.769075;,
0.336337;0.72986;,
0.33174;0.732864;,
0.295199;0.75565;,
0.174124;0.524283;,
0.0676526;0.545127;,
0.336337;0.72986;,
0.0676526;0.545127;,
0.221997;0.448509;,
0.0963173;0.500232;,
0.174124;0.524283;,
0.0963173;0.500232;,
0.115606;0.472221;,
0.0877523;0.490899;,
0.115606;0.472221;,
0.209952;0.439729;,
0.0413931;0.442984;,
1.01672;0.474666;,
0.987438;0.446778;,
0.988496;0.451918;,
0.892153;0.226743;,
0.872528;0.191987;,
0.883498;0.206315;,
0.879989;0.20629;,
0.872528;0.191987;,
0.384522;0.885552;,
0.363015;0.992324;,
0.387983;0.844443;,
0.384522;0.885552;,
0.329925;0.849362;,
0.38767;0.83885;,
0.330357;0.843492;,
0.387983;0.844443;,
0.330357;0.843492;,
0.389893;0.802003;,
0.327487;0.806871;,
0.38767;0.83885;,
0.386132;0.813053;,
0.389893;0.802003;,
0.384454;0.773234;,
0.334932;0.775526;,
0.387278;0.730776;,
0.33174;0.732864;,
0.38391;0.728477;,
0.387278;0.730776;,
0.336337;0.72986;,
0.532918;0.52327;,
0.174124;0.524283;,
0.38391;0.728477;,
0.479667;0.445351;,
0.532918;0.52327;,
0.221997;0.448509;,
0.293349;0.43876;,
0.209952;0.439729;,
0.293349;0.43876;,
0.492534;0.436776;,
0.687929;0.441181;,
1.04139;0.442984;,
0.949858;0.421732;,
0.977158;0.422045;,
0.879989;0.20629;,
0.85412;0.191215;,
0.872528;0.191987;,
0.854034;0.202532;,
0.85412;0.191215;,
0.429477;0.94365;,
0.36313;0.992931;,
0.440932;0.912964;,
0.429477;0.94365;,
0.387983;0.844443;,
0.439871;0.903806;,
0.38767;0.83885;,
0.440932;0.912964;,
0.38767;0.83885;,
0.447186;0.869899;,
0.389893;0.802003;,
0.439871;0.903806;,
0.434635;0.863049;,
0.447186;0.869899;,
0.428808;0.807796;,
0.384454;0.773234;,
0.437618;0.764033;,
0.387278;0.730776;,
0.42624;0.752312;,
0.437618;0.764033;,
0.38391;0.728477;,
0.650108;0.542682;,
0.532918;0.52327;,
0.42624;0.752312;,
0.617765;0.49261;,
0.650108;0.542682;,
0.479667;0.445351;,
0.564141;0.454083;,
0.492534;0.436776;,
0.564141;0.454083;,
0.627377;0.483769;,
0.703473;0.470313;,
0.687929;0.441181;,
0.752093;0.424883;,
0.760531;0.420186;,
0.854034;0.202532;,
0.841931;0.204449;,
0.85412;0.191215;,
0.835036;0.217671;,
0.841931;0.204449;,
0.455676;1.02992;,
0.362852;0.993456;,
0.476412;1.01478;,
0.455676;1.02992;,
0.440932;0.912964;,
0.474439;1.00031;,
0.439871;0.903806;,
0.476412;1.01478;,
0.439871;0.903806;,
0.48807;0.970787;,
0.447186;0.869899;,
0.474439;1.00031;,
0.464809;0.937239;,
0.48807;0.970787;,
0.454292;0.858966;,
0.428808;0.807796;,
0.469856;0.813155;,
0.437618;0.764033;,
0.449453;0.787404;,
0.469856;0.813155;,
0.42624;0.752312;,
0.72696;0.571147;,
0.650108;0.542682;,
0.449453;0.787404;,
0.706588;0.562601;,
0.72696;0.571147;,
0.617765;0.49261;,
0.663644;0.509214;,
0.627377;0.483769;,
0.663644;0.509214;,
0.712915;0.553182;,
0.755809;0.513315;,
0.703473;0.470313;,
0.742025;0.454384;,
0.733517;0.447429;,
0.835036;0.217671;,
0.842913;0.223938;,
0.841931;0.204449;,
0.834773;0.24284;,
0.842913;0.223938;,
0.428154;1.09384;,
0.362344;0.993591;,
0.455676;0.0299244;,
0.456492;0.0902597;,
0.476412;0.0147844;,
0.428154;0.0938372;,
0.476412;0.0147844;,
0.453375;0.0718308;,
0.474439;0.000310011;,
0.456492;0.0902597;,
0.474439;1.00031;,
0.476749;1.04557;,
0.48807;0.970787;,
0.474439;0.000310011;,
0.453375;0.0718308;,
0.476749;0.045569;,
0.439423;0.992164;,
0.476749;1.04557;,
0.426231;0.896769;,
0.454292;0.858966;,
0.445743;0.849367;,
0.469856;0.813155;,
0.42035;0.813195;,
0.445743;0.849367;,
0.449453;0.787404;,
0.811834;0.591991;,
0.72696;0.571147;,
0.42035;0.813195;,
0.802716;0.614326;,
0.811834;0.591991;,
0.706588;0.562601;,
0.747384;0.571859;,
0.712915;0.553182;,
0.747384;0.571859;,
0.805618;0.604352;,
0.822184;0.544996;,
0.755809;0.513315;,
0.782034;0.492955;,
0.771517;0.487816;,
0.834773;0.24284;,
0.854178;0.238265;,
0.842913;0.223938;,
0.848846;0.263294;,
0.854178;0.238265;,
0.307732;1.09795;,
0.361905;0.993257;,
0.281698;0.0951773;,
0.307732;0.0979498;,
0.456492;0.0902597;,
0.284632;0.0764722;,
0.453375;0.0718308;,
0.281698;0.0951773;,
0.453375;0.0718308;,
0.261581;0.0504389;,
0.476749;0.045569;,
0.284632;0.0764722;,
0.297389;0.99565;,
0.261581;1.05044;,
0.308823;0.899062;,
0.426231;0.896769;,
0.290393;0.851455;,
0.445743;0.849367;,
0.312959;0.814578;,
0.290393;0.851455;,
0.42035;0.813195;,
0.904809;0.593004;,
0.811834;0.591991;,
0.42035;0.813195;,
1.31296;0.814578;,
0.904809;0.593004;,
0.910137;0.617483;,
0.904809;0.593004;,
0.802716;0.614326;,
0.842804;0.605321;,
0.805618;0.604352;,
0.842804;0.605321;,
0.908395;0.607304;,
0.895077;0.546799;,
0.822184;0.544996;,
0.838253;0.518001;,
0.827588;0.517688;,
0.848846;0.263294;,
0.869279;0.239038;,
0.854178;0.238265;,
0.868779;0.267051;,
0.869279;0.239038;,
0.246379;0.0266573;,
0.268474;0.0398513;,
0.281698;0.0951773;,
0.248505;0.0115163;,
0.284632;0.0764722;,
0.246379;0.0266573;,
0.284632;1.07647;,
0.233832;0.982543;,
0.261581;1.05044;,
0.248505;1.01152;,
0.269977;0.864499;,
0.308823;0.899062;,
0.253604;0.818197;,
0.290393;0.851455;,
1.31296;0.814578;,
0.990785;0.573592;,
0.904809;0.593004;,
1.2751;0.790742;,
0.990785;0.573592;,
0.910137;0.617483;,
0.941978;0.589998;,
0.908395;0.607304;,
0.941978;0.589998;,
1.00265;0.560312;,
0.962611;0.517667;,
0.895077;0.546799;,
0.899097;0.514851;,
0.890126;0.519547;,
0.868779;0.267051;,
0.881242;0.225803;,
0.869279;0.239038;,
0.886074;0.251912;,
1.01672;0.474666;,
0.988496;0.451918;,
1.01672;0.474666;,
0.879454;0.248344;,
0.88023;0.242103;,
0.892153;0.226743;,
1.04139;0.442984;,
0.977158;0.422045;,
0.987438;0.446778;,
0.987438;0.446778;,
1.01672;0.474666;,
1.04139;0.442984;,
0.87493;0.235589;,
0.870955;0.230972;,
0.879989;0.20629;,
0.687929;0.441181;,
0.760531;0.420186;,
0.949858;0.421732;,
0.949858;0.421732;,
1.04139;0.442984;,
0.861992;0.230575;,
0.855623;0.230286;,
0.854034;0.202532;,
0.703473;0.470313;,
0.733517;0.447429;,
0.849391;0.236238;,
0.845209;0.240448;,
0.835036;0.217671;,
0.755809;0.513315;,
0.771517;0.487816;,
0.845538;0.249262;,
0.845749;0.255504;,
0.834773;0.24284;,
0.822184;0.544996;,
0.827588;0.517688;,
0.851419;0.262017;,
0.855256;0.266635;,
0.848846;0.263294;,
0.895077;0.546799;,
0.890126;0.519547;,
0.862856;0.267032;,
0.868223;0.26732;,
0.868779;0.267051;,
0.962611;0.517667;,
0.947515;0.492303;,
0.874104;0.261368;,
0.87844;0.257159;,
0.886074;0.251912;,
0.879454;0.248344;,
0.953423;0.378391;,
0.978343;0.337781;,
0.88023;0.242103;,
0.87493;0.235589;,
0.973665;0.31945;,
0.959197;0.289405;,
0.870955;0.230972;,
0.861992;0.230575;,
0.881704;0.275954;,
0.838211;0.255298;,
0.855623;0.230286;,
0.849391;0.236238;,
0.828956;0.261881;,
0.821351;0.268915;,
0.845209;0.240448;,
0.81949;0.288349;,
0.816937;0.318766;,
0.845749;0.255504;,
0.845538;0.249262;,
0.855256;0.266635;,
0.851419;0.262017;,
0.818403;0.360876;,
0.820859;0.43522;,
0.829716;0.444345;,
0.862856;0.267032;,
0.851997;0.445461;,
0.888475;0.447339;,
0.868223;0.26732;,
0.874104;0.261368;,
0.907463;0.430588;,
0.942089;0.403199;,
0.87844;0.257159;,
0.87844;0.257159;,
0.942089;0.403199;,
0.88023;0.242103;,
0.978343;0.337781;,
0.870955;0.230972;,
0.959197;0.289405;,
0.934128;0.288897;,
0.855623;0.230286;,
0.838211;0.255298;,
0.845209;0.240448;,
0.821351;0.268915;,
0.845749;0.255504;,
0.816937;0.318766;,
0.855256;0.266635;,
0.829716;0.444345;,
0.868223;0.26732;,
0.888475;0.447339;,
0.953423;0.378391;,
0.969244;0.439942;,
1.00697;0.394282;,
0.978343;0.337781;,
0.953423;0.378391;,
0.778392;0.28641;,
0.874106;0.287928;,
0.916297;0.313634;,
0.95837;0.344997;,
0.716944;0.342886;,
0.759799;0.303162;,
0.715196;0.35624;,
0.713578;0.387035;,
0.744429;0.33055;,
0.759528;0.355358;,
0.731465;0.406811;,
0.760942;0.452472;,
0.777437;0.395969;,
0.826688;0.475555;,
0.844642;0.501757;,
0.893151;0.503868;,
0.911113;0.490514;,
0.957285;0.459719;,
0.957285;0.459719;,
0.969244;0.439942;,
0.969244;0.439942;,
0.978343;0.337781;,
1.00697;0.394282;,
1.00855;0.379668;,
0.973665;0.31945;,
0.978343;0.337781;,
0.993032;0.34543;,
0.778392;0.28641;,
0.716944;0.342886;,
0.744429;0.33055;,
0.713578;0.387035;,
0.777437;0.395969;,
0.760942;0.452472;,
0.781326;0.467086;,
0.798697;0.4143;,
0.831881;0.493617;,
0.82425;0.49716;,
0.823798;0.500867;,
0.826688;0.475555;,
0.893151;0.503868;,
1.00697;0.394282;,
0.969244;0.439942;,
0.952955;0.485348;,
0.988496;0.451918;,
1.00697;0.394282;,
1.01722;0.345888;,
1.00855;0.379668;,
0.987438;0.446778;,
0.987438;0.446778;,
0.977158;0.422045;,
0.716944;0.342886;,
0.95837;0.344997;,
0.949858;0.421732;,
0.949858;0.421732;,
0.760531;0.420186;,
0.713578;0.387035;,
0.715196;0.35624;,
0.752093;0.424883;,
0.733517;0.447429;,
0.760942;0.452472;,
0.731465;0.406811;,
0.742025;0.454384;,
0.771517;0.487816;,
0.893151;0.503868;,
0.844642;0.501757;,
0.838253;0.518001;,
0.890126;0.519547;,
0.957285;0.459719;,
0.911113;0.490514;,
0.899097;0.514851;,
0.947515;0.492303;,
0.969244;0.439942;,
1.00697;0.394282;,
0.988496;0.451918;,
0.987438;0.446778;,
0.987438;0.446778;,
1.00855;0.379668;,
1.00697;0.394282;,
0.993401;0.348771;,
1.00496;0.345633;,
0.977158;0.422045;,
0.977158;0.422045;,
0.949858;0.421732;,
0.949858;0.421732;,
0.993032;0.34543;,
0.949858;0.421732;,
0.782034;0.492955;,
0.781326;0.467086;,
0.823798;0.500867;,
0.827588;0.517688;,
0.962611;0.517667;,
1.00265;0.560312;,
1.02936;0.534867;,
1.01672;0.474666;,
0.962611;0.517667;,
0.0963173;0.500232;,
0.0877523;0.490899;,
0.00807556;0.570226;,
0.0963173;0.500232;,
0.221997;0.448509;,
0.209952;0.439729;,
0.0963173;0.500232;,
0.041393;0.442984;,
0.209952;0.439729;,
0.293349;0.43876;,
1.29335;0.43876;,
1.04139;0.442984;,
0.479667;0.445351;,
0.492534;0.436776;,
0.617765;0.49261;,
0.627377;0.483769;,
0.706588;0.562601;,
0.712915;0.553182;,
0.802716;0.614326;,
0.805618;0.604352;,
0.910137;0.617483;,
0.908395;0.607304;,
1.00808;0.570226;,
1.00265;0.560312;,
0.812783;0.275562;,
0.823142;0.267538;,
0.80334;0.308613;,
0.80456;0.285142;,
0.803716;0.40093;,
0.801566;0.349592;,
0.814149;0.492582;,
0.804472;0.419536;,
0.983006;0.317791;,
1.00572;0.344329;,
0.983006;0.317791;,
0.959197;0.289405;,
0.959197;0.289405;,
0.973665;0.31945;,
0.973665;0.31945;,
0.00571827;0.344329;,
0.00855315;0.379668;,
0.0172192;0.345888;,
0.0172192;0.345888;,
0.0128036;0.342789;,
0.818062;0.495885;,
0.823798;0.500867;,
0.82425;0.49716;,
0.823142;0.267538;,
0.818062;0.495885;,
0.814852;0.493909;,
0.814149;0.492582;,
0.80456;0.285142;,
0.801566;0.349592;,
0.0128036;0.342789;,
0.0172192;0.345888;,
0.00496161;0.345633;,
0.881704;0.275954;,
0.934128;0.288897;,
0.983006;0.317791;,
0.00571823;0.344329;,
0.0128037;0.342789;,
0.00496161;0.345633;,
1.00572;0.344329;,
1.00496;0.345633;,
0.993401;0.348771;,
0.993032;0.34543;,
0.916297;0.313634;,
0.874106;0.287928;,
0.993401;0.348771;,
0.993032;0.34543;,
0.874106;0.287928;,
0.823142;0.267538;,
0.823142;0.267538;,
0.812783;0.275562;,
0.80456;0.285142;,
0.80456;0.285142;,
0.80334;0.308613;,
0.801566;0.349592;,
0.801566;0.349592;,
0.803716;0.40093;,
0.804472;0.419536;,
0.804472;0.419536;,
0.814149;0.492582;,
0.814852;0.493909;,
0.814852;0.493909;,
0.818062;0.495885;,
0.82425;0.49716;,
0.831881;0.493617;,
0.831881;0.493617;,
0.826688;0.475555;,
0.820859;0.43522;,
0.818403;0.360876;,
0.993401;0.348771;,
1.00572;0.344329;,
0.818403;0.360876;,
0.816937;0.318766;,
0.81949;0.288349;,
0.821351;0.268915;,
0.828956;0.261881;,
1.00572;0.344329;,
1.00572;0.344329;,
0.838211;0.255298;;
}
}
 }
 }
 }
