xof 0302txt 0032
Header {
 1;
 0;
 1;
}
template Header {
 <3D82AB43-62DA-11cf-AB39-0020AF71E433>
 WORD major;
 WORD minor;
 DWORD flags;
}

template Vector {
 <3D82AB5E-62DA-11cf-AB39-0020AF71E433>
 FLOAT x;
 FLOAT y;
 FLOAT z;
}

template Coords2d {
 <F6F23F44-7686-11cf-8F52-0040333594A3>
 FLOAT u;
 FLOAT v;
}

template Matrix4x4 {
 <F6F23F45-7686-11cf-8F52-0040333594A3>
 array FLOAT matrix[16];
}

template ColorRGBA {
 <35FF44E0-6C7C-11cf-8F52-0040333594A3>
 FLOAT red;
 FLOAT green;
 FLOAT blue;
 FLOAT alpha;
}

template ColorRGB {
 <D3E16E81-7835-11cf-8F52-0040333594A3>
 FLOAT red;
 FLOAT green;
 FLOAT blue;
}

template TextureFilename {
 <A42790E1-7810-11cf-8F52-0040333594A3>
 STRING filename;
}

template Material {
 <3D82AB4D-62DA-11cf-AB39-0020AF71E433>
 ColorRGBA faceColor;
 FLOAT power;
 ColorRGB specularColor;
 ColorRGB emissiveColor;
 [...]
}

template MeshFace {
 <3D82AB5F-62DA-11cf-AB39-0020AF71E433>
 DWORD nFaceVertexIndices;
 array DWORD faceVertexIndices[nFaceVertexIndices];
}

template MeshTextureCoords {
 <F6F23F40-7686-11cf-8F52-0040333594A3>
 DWORD nTextureCoords;
 array Coords2d textureCoords[nTextureCoords];
}

template MeshMaterialList {
 <F6F23F42-7686-11cf-8F52-0040333594A3>
 DWORD nMaterials;
 DWORD nFaceIndexes;
 array DWORD faceIndexes[nFaceIndexes];
 [Material]
}

template MeshNormals {
 <F6F23F43-7686-11cf-8F52-0040333594A3>
 DWORD nNormals;
 array Vector normals[nNormals];
 DWORD nFaceNormals;
 array MeshFace faceNormals[nFaceNormals];
}

template Mesh {
 <3D82AB44-62DA-11cf-AB39-0020AF71E433>
 DWORD nVertices;
 array Vector vertices[nVertices];
 DWORD nFaces;
 array MeshFace faces[nFaces];
 [...]
}

template FrameTransformMatrix {
 <F6F23F41-7686-11cf-8F52-0040333594A3>
 Matrix4x4 frameMatrix;
}

template Frame {
 <3D82AB46-62DA-11cf-AB39-0020AF71E433>
 [...]
}
template FloatKeys {
 <10DD46A9-775B-11cf-8F52-0040333594A3>
 DWORD nValues;
 array FLOAT values[nValues];
}

template TimedFloatKeys {
 <F406B180-7B3B-11cf-8F52-0040333594A3>
 DWORD time;
 FloatKeys tfkeys;
}

template AnimationKey {
 <10DD46A8-775B-11cf-8F52-0040333594A3>
 DWORD keyType;
 DWORD nKeys;
 array TimedFloatKeys keys[nKeys];
}

template AnimationOptions {
 <E2BF56C0-840F-11cf-8F52-0040333594A3>
 DWORD openclosed;
 DWORD positionquality;
}

template Animation {
 <3D82AB4F-62DA-11cf-AB39-0020AF71E433>
 [...]
}

template AnimationSet {
 <3D82AB50-62DA-11cf-AB39-0020AF71E433>
 [Animation]
}
Frame Line01 {
   FrameTransformMatrix {
-5.15863e-08,0.0,1.18016,0.0,
-6.56595e-08,1.18016,-2.87007e-15,0.0,
-1.18016,-6.56595e-08,-5.15863e-08,0.0,
-7.00215e-06,-12.7658,14.6316,1.0;;
 }
Mesh Line01 {
 443;
-12.398;-38.1099;-3.28264e-06;,
-35.0673;-38.0817;9.38993;,
-36.9351;-38.0817;-2.42602e-07;,
-37.6342;-36.63;10.4532;,
-39.7135;-36.63;-2.33458e-07;,
-35.7782;-34.8257;9.68439;,
-37.7045;-34.8257;-4.37587e-07;,
-37.3781;-34.1609;10.3471;,
-39.4362;-34.1609;-4.30178e-07;,
-37.266;-30.4152;10.3006;,
-39.3149;-30.4152;-2.84416e-07;,
-32.66;-28.326;8.39278;,
-34.3294;-28.326;-2.6113e-07;,
-29.5634;-23.9196;7.11013;,
-30.9777;-23.9196;4.22825e-07;,
-30.9777;-23.9196;4.22825e-07;,
-24.6331;-17.13;5.06793;,
-25.6412;-17.13;3.62768e-07;,
-29.5634;-23.9196;7.11013;,
-23.4874;-8.62366;4.59335;,
-24.401;-8.62366;4.59409e-07;,
-20.116;-6.2813;3.1969;,
-20.7519;-6.2813;3.82869e-07;,
-18.1946;7.96254;2.40103;,
-18.6722;7.96254;1.39661e-06;,
-17.5005;21.8067;2.11354;,
-17.921;21.8067;-5.40011e-07;,
-26.4206;25.8134;5.80834;,
-27.5759;25.8134;-1.70427e-08;,
-18.8565;28.727;2.6752;,
-19.3887;28.727;-1.68704e-06;,
-22.0915;30.8276;4.01515;,
-22.8901;30.8276;-7.27029e-07;,
-26.4282;35.0934;5.8115;,
-27.5842;35.0934;-8.3856e-07;,
-27.7568;42.0667;6.36182;,
-29.0223;42.0667;-8.38559e-07;,
-26.4909;49.2434;5.83745;,
-27.652;49.2434;-8.38559e-07;,
-23.9465;54.548;4.78353;,
-24.898;54.548;-8.38558e-07;,
-19.9732;57.8176;3.13775;,
-20.5974;57.8176;-8.38558e-07;,
-16.188;59.3099;1.56984;,
-16.5002;59.3099;-8.38558e-07;,
-13.8316;59.744;0.593795;,
-13.9497;59.744;-8.38558e-07;,
-12.1896;59.6491;-0.0863225;,
-12.1724;59.6491;-8.38559e-07;,
-29.7483;-38.0817;17.3503;,
-31.713;-36.63;19.315;,
-30.2924;-34.8257;17.8944;,
-31.5169;-34.1609;19.1189;,
-37.3781;-34.1609;10.3471;,
-31.4311;-30.4152;19.0331;,
-37.266;-30.4152;10.3006;,
-31.5169;-34.1609;19.1189;,
-27.9059;-28.326;15.5078;,
-32.66;-28.326;8.39278;,
-25.5358;-23.9196;13.1378;,
-21.7623;-17.13;9.36432;,
-20.8854;-8.62367;8.48741;,
-18.3051;-6.2813;5.9071;,
-16.8345;7.96254;4.43652;,
-16.3033;21.8067;3.90531;,
-23.1304;25.8134;10.7324;,
-17.3411;28.727;4.94313;,
-19.8171;30.8276;7.41904;,
-23.1363;35.0934;10.7382;,
-24.1531;42.0667;11.7551;,
-23.1842;49.2434;10.7862;,
-21.2368;54.548;8.83881;,
-18.1958;57.8176;5.79781;,
-15.2987;59.3099;2.90069;,
-13.4952;59.744;1.09719;,
-12.2385;59.6491;-0.159502;,
-12.398;-38.1099;-3.28264e-06;,
-21.7879;-38.0817;22.6693;,
-29.7483;-38.0817;17.3503;,
-22.8512;-36.63;25.2362;,
-31.713;-36.63;19.315;,
-22.0824;-34.8257;23.3802;,
-30.2924;-34.8257;17.8944;,
-22.7451;-34.1609;24.98;,
-22.6987;-30.4153;24.868;,
-20.7908;-28.326;20.262;,
-19.5081;-23.9196;17.1654;,
-17.4659;-17.13;12.2351;,
-16.9914;-8.62367;11.0893;,
-15.5949;-6.2813;7.71799;,
-14.799;7.96254;5.79659;,
-14.5116;21.8067;5.10253;,
-18.2064;25.8134;14.0226;,
-15.0732;28.727;6.45851;,
-16.4132;30.8276;9.69344;,
-18.2095;35.0934;14.0302;,
-18.7598;42.0667;15.3588;,
-18.2355;49.2434;14.0929;,
-17.1816;54.548;11.5485;,
-15.5358;57.8176;7.5752;,
-13.9679;59.3099;3.78994;,
-12.9918;59.744;1.43355;,
-12.3117;59.6491;-0.208397;,
-12.398;-38.0817;24.5371;,
-12.398;-36.63;27.3155;,
-12.398;-34.8257;25.3065;,
-12.398;-34.1609;27.0382;,
-12.398;-30.4153;26.9169;,
-12.398;-28.326;21.9314;,
-12.398;-23.9196;18.5797;,
-12.398;-17.13;13.2431;,
-12.398;-8.62367;12.003;,
-12.398;-6.2813;8.3539;,
-12.398;7.96255;6.27418;,
-12.398;21.8067;5.52294;,
-12.398;25.8134;15.1779;,
-12.398;28.727;6.99064;,
-12.398;30.8276;10.4921;,
-12.398;35.0934;15.1862;,
-12.398;42.0667;16.6242;,
-12.398;49.2434;15.254;,
-12.398;54.548;12.5;,
-12.398;57.8176;8.19934;,
-12.398;59.3099;4.1022;,
-12.398;59.744;1.55167;,
-12.398;59.6491;-0.225566;,
-3.00808;-38.0817;22.6693;,
-1.94483;-36.63;25.2362;,
-2.71362;-34.8257;23.3802;,
-2.05094;-34.1609;24.98;,
-2.09736;-30.4153;24.868;,
-4.00523;-28.326;20.262;,
-5.28788;-23.9196;17.1654;,
-7.33008;-17.13;12.2351;,
-7.80465;-8.62367;11.0893;,
-9.20111;-6.2813;7.71799;,
-9.99698;7.96254;5.79659;,
-10.2845;21.8067;5.10253;,
-6.58967;25.8134;14.0226;,
-9.72281;28.727;6.45851;,
-8.38286;30.8276;9.69344;,
-6.58651;35.0934;14.0302;,
-6.03619;42.0667;15.3588;,
-6.56056;49.2434;14.0929;,
-7.61448;54.548;11.5485;,
-9.26026;57.8176;7.5752;,
-10.8282;59.3099;3.78994;,
-11.8042;59.744;1.43356;,
-12.4843;59.6491;-0.208394;,
4.95231;-38.0817;17.3503;,
6.91694;-36.63;19.3149;,
5.4964;-34.8257;17.8944;,
6.72089;-34.1609;19.1189;,
6.6351;-30.4152;19.0331;,
3.10983;-28.326;15.5078;,
0.739797;-23.9196;13.1378;,
-3.03369;-17.13;9.36432;,
-3.9106;-8.62367;8.48741;,
-6.49091;-6.2813;5.90709;,
-7.96149;7.96254;4.43651;,
-8.4927;21.8067;3.90531;,
-1.6656;25.8134;10.7324;,
-7.45488;28.727;4.94313;,
-4.97897;30.8276;7.41904;,
-1.65976;35.0934;10.7382;,
-0.642896;42.0667;11.7551;,
-1.6118;49.2434;10.7862;,
-3.5592;54.548;8.83882;,
-6.60021;57.8176;5.79781;,
-9.49732;59.3099;2.9007;,
-11.3008;59.744;1.0972;,
-12.5575;59.6491;-0.159497;,
10.2713;-38.0817;9.38992;,
12.8382;-36.63;10.4532;,
10.9822;-34.8257;9.68438;,
12.582;-34.1609;10.3471;,
12.4699;-30.4152;10.3006;,
7.86396;-28.326;8.39278;,
4.76736;-23.9196;7.11012;,
-0.162937;-17.13;5.06793;,
-1.30867;-8.62366;4.59335;,
-4.68001;-6.2813;3.1969;,
-6.60142;7.96254;2.40102;,
-7.29548;21.8067;2.11354;,
1.62456;25.8134;5.80834;,
-5.9395;28.727;2.67521;,
-2.70457;30.8276;4.01516;,
1.63219;35.0934;5.8115;,
2.96079;42.0667;6.36182;,
1.69485;49.2434;5.83746;,
-0.642896;42.0667;11.7551;,
2.96079;42.0667;6.36182;,
1.69485;49.2434;5.83746;,
-0.849538;54.548;4.78354;,
-4.82281;57.8176;3.13775;,
-8.60808;59.3099;1.56985;,
-10.9645;59.744;0.593802;,
-12.6064;59.6491;-0.0863153;,
12.139;-38.0817;-6.62266e-06;,
14.9175;-36.63;-6.70166e-06;,
12.9085;-34.8257;-6.18435e-06;,
14.6402;-34.1609;-6.26391e-06;,
14.5189;-30.4152;-5.88533e-06;,
9.53339;-28.326;-5.22371e-06;,
6.18166;-23.9196;-4.80178e-06;,
0.845136;-17.13;-3.43426e-06;,
-0.394996;-8.62366;-2.39724e-06;,
-4.04411;-6.2813;-1.76074e-06;,
-6.12383;7.96254;9.41769e-08;,
-6.87507;21.8067;2.80199e-06;,
2.77991;25.8134;1.83866e-06;,
-5.40737;28.727;4.03504e-06;,
-1.90591;30.8276;2.67376e-06;,
2.78817;35.0934;2.78907e-06;,
4.22623;42.0667;3.49463e-06;,
2.96079;42.0667;6.36182;,
2.856;49.2434;4.46996e-06;,
2.96079;42.0667;6.36182;,
4.22623;42.0667;3.49463e-06;,
0.101967;54.548;5.34308e-06;,
2.856;49.2434;4.46996e-06;,
-4.19867;57.8176;6.10881e-06;,
-8.29581;59.3099;6.6449e-06;,
-10.8463;59.744;6.91962e-06;,
-12.6236;59.6491;7.06367e-06;,
10.2713;-38.0817;-9.38993;,
12.8382;-36.63;-10.4532;,
10.9822;-34.8257;-9.68439;,
12.582;-34.1609;-10.3471;,
12.4699;-30.4152;-10.3006;,
7.86396;-28.326;-8.39279;,
4.76736;-23.9196;-7.11013;,
-0.16294;-17.13;-5.06793;,
-1.30867;-8.62367;-4.59336;,
-4.68001;-6.2813;-3.1969;,
-6.60142;7.96254;-2.40102;,
-7.29548;21.8067;-2.11353;,
1.62456;25.8134;-5.80834;,
-5.9395;28.727;-2.6752;,
-2.70457;30.8276;-4.01515;,
1.63219;35.0934;-5.81149;,
2.96079;42.0667;-6.36182;,
4.22623;42.0667;3.49463e-06;,
1.69486;49.2434;-5.83745;,
4.22623;42.0667;3.49463e-06;,
2.96079;42.0667;-6.36182;,
-0.849537;54.548;-4.78353;,
1.69486;49.2434;-5.83745;,
-4.82281;57.8176;-3.13774;,
-8.60807;59.3099;-1.56984;,
-10.9645;59.744;-0.593789;,
-12.6064;59.6491;0.0863283;,
4.9523;-38.0817;-17.3503;,
6.91693;-36.63;-19.315;,
5.4964;-34.8257;-17.8944;,
6.72088;-34.1609;-19.1189;,
6.63509;-30.4152;-19.0331;,
3.10982;-28.326;-15.5078;,
0.739791;-23.9196;-13.1378;,
-3.0337;-17.13;-9.36432;,
-3.9106;-8.62367;-8.48742;,
-6.49092;-6.2813;-5.9071;,
-7.9615;7.96254;-4.43651;,
-8.4927;21.8067;-3.90531;,
-1.6656;25.8134;-10.7324;,
-7.45488;28.727;-4.94313;,
-4.97897;30.8276;-7.41903;,
-1.65976;35.0934;-10.7382;,
-0.642896;42.0667;-11.7551;,
2.96079;42.0667;-6.36182;,
-1.6118;49.2434;-10.7862;,
2.96079;42.0667;-6.36182;,
-0.642896;42.0667;-11.7551;,
-3.55919;54.548;-8.83881;,
-1.6118;49.2434;-10.7862;,
-6.6002;57.8176;-5.7978;,
-9.49732;59.3099;-2.90069;,
-11.3008;59.744;-1.09719;,
-12.5575;59.6491;0.159508;,
-3.0081;-38.0817;-22.6693;,
-1.94485;-36.63;-25.2362;,
-2.71364;-34.8257;-23.3802;,
-2.05095;-34.1609;-24.9801;,
-2.09738;-30.4152;-24.868;,
-4.00524;-28.326;-20.262;,
-5.28789;-23.9196;-17.1654;,
-7.33008;-17.13;-12.2351;,
-7.80466;-8.62367;-11.0893;,
-9.20112;-6.2813;-7.718;,
-9.99699;7.96254;-5.79659;,
-10.2845;21.8067;-5.10253;,
-6.58967;25.8134;-14.0226;,
-9.72281;28.727;-6.45851;,
-8.38286;30.8276;-9.69344;,
-6.58652;35.0934;-14.0302;,
-1.65976;35.0934;-10.7382;,
-6.03619;42.0667;-15.3588;,
-0.642896;42.0667;-11.7551;,
-1.65976;35.0934;-10.7382;,
-6.58652;35.0934;-14.0302;,
-0.642896;42.0667;-11.7551;,
-6.56056;49.2434;-14.0929;,
-0.642896;42.0667;-11.7551;,
-7.61448;54.548;-11.5485;,
-6.56056;49.2434;-14.0929;,
-9.26026;57.8176;-7.57519;,
-10.8282;59.3099;-3.78993;,
-11.8042;59.744;-1.43355;,
-12.4843;59.6491;0.208403;,
-12.398;-38.0817;-24.5371;,
-3.0081;-38.0817;-22.6693;,
-12.398;-36.63;-27.3155;,
-1.94485;-36.63;-25.2362;,
-12.398;-34.8257;-25.3065;,
-2.71364;-34.8257;-23.3802;,
-12.398;-34.1609;-27.0382;,
-2.05095;-34.1609;-24.9801;,
-12.398;-30.4152;-26.9169;,
-2.09738;-30.4152;-24.868;,
-12.398;-28.326;-21.9314;,
-4.00524;-28.326;-20.262;,
-12.398;-23.9196;-18.5797;,
-12.398;-23.9196;-18.5797;,
-12.398;-17.13;-13.2431;,
-12.398;-8.62367;-12.003;,
-12.398;-6.2813;-8.3539;,
-12.398;7.96254;-6.27418;,
-12.398;21.8067;-5.52294;,
-12.398;25.8134;-15.1779;,
-12.398;28.727;-6.99064;,
-12.398;30.8276;-10.4921;,
-8.38286;30.8276;-9.69344;,
-12.398;35.0934;-15.1862;,
-6.58652;35.0934;-14.0302;,
-8.38286;30.8276;-9.69344;,
-12.398;30.8276;-10.4921;,
-6.58652;35.0934;-14.0302;,
-12.398;42.0667;-16.6242;,
-6.58652;35.0934;-14.0302;,
-6.03619;42.0667;-15.3588;,
-12.398;49.2434;-15.254;,
-12.398;42.0667;-16.6242;,
-12.398;54.548;-12.5;,
-12.398;57.8176;-8.19933;,
-12.398;59.3099;-4.1022;,
-12.398;59.744;-1.55166;,
-12.398;59.6491;0.225573;,
-21.7879;-38.0817;-22.6693;,
-22.8512;-36.63;-25.2362;,
-22.0824;-34.8257;-23.3802;,
-22.7451;-34.1609;-24.98;,
-22.6987;-30.4152;-24.868;,
-20.7908;-28.326;-20.262;,
-19.5081;-23.9196;-17.1654;,
-17.4659;-17.13;-12.2351;,
-19.5081;-23.9196;-17.1654;,
-16.9914;-8.62367;-11.0893;,
-15.5949;-6.2813;-7.71799;,
-14.799;7.96254;-5.79659;,
-14.5115;21.8067;-5.10253;,
-18.2064;25.8134;-14.0226;,
-15.0732;28.727;-6.45851;,
-12.398;28.727;-6.99064;,
-16.4132;30.8276;-9.69343;,
-12.398;30.8276;-10.4921;,
-12.398;28.727;-6.99064;,
-15.0732;28.727;-6.45851;,
-12.398;30.8276;-10.4921;,
-18.2095;35.0934;-14.0302;,
-12.398;30.8276;-10.4921;,
-12.398;35.0934;-15.1862;,
-18.7598;42.0667;-15.3588;,
-18.2095;35.0934;-14.0302;,
-18.2355;49.2434;-14.0929;,
-17.1815;54.548;-11.5485;,
-15.5358;57.8176;-7.5752;,
-13.9679;59.3099;-3.78993;,
-12.9918;59.744;-1.43355;,
-12.3117;59.6491;0.2084;,
-29.7483;-38.0817;-17.3503;,
-31.713;-36.63;-19.3149;,
-30.2924;-34.8257;-17.8944;,
-31.5169;-34.1609;-19.1189;,
-31.4311;-30.4152;-19.0331;,
-27.9059;-28.326;-15.5078;,
-25.5358;-23.9196;-13.1378;,
-21.7623;-17.13;-9.36432;,
-21.7623;-17.13;-9.36432;,
-20.8854;-8.62367;-8.48741;,
-18.3051;-6.2813;-5.9071;,
-16.8345;7.96254;-4.43651;,
-16.3033;21.8067;-3.90531;,
-14.5115;21.8067;-5.10253;,
-23.1304;25.8134;-10.7324;,
-18.2064;25.8134;-14.0226;,
-14.5115;21.8067;-5.10253;,
-16.3033;21.8067;-3.90531;,
-18.2064;25.8134;-14.0226;,
-17.3411;28.727;-4.94313;,
-15.0732;28.727;-6.45851;,
-18.2064;25.8134;-14.0226;,
-15.0732;28.727;-6.45851;,
-19.8171;30.8276;-7.41903;,
-15.0732;28.727;-6.45851;,
-16.4132;30.8276;-9.69343;,
-23.1363;35.0934;-10.7382;,
-19.8171;30.8276;-7.41903;,
-24.1531;42.0667;-11.7551;,
-23.1842;49.2434;-10.7862;,
-21.2368;54.548;-8.83881;,
-18.1958;57.8176;-5.7978;,
-15.2987;59.3099;-2.90069;,
-13.4952;59.744;-1.09719;,
-12.2385;59.6491;0.159502;,
-35.0673;-38.0817;-9.38993;,
-37.6342;-36.63;-10.4532;,
-35.7782;-34.8257;-9.68439;,
-37.3781;-34.1609;-10.3471;,
-37.266;-30.4152;-10.3006;,
-32.66;-28.326;-8.39278;,
-29.5634;-23.9196;-7.11013;,
-25.5358;-23.9196;-13.1378;,
-24.6331;-17.13;-5.06793;,
-29.5634;-23.9196;-7.11013;,
-23.4874;-8.62367;-4.59335;,
-20.116;-6.2813;-3.1969;,
-18.1946;7.96254;-2.40102;,
-17.5005;21.8067;-2.11354;,
-16.3033;21.8067;-3.90531;,
-26.4206;25.8134;-5.80834;,
-26.4206;25.8134;-5.80834;,
-23.1304;25.8134;-10.7324;,
-18.8565;28.727;-2.6752;,
-17.3411;28.727;-4.94313;,
-22.0915;30.8276;-4.01515;,
-26.4282;35.0934;-5.8115;,
-27.7568;42.0667;-6.36182;,
-26.4909;49.2434;-5.83745;,
-23.9465;54.548;-4.78353;,
-19.9732;57.8176;-3.13775;,
-16.1879;59.3099;-1.56984;,
-13.8316;59.744;-0.593796;,
-12.1896;59.6491;0.0863213;;

 720;
3;0,1,2;,
3;2,3,4;,
3;2,1,3;,
3;4,5,6;,
3;4,3,5;,
3;6,7,8;,
3;6,5,7;,
3;8,9,10;,
3;8,7,9;,
3;10,11,12;,
3;10,9,11;,
3;12,13,14;,
3;12,11,13;,
3;15,16,17;,
3;15,18,16;,
3;17,19,20;,
3;17,16,19;,
3;20,21,22;,
3;20,19,21;,
3;22,23,24;,
3;22,21,23;,
3;24,25,26;,
3;24,23,25;,
3;26,27,28;,
3;26,25,27;,
3;28,29,30;,
3;28,27,29;,
3;30,31,32;,
3;30,29,31;,
3;32,33,34;,
3;32,31,33;,
3;34,35,36;,
3;34,33,35;,
3;36,37,38;,
3;36,35,37;,
3;38,39,40;,
3;38,37,39;,
3;40,41,42;,
3;40,39,41;,
3;42,43,44;,
3;42,41,43;,
3;44,45,46;,
3;44,43,45;,
3;46,47,48;,
3;46,45,47;,
3;0,49,1;,
3;1,50,3;,
3;1,49,50;,
3;3,51,5;,
3;3,50,51;,
3;5,52,7;,
3;5,51,52;,
3;53,54,55;,
3;53,56,54;,
3;55,57,58;,
3;55,54,57;,
3;58,59,18;,
3;58,57,59;,
3;18,60,16;,
3;18,59,60;,
3;16,61,19;,
3;16,60,61;,
3;19,62,21;,
3;19,61,62;,
3;21,63,23;,
3;21,62,63;,
3;23,64,25;,
3;23,63,64;,
3;25,65,27;,
3;25,64,65;,
3;27,66,29;,
3;27,65,66;,
3;29,67,31;,
3;29,66,67;,
3;31,68,33;,
3;31,67,68;,
3;33,69,35;,
3;33,68,69;,
3;35,70,37;,
3;35,69,70;,
3;37,71,39;,
3;37,70,71;,
3;39,72,41;,
3;39,71,72;,
3;41,73,43;,
3;41,72,73;,
3;43,74,45;,
3;43,73,74;,
3;45,75,47;,
3;45,74,75;,
3;76,77,78;,
3;78,79,80;,
3;78,77,79;,
3;80,81,82;,
3;80,79,81;,
3;82,83,56;,
3;82,81,83;,
3;56,84,54;,
3;56,83,84;,
3;54,85,57;,
3;54,84,85;,
3;57,86,59;,
3;57,85,86;,
3;59,87,60;,
3;59,86,87;,
3;60,88,61;,
3;60,87,88;,
3;61,89,62;,
3;61,88,89;,
3;62,90,63;,
3;62,89,90;,
3;63,91,64;,
3;63,90,91;,
3;64,92,65;,
3;64,91,92;,
3;65,93,66;,
3;65,92,93;,
3;66,94,67;,
3;66,93,94;,
3;67,95,68;,
3;67,94,95;,
3;68,96,69;,
3;68,95,96;,
3;69,97,70;,
3;69,96,97;,
3;70,98,71;,
3;70,97,98;,
3;71,99,72;,
3;71,98,99;,
3;72,100,73;,
3;72,99,100;,
3;73,101,74;,
3;73,100,101;,
3;74,102,75;,
3;74,101,102;,
3;76,103,77;,
3;77,104,79;,
3;77,103,104;,
3;79,105,81;,
3;79,104,105;,
3;81,106,83;,
3;81,105,106;,
3;83,107,84;,
3;83,106,107;,
3;84,108,85;,
3;84,107,108;,
3;85,109,86;,
3;85,108,109;,
3;86,110,87;,
3;86,109,110;,
3;87,111,88;,
3;87,110,111;,
3;88,112,89;,
3;88,111,112;,
3;89,113,90;,
3;89,112,113;,
3;90,114,91;,
3;90,113,114;,
3;91,115,92;,
3;91,114,115;,
3;92,116,93;,
3;92,115,116;,
3;93,117,94;,
3;93,116,117;,
3;94,118,95;,
3;94,117,118;,
3;95,119,96;,
3;95,118,119;,
3;96,120,97;,
3;96,119,120;,
3;97,121,98;,
3;97,120,121;,
3;98,122,99;,
3;98,121,122;,
3;99,123,100;,
3;99,122,123;,
3;100,124,101;,
3;100,123,124;,
3;101,125,102;,
3;101,124,125;,
3;76,126,103;,
3;103,127,104;,
3;103,126,127;,
3;104,128,105;,
3;104,127,128;,
3;105,129,106;,
3;105,128,129;,
3;106,130,107;,
3;106,129,130;,
3;107,131,108;,
3;107,130,131;,
3;108,132,109;,
3;108,131,132;,
3;109,133,110;,
3;109,132,133;,
3;110,134,111;,
3;110,133,134;,
3;111,135,112;,
3;111,134,135;,
3;112,136,113;,
3;112,135,136;,
3;113,137,114;,
3;113,136,137;,
3;114,138,115;,
3;114,137,138;,
3;115,139,116;,
3;115,138,139;,
3;116,140,117;,
3;116,139,140;,
3;117,141,118;,
3;117,140,141;,
3;118,142,119;,
3;118,141,142;,
3;119,143,120;,
3;119,142,143;,
3;120,144,121;,
3;120,143,144;,
3;121,145,122;,
3;121,144,145;,
3;122,146,123;,
3;122,145,146;,
3;123,147,124;,
3;123,146,147;,
3;124,148,125;,
3;124,147,148;,
3;76,149,126;,
3;126,150,127;,
3;126,149,150;,
3;127,151,128;,
3;127,150,151;,
3;128,152,129;,
3;128,151,152;,
3;129,153,130;,
3;129,152,153;,
3;130,154,131;,
3;130,153,154;,
3;131,155,132;,
3;131,154,155;,
3;132,156,133;,
3;132,155,156;,
3;133,157,134;,
3;133,156,157;,
3;134,158,135;,
3;134,157,158;,
3;135,159,136;,
3;135,158,159;,
3;136,160,137;,
3;136,159,160;,
3;137,161,138;,
3;137,160,161;,
3;138,162,139;,
3;138,161,162;,
3;139,163,140;,
3;139,162,163;,
3;140,164,141;,
3;140,163,164;,
3;141,165,142;,
3;141,164,165;,
3;142,166,143;,
3;142,165,166;,
3;143,167,144;,
3;143,166,167;,
3;144,168,145;,
3;144,167,168;,
3;145,169,146;,
3;145,168,169;,
3;146,170,147;,
3;146,169,170;,
3;147,171,148;,
3;147,170,171;,
3;76,172,149;,
3;149,173,150;,
3;149,172,173;,
3;150,174,151;,
3;150,173,174;,
3;151,175,152;,
3;151,174,175;,
3;152,176,153;,
3;152,175,176;,
3;153,177,154;,
3;153,176,177;,
3;154,178,155;,
3;154,177,178;,
3;155,179,156;,
3;155,178,179;,
3;156,180,157;,
3;156,179,180;,
3;157,181,158;,
3;157,180,181;,
3;158,182,159;,
3;158,181,182;,
3;159,183,160;,
3;159,182,183;,
3;160,184,161;,
3;160,183,184;,
3;161,185,162;,
3;161,184,185;,
3;162,186,163;,
3;162,185,186;,
3;163,187,164;,
3;163,186,187;,
3;164,188,165;,
3;164,187,188;,
3;165,189,166;,
3;190,191,192;,
3;166,193,167;,
3;166,189,193;,
3;167,194,168;,
3;167,193,194;,
3;168,195,169;,
3;168,194,195;,
3;169,196,170;,
3;169,195,196;,
3;170,197,171;,
3;170,196,197;,
3;76,198,172;,
3;172,199,173;,
3;172,198,199;,
3;173,200,174;,
3;173,199,200;,
3;174,201,175;,
3;174,200,201;,
3;175,202,176;,
3;175,201,202;,
3;176,203,177;,
3;176,202,203;,
3;177,204,178;,
3;177,203,204;,
3;178,205,179;,
3;178,204,205;,
3;179,206,180;,
3;179,205,206;,
3;180,207,181;,
3;180,206,207;,
3;181,208,182;,
3;181,207,208;,
3;182,209,183;,
3;182,208,209;,
3;183,210,184;,
3;183,209,210;,
3;184,211,185;,
3;184,210,211;,
3;185,212,186;,
3;185,211,212;,
3;186,213,187;,
3;186,212,213;,
3;187,214,188;,
3;187,213,214;,
3;215,216,192;,
3;217,218,216;,
3;189,219,193;,
3;189,220,219;,
3;193,221,194;,
3;193,219,221;,
3;194,222,195;,
3;194,221,222;,
3;195,223,196;,
3;195,222,223;,
3;196,224,197;,
3;196,223,224;,
3;76,225,198;,
3;198,226,199;,
3;198,225,226;,
3;199,227,200;,
3;199,226,227;,
3;200,228,201;,
3;200,227,228;,
3;201,229,202;,
3;201,228,229;,
3;202,230,203;,
3;202,229,230;,
3;203,231,204;,
3;203,230,231;,
3;204,232,205;,
3;204,231,232;,
3;205,233,206;,
3;205,232,233;,
3;206,234,207;,
3;206,233,234;,
3;207,235,208;,
3;207,234,235;,
3;208,236,209;,
3;208,235,236;,
3;209,237,210;,
3;209,236,237;,
3;210,238,211;,
3;210,237,238;,
3;211,239,212;,
3;211,238,239;,
3;212,240,213;,
3;212,239,240;,
3;213,241,214;,
3;213,240,241;,
3;242,243,216;,
3;244,245,243;,
3;220,246,219;,
3;220,247,246;,
3;219,248,221;,
3;219,246,248;,
3;221,249,222;,
3;221,248,249;,
3;222,250,223;,
3;222,249,250;,
3;223,251,224;,
3;223,250,251;,
3;76,252,225;,
3;225,253,226;,
3;225,252,253;,
3;226,254,227;,
3;226,253,254;,
3;227,255,228;,
3;227,254,255;,
3;228,256,229;,
3;228,255,256;,
3;229,257,230;,
3;229,256,257;,
3;230,258,231;,
3;230,257,258;,
3;231,259,232;,
3;231,258,259;,
3;232,260,233;,
3;232,259,260;,
3;233,261,234;,
3;233,260,261;,
3;234,262,235;,
3;234,261,262;,
3;235,263,236;,
3;235,262,263;,
3;236,264,237;,
3;236,263,264;,
3;237,265,238;,
3;237,264,265;,
3;238,266,239;,
3;238,265,266;,
3;239,267,240;,
3;239,266,267;,
3;240,268,241;,
3;240,267,268;,
3;269,270,243;,
3;271,272,270;,
3;247,273,246;,
3;247,274,273;,
3;246,275,248;,
3;246,273,275;,
3;248,276,249;,
3;248,275,276;,
3;249,277,250;,
3;249,276,277;,
3;250,278,251;,
3;250,277,278;,
3;76,279,252;,
3;252,280,253;,
3;252,279,280;,
3;253,281,254;,
3;253,280,281;,
3;254,282,255;,
3;254,281,282;,
3;255,283,256;,
3;255,282,283;,
3;256,284,257;,
3;256,283,284;,
3;257,285,258;,
3;257,284,285;,
3;258,286,259;,
3;258,285,286;,
3;259,287,260;,
3;259,286,287;,
3;260,288,261;,
3;260,287,288;,
3;261,289,262;,
3;261,288,289;,
3;262,290,263;,
3;262,289,290;,
3;263,291,264;,
3;263,290,291;,
3;264,292,265;,
3;264,291,292;,
3;265,293,266;,
3;265,292,293;,
3;266,294,267;,
3;266,293,294;,
3;295,296,297;,
3;298,299,296;,
3;300,301,270;,
3;302,296,301;,
3;274,303,273;,
3;274,304,303;,
3;273,305,275;,
3;273,303,305;,
3;275,306,276;,
3;275,305,306;,
3;276,307,277;,
3;276,306,307;,
3;277,308,278;,
3;277,307,308;,
3;0,309,310;,
3;310,311,312;,
3;310,309,311;,
3;312,313,314;,
3;312,311,313;,
3;314,315,316;,
3;314,313,315;,
3;316,317,318;,
3;316,315,317;,
3;318,319,320;,
3;318,317,319;,
3;284,321,285;,
3;320,319,322;,
3;285,323,286;,
3;285,321,323;,
3;286,324,287;,
3;286,323,324;,
3;287,325,288;,
3;287,324,325;,
3;288,326,289;,
3;288,325,326;,
3;289,327,290;,
3;289,326,327;,
3;290,328,291;,
3;290,327,328;,
3;291,329,292;,
3;291,328,329;,
3;292,330,293;,
3;292,329,330;,
3;331,332,333;,
3;334,335,332;,
3;336,337,296;,
3;338,332,337;,
3;339,340,304;,
3;339,341,340;,
3;304,342,303;,
3;304,340,342;,
3;303,343,305;,
3;303,342,343;,
3;305,344,306;,
3;305,343,344;,
3;306,345,307;,
3;306,344,345;,
3;307,346,308;,
3;307,345,346;,
3;0,347,309;,
3;309,348,311;,
3;309,347,348;,
3;311,349,313;,
3;311,348,349;,
3;313,350,315;,
3;313,349,350;,
3;315,351,317;,
3;315,350,351;,
3;317,352,319;,
3;317,351,352;,
3;319,353,322;,
3;319,352,353;,
3;321,354,323;,
3;321,355,354;,
3;323,356,324;,
3;323,354,356;,
3;324,357,325;,
3;324,356,357;,
3;325,358,326;,
3;325,357,358;,
3;326,359,327;,
3;326,358,359;,
3;327,360,328;,
3;327,359,360;,
3;328,361,329;,
3;328,360,361;,
3;362,363,364;,
3;365,366,363;,
3;367,368,332;,
3;369,363,368;,
3;370,371,341;,
3;370,372,371;,
3;341,373,340;,
3;341,371,373;,
3;340,374,342;,
3;340,373,374;,
3;342,375,343;,
3;342,374,375;,
3;343,376,344;,
3;343,375,376;,
3;344,377,345;,
3;344,376,377;,
3;345,378,346;,
3;345,377,378;,
3;0,379,347;,
3;347,380,348;,
3;347,379,380;,
3;348,381,349;,
3;348,380,381;,
3;349,382,350;,
3;349,381,382;,
3;350,383,351;,
3;350,382,383;,
3;351,384,352;,
3;351,383,384;,
3;352,385,353;,
3;352,384,385;,
3;355,386,354;,
3;353,385,387;,
3;354,388,356;,
3;354,386,388;,
3;356,389,357;,
3;356,388,389;,
3;357,390,358;,
3;357,389,390;,
3;358,391,359;,
3;358,390,391;,
3;392,393,394;,
3;395,396,393;,
3;397,398,399;,
3;400,393,398;,
3;401,402,363;,
3;403,398,402;,
3;404,405,372;,
3;404,406,405;,
3;372,407,371;,
3;372,405,407;,
3;371,408,373;,
3;371,407,408;,
3;373,409,374;,
3;373,408,409;,
3;374,410,375;,
3;374,409,410;,
3;375,411,376;,
3;375,410,411;,
3;376,412,377;,
3;376,411,412;,
3;377,413,378;,
3;377,412,413;,
3;0,414,379;,
3;379,415,380;,
3;379,414,415;,
3;380,416,381;,
3;380,415,416;,
3;381,417,382;,
3;381,416,417;,
3;382,418,383;,
3;382,417,418;,
3;383,419,384;,
3;383,418,419;,
3;384,420,385;,
3;384,419,420;,
3;421,422,386;,
3;421,423,422;,
3;386,424,388;,
3;386,422,424;,
3;388,425,389;,
3;388,424,425;,
3;389,426,390;,
3;389,425,426;,
3;390,427,391;,
3;390,426,427;,
3;428,429,393;,
3;391,427,430;,
3;431,432,433;,
3;431,430,432;,
3;433,434,406;,
3;433,432,434;,
3;406,435,405;,
3;406,434,435;,
3;405,436,407;,
3;405,435,436;,
3;407,437,408;,
3;407,436,437;,
3;408,438,409;,
3;408,437,438;,
3;409,439,410;,
3;409,438,439;,
3;410,440,411;,
3;410,439,440;,
3;411,441,412;,
3;411,440,441;,
3;412,442,413;,
3;412,441,442;,
3;0,2,414;,
3;414,4,415;,
3;414,2,4;,
3;415,6,416;,
3;415,4,6;,
3;416,8,417;,
3;416,6,8;,
3;417,10,418;,
3;417,8,10;,
3;418,12,419;,
3;418,10,12;,
3;419,14,420;,
3;419,12,14;,
3;423,17,422;,
3;423,15,17;,
3;422,20,424;,
3;422,17,20;,
3;424,22,425;,
3;424,20,22;,
3;425,24,426;,
3;425,22,24;,
3;426,26,427;,
3;426,24,26;,
3;427,28,430;,
3;427,26,28;,
3;430,30,432;,
3;430,28,30;,
3;432,32,434;,
3;432,30,32;,
3;434,34,435;,
3;434,32,34;,
3;435,36,436;,
3;435,34,36;,
3;436,38,437;,
3;436,36,38;,
3;437,40,438;,
3;437,38,40;,
3;438,42,439;,
3;438,40,42;,
3;439,44,440;,
3;439,42,44;,
3;440,46,441;,
3;440,44,46;,
3;441,48,442;,
3;441,46,48;;
MeshMaterialList {
 1;
 720;
  0,
  0,
  0,
  0,
  0,
  0,
  0,
  0,
  0,
  0,
  0,
  0,
  0,
  0,
  0,
  0,
  0,
  0,
  0,
  0,
  0,
  0,
  0,
  0,
  0,
  0,
  0,
  0,
  0,
  0,
  0,
  0,
  0,
  0,
  0,
  0,
  0,
  0,
  0,
  0,
  0,
  0,
  0,
  0,
  0,
  0,
  0,
  0,
  0,
  0,
  0,
  0,
  0,
  0,
  0,
  0,
  0,
  0,
  0,
  0,
  0,
  0,
  0,
  0,
  0,
  0,
  0,
  0,
  0,
  0,
  0,
  0,
  0,
  0,
  0,
  0,
  0,
  0,
  0,
  0,
  0,
  0,
  0,
  0,
  0,
  0,
  0,
  0,
  0,
  0,
  0,
  0,
  0,
  0,
  0,
  0,
  0,
  0,
  0,
  0,
  0,
  0,
  0,
  0,
  0,
  0,
  0,
  0,
  0,
  0,
  0,
  0,
  0,
  0,
  0,
  0,
  0,
  0,
  0,
  0,
  0,
  0,
  0,
  0,
  0,
  0,
  0,
  0,
  0,
  0,
  0,
  0,
  0,
  0,
  0,
  0,
  0,
  0,
  0,
  0,
  0,
  0,
  0,
  0,
  0,
  0,
  0,
  0,
  0,
  0,
  0,
  0,
  0,
  0,
  0,
  0,
  0,
  0,
  0,
  0,
  0,
  0,
  0,
  0,
  0,
  0,
  0,
  0,
  0,
  0,
  0,
  0,
  0,
  0,
  0,
  0,
  0,
  0,
  0,
  0,
  0,
  0,
  0,
  0,
  0,
  0,
  0,
  0,
  0,
  0,
  0,
  0,
  0,
  0,
  0,
  0,
  0,
  0,
  0,
  0,
  0,
  0,
  0,
  0,
  0,
  0,
  0,
  0,
  0,
  0,
  0,
  0,
  0,
  0,
  0,
  0,
  0,
  0,
  0,
  0,
  0,
  0,
  0,
  0,
  0,
  0,
  0,
  0,
  0,
  0,
  0,
  0,
  0,
  0,
  0,
  0,
  0,
  0,
  0,
  0,
  0,
  0,
  0,
  0,
  0,
  0,
  0,
  0,
  0,
  0,
  0,
  0,
  0,
  0,
  0,
  0,
  0,
  0,
  0,
  0,
  0,
  0,
  0,
  0,
  0,
  0,
  0,
  0,
  0,
  0,
  0,
  0,
  0,
  0,
  0,
  0,
  0,
  0,
  0,
  0,
  0,
  0,
  0,
  0,
  0,
  0,
  0,
  0,
  0,
  0,
  0,
  0,
  0,
  0,
  0,
  0,
  0,
  0,
  0,
  0,
  0,
  0,
  0,
  0,
  0,
  0,
  0,
  0,
  0,
  0,
  0,
  0,
  0,
  0,
  0,
  0,
  0,
  0,
  0,
  0,
  0,
  0,
  0,
  0,
  0,
  0,
  0,
  0,
  0,
  0,
  0,
  0,
  0,
  0,
  0,
  0,
  0,
  0,
  0,
  0,
  0,
  0,
  0,
  0,
  0,
  0,
  0,
  0,
  0,
  0,
  0,
  0,
  0,
  0,
  0,
  0,
  0,
  0,
  0,
  0,
  0,
  0,
  0,
  0,
  0,
  0,
  0,
  0,
  0,
  0,
  0,
  0,
  0,
  0,
  0,
  0,
  0,
  0,
  0,
  0,
  0,
  0,
  0,
  0,
  0,
  0,
  0,
  0,
  0,
  0,
  0,
  0,
  0,
  0,
  0,
  0,
  0,
  0,
  0,
  0,
  0,
  0,
  0,
  0,
  0,
  0,
  0,
  0,
  0,
  0,
  0,
  0,
  0,
  0,
  0,
  0,
  0,
  0,
  0,
  0,
  0,
  0,
  0,
  0,
  0,
  0,
  0,
  0,
  0,
  0,
  0,
  0,
  0,
  0,
  0,
  0,
  0,
  0,
  0,
  0,
  0,
  0,
  0,
  0,
  0,
  0,
  0,
  0,
  0,
  0,
  0,
  0,
  0,
  0,
  0,
  0,
  0,
  0,
  0,
  0,
  0,
  0,
  0,
  0,
  0,
  0,
  0,
  0,
  0,
  0,
  0,
  0,
  0,
  0,
  0,
  0,
  0,
  0,
  0,
  0,
  0,
  0,
  0,
  0,
  0,
  0,
  0,
  0,
  0,
  0,
  0,
  0,
  0,
  0,
  0,
  0,
  0,
  0,
  0,
  0,
  0,
  0,
  0,
  0,
  0,
  0,
  0,
  0,
  0,
  0,
  0,
  0,
  0,
  0,
  0,
  0,
  0,
  0,
  0,
  0,
  0,
  0,
  0,
  0,
  0,
  0,
  0,
  0,
  0,
  0,
  0,
  0,
  0,
  0,
  0,
  0,
  0,
  0,
  0,
  0,
  0,
  0,
  0,
  0,
  0,
  0,
  0,
  0,
  0,
  0,
  0,
  0,
  0,
  0,
  0,
  0,
  0,
  0,
  0,
  0,
  0,
  0,
  0,
  0,
  0,
  0,
  0,
  0,
  0,
  0,
  0,
  0,
  0,
  0,
  0,
  0,
  0,
  0,
  0,
  0,
  0,
  0,
  0,
  0,
  0,
  0,
  0,
  0,
  0,
  0,
  0,
  0,
  0,
  0,
  0,
  0,
  0,
  0,
  0,
  0,
  0,
  0,
  0,
  0,
  0,
  0,
  0,
  0,
  0,
  0,
  0,
  0,
  0,
  0,
  0,
  0,
  0,
  0,
  0,
  0,
  0,
  0,
  0,
  0,
  0,
  0,
  0,
  0,
  0,
  0,
  0,
  0,
  0,
  0,
  0,
  0,
  0,
  0,
  0,
  0,
  0,
  0,
  0,
  0,
  0,
  0,
  0,
  0,
  0,
  0,
  0,
  0,
  0,
  0,
  0,
  0,
  0,
  0,
  0,
  0,
  0,
  0,
  0,
  0,
  0,
  0,
  0,
  0,
  0,
  0,
  0,
  0,
  0,
  0,
  0,
  0,
  0,
  0,
  0,
  0,
  0,
  0,
  0,
  0,
  0,
  0,
  0,
  0,
  0,
  0,
  0,
  0,
  0,
  0,
  0,
  0,
  0,
  0,
  0,
  0,
  0,
  0,
  0,
  0,
  0,
  0,
  0,
  0,
  0,
  0,
  0,
  0,
  0,
  0,
  0,
  0,
  0,
  0,
  0,
  0;;
Material {
 0.101961;0.988235;0.0588235;1.0;;
 50.000000;
 0.898039;0.898039;0.898039;;
 0.101961;0.988235;0.0588235;;
TextureFilename {
"bpawn_0.bmp";
}
 }
}

 MeshNormals {
 443;
-1.0;1.42249e-07;4.37987e-08;,
-0.958145;-0.126787;0.256679;,
-0.958145;-0.0189087;0.28566;,
-0.128074;-0.390387;0.911699;,
-0.128074;-0.0117792;0.991695;,
-0.186579;-0.357901;0.914929;,
-0.186579;0.0194708;0.982247;,
-0.557782;-0.34113;0.756643;,
-0.557782;-0.0256083;0.829592;,
0.571432;-0.292028;0.766933;,
0.571432;0.0236937;0.820307;,
0.791501;-0.246628;0.559197;,
0.791501;-0.0138591;0.611011;,
0.611703;-0.302447;0.73099;,
0.611703;0.000313573;0.791088;,
0.611703;0.000313573;0.791088;,
0.395274;-0.35776;0.84603;,
0.395274;-0.00676541;0.918539;,
0.611703;-0.302447;0.73099;,
0.544165;-0.306224;0.781096;,
0.544165;0.0159999;0.838826;,
0.544254;-0.335763;0.768798;,
0.544254;-0.0159979;0.838768;,
0.0994404;-0.381053;0.91919;,
0.0994404;-0.000288468;0.995044;,
-0.537309;-0.299962;0.78824;,
-0.537309;0.0245173;0.843029;,
0.0266057;-0.378474;0.92523;,
0.0266051;0.00440538;0.999636;,
0.102209;-0.393403;0.913667;,
0.102209;-0.0138104;0.994667;,
-0.802791;-0.232968;0.548864;,
-0.802791;-0.00519317;0.596238;,
-0.496731;-0.341733;0.797795;,
-0.496731;-0.0104171;0.867842;,
-0.00736958;-0.382759;0.923819;,
-0.00736967;-9.32824e-05;0.999973;,
0.327835;-0.358698;0.873991;,
0.327835;0.00306831;0.94473;,
0.644752;-0.283827;0.709745;,
0.644752;0.00938476;0.764335;,
0.877887;-0.17515;0.445687;,
0.877887;0.00873741;0.478788;,
0.966663;-0.0926136;0.238715;,
0.966663;0.00578583;0.255985;,
0.993577;-0.0379798;0.106593;,
0.993577;0.00570422;0.11301;,
-0.998519;-0.0302472;0.0452316;,
-0.998523;-0.010477;0.053314;,
-0.958145;-0.215362;0.188621;,
-0.128073;-0.709563;0.692905;,
-0.186579;-0.680785;0.708322;,
-0.557782;-0.604718;0.568503;,
-0.557782;-0.34113;0.756643;,
0.571432;-0.563291;0.596799;,
0.571432;-0.292028;0.766933;,
-0.557782;-0.604718;0.568503;,
0.791501;-0.44185;0.42225;,
0.791501;-0.246628;0.559197;,
0.611703;-0.559162;0.559605;,
0.395274;-0.654289;0.644721;,
0.544165;-0.581826;0.604453;,
0.544254;-0.604411;0.581786;,
0.0994403;-0.703806;0.703398;,
-0.537309;-0.578775;0.613448;,
0.0266053;-0.703734;0.709965;,
0.102209;-0.713102;0.693569;,
-0.802791;-0.425276;0.417931;,
-0.496731;-0.621023;0.606291;,
-0.0073698;-0.707154;0.707022;,
0.327835;-0.665856;0.670195;,
0.644751;-0.53383;0.547103;,
0.877887;-0.332373;0.344734;,
0.966663;-0.176913;0.185104;,
0.993577;-0.0758701;0.0839526;,
-0.998519;-0.045235;0.0302225;,
-1.0;1.42249e-07;4.37987e-08;,
-0.958145;-0.271151;0.0918475;,
-0.958145;-0.215362;0.188621;,
-0.128074;-0.920714;0.368623;,
-0.128073;-0.709563;0.692905;,
-0.186579;-0.900027;0.393879;,
-0.186579;-0.680785;0.708322;,
-0.557782;-0.776243;0.293812;,
0.571432;-0.748798;0.335808;,
0.791501;-0.569804;0.22102;,
0.611703;-0.73075;0.303026;,
0.395274;-0.851208;0.345259;,
0.544165;-0.768851;0.335786;,
0.544253;-0.781043;0.306203;,
0.0994403;-0.919411;0.380521;,
-0.537309;-0.769475;0.345265;,
0.0266053;-0.921857;0.386615;,
0.102209;-0.924238;0.367882;,
-0.802791;-0.55284;0.223372;,
-0.49673;-0.805768;0.322484;,
-0.00736994;-0.92389;0.382587;,
0.327834;-0.871643;0.364367;,
0.644751;-0.702562;0.301169;,
0.877887;-0.438997;0.191299;,
0.966664;-0.234282;0.103312;,
0.993577;-0.102222;0.0485279;,
-0.998519;-0.0533575;0.0106112;,
-0.958145;-0.285659;-0.0189089;,
-0.128074;-0.991695;-0.0117789;,
-0.18658;-0.982247;0.0194708;,
-0.557782;-0.829592;-0.0256083;,
0.571432;-0.820307;0.023694;,
0.791501;-0.611011;-0.0138589;,
0.611702;-0.791088;0.000313644;,
0.395274;-0.918539;-0.00676513;,
0.544165;-0.838826;0.0159997;,
0.544253;-0.838768;-0.0159981;,
0.0994402;-0.995044;-0.000288105;,
-0.537309;-0.843029;0.0245178;,
0.0266052;-0.999636;0.00440635;,
0.102209;-0.994667;-0.0138115;,
-0.802791;-0.596238;-0.00519411;,
-0.49673;-0.867842;-0.0104171;,
-0.00736993;-0.999973;-9.30783e-05;,
0.327834;-0.94473;0.00306829;,
0.644751;-0.764335;0.00938516;,
0.877887;-0.478788;0.00873988;,
0.966664;-0.255984;0.00579178;,
0.993577;-0.113012;0.00571524;,
-0.998519;-0.0533565;-0.0106152;,
-0.958145;-0.256679;-0.126787;,
-0.128074;-0.911699;-0.390388;,
-0.186579;-0.914929;-0.357901;,
-0.557782;-0.756643;-0.34113;,
0.571432;-0.766933;-0.292028;,
0.791501;-0.559197;-0.246628;,
0.611702;-0.73099;-0.302447;,
0.395274;-0.84603;-0.35776;,
0.544165;-0.781097;-0.306223;,
0.544253;-0.768799;-0.335763;,
0.0994402;-0.91919;-0.381053;,
-0.537309;-0.788239;-0.299962;,
0.0266052;-0.92523;-0.378474;,
0.102209;-0.913667;-0.393403;,
-0.802791;-0.548864;-0.232969;,
-0.496731;-0.797795;-0.341733;,
-0.00736992;-0.923819;-0.382759;,
0.327834;-0.873991;-0.358698;,
0.644751;-0.709745;-0.283828;,
0.877887;-0.445687;-0.17515;,
0.966664;-0.238715;-0.0926101;,
0.993577;-0.106596;-0.0379674;,
-0.998519;-0.045233;-0.0302251;,
-0.958145;-0.188621;-0.215362;,
-0.128074;-0.692905;-0.709563;,
-0.186579;-0.708321;-0.680786;,
-0.557782;-0.568503;-0.604718;,
0.571432;-0.596799;-0.563291;,
0.791501;-0.42225;-0.44185;,
0.611702;-0.559605;-0.559162;,
0.395273;-0.644721;-0.654289;,
0.544165;-0.604453;-0.581826;,
0.544253;-0.581787;-0.604411;,
0.0994402;-0.703398;-0.703806;,
-0.537309;-0.613448;-0.578775;,
0.0266054;-0.709965;-0.703734;,
0.102209;-0.693569;-0.713102;,
-0.802791;-0.417931;-0.425276;,
-0.496731;-0.606291;-0.621023;,
-0.00737;-0.707022;-0.707153;,
0.327835;-0.670195;-0.665855;,
0.644751;-0.547102;-0.53383;,
0.877887;-0.344733;-0.332375;,
0.966664;-0.185103;-0.176913;,
0.993577;-0.0839528;-0.07587;,
-0.998519;-0.0302234;-0.0452336;,
-0.958145;-0.0918473;-0.271151;,
-0.128074;-0.368623;-0.920714;,
-0.186579;-0.393878;-0.900027;,
-0.557782;-0.293812;-0.776243;,
0.571432;-0.335808;-0.748798;,
0.791501;-0.22102;-0.569804;,
0.611702;-0.303026;-0.73075;,
0.395274;-0.345259;-0.851208;,
0.544165;-0.335787;-0.768851;,
0.544254;-0.306203;-0.781043;,
0.0994403;-0.380521;-0.919411;,
-0.537309;-0.345265;-0.769475;,
0.0266056;-0.386615;-0.921857;,
0.10221;-0.367883;-0.924238;,
-0.802792;-0.223372;-0.552839;,
-0.496731;-0.322485;-0.805768;,
-0.201551;-0.433877;-0.878139;,
0.327834;-0.364367;-0.871643;,
-0.00737;-0.707022;-0.707153;,
0.184059;-0.546079;-0.817264;,
0.327834;-0.364367;-0.871643;,
0.644752;-0.301169;-0.702561;,
0.877887;-0.191298;-0.438999;,
0.966663;-0.103312;-0.234283;,
0.993578;-0.0484928;-0.102235;,
-0.998518;-0.0104732;-0.0534141;,
-0.958145;0.0189091;-0.285659;,
-0.128073;0.0117791;-0.991695;,
-0.18658;-0.0194707;-0.982247;,
-0.557783;0.0256087;-0.829592;,
0.571432;-0.0236939;-0.820307;,
0.791501;0.0138589;-0.611011;,
0.611702;-0.000313377;-0.791088;,
0.395274;0.00676541;-0.918538;,
0.544165;-0.0159995;-0.838826;,
0.544254;0.0159979;-0.838768;,
0.0994404;0.000287984;-0.995044;,
-0.537309;-0.0245178;-0.843029;,
0.0266052;-0.00440718;-0.999636;,
0.102209;0.0138125;-0.994667;,
-0.802792;0.00519465;-0.596237;,
-0.496731;0.0104176;-0.867842;,
-0.201551;-0.0648013;-0.977332;,
0.184059;-0.191757;-0.964029;,
0.327834;-0.00306826;-0.94473;,
0.184059;-0.191757;-0.964029;,
0.184059;-0.191757;-0.964029;,
0.644752;-0.00938571;-0.764334;,
0.327834;-0.00306826;-0.94473;,
0.877887;-0.00874222;-0.478788;,
0.966663;-0.00579809;-0.255986;,
0.993577;-0.0057258;-0.11301;,
-0.998514;0.0107568;-0.0534136;,
-0.958145;0.126787;-0.256679;,
-0.128074;0.390388;-0.911699;,
-0.186579;0.357901;-0.914929;,
-0.557782;0.341131;-0.756643;,
0.571432;0.292028;-0.766932;,
0.791501;0.246628;-0.559197;,
0.611702;0.302447;-0.73099;,
0.395274;0.35776;-0.84603;,
0.544165;0.306223;-0.781097;,
0.544254;0.335763;-0.768798;,
0.0994404;0.381053;-0.91919;,
-0.537309;0.299962;-0.788239;,
0.026605;0.378473;-0.92523;,
0.102209;0.393403;-0.913667;,
-0.802791;0.232969;-0.548863;,
-0.496731;0.341734;-0.797795;,
-0.201551;0.31414;-0.927735;,
0.184059;0.191757;-0.964029;,
0.327835;0.358698;-0.873991;,
0.184059;0.191757;-0.964029;,
0.184059;0.191757;-0.964029;,
0.644751;0.283828;-0.709745;,
0.327835;0.358698;-0.873991;,
0.877887;0.17515;-0.445688;,
0.966663;0.0926074;-0.238717;,
0.993578;0.0379544;-0.106596;,
-0.998519;0.030212;-0.0452462;,
-0.958145;0.215362;-0.188621;,
-0.128074;0.709563;-0.692905;,
-0.186579;0.680786;-0.708321;,
-0.557782;0.604718;-0.568503;,
0.571432;0.563291;-0.596799;,
0.791501;0.441849;-0.42225;,
0.611702;0.559162;-0.559605;,
0.395274;0.654289;-0.644721;,
0.544165;0.581826;-0.604453;,
0.544254;0.604411;-0.581786;,
0.0994405;0.703806;-0.703398;,
-0.537309;0.578775;-0.613448;,
0.0266051;0.703734;-0.709965;,
0.102209;0.713103;-0.693569;,
-0.802792;0.425276;-0.417929;,
-0.627215;0.487595;-0.607332;,
-0.198249;0.544543;-0.814966;,
0.184059;0.546079;-0.817264;,
0.327835;0.665856;-0.670195;,
0.184059;0.546079;-0.817264;,
0.184059;0.546079;-0.817264;,
0.644752;0.53383;-0.547102;,
0.327835;0.665856;-0.670195;,
0.877886;0.332376;-0.344734;,
0.966663;0.176915;-0.185104;,
0.993578;0.0758681;-0.0839496;,
-0.998518;0.0452466;-0.0302309;,
-0.958145;0.271151;-0.0918475;,
-0.128074;0.920714;-0.368623;,
-0.186579;0.900027;-0.393878;,
-0.557782;0.776244;-0.293812;,
0.571432;0.748798;-0.335808;,
0.791501;0.569804;-0.22102;,
0.611703;0.73075;-0.303026;,
0.395274;0.851208;-0.345259;,
0.544165;0.768851;-0.335786;,
0.544254;0.781043;-0.306202;,
0.0994405;0.919411;-0.38052;,
-0.537309;0.769475;-0.345265;,
0.0266058;0.921857;-0.386615;,
0.10221;0.924238;-0.367883;,
-0.829809;0.490067;-0.266928;,
-0.733531;0.565114;-0.377596;,
-0.198248;0.814966;-0.544543;,
-0.00736972;0.92389;-0.382587;,
-0.198248;0.814966;-0.544543;,
-0.198249;0.814967;-0.544543;,
-0.198249;0.814967;-0.544543;,
0.184059;0.817264;-0.546079;,
0.327835;0.871643;-0.364367;,
0.184059;0.817264;-0.546078;,
0.644752;0.702561;-0.301169;,
0.327835;0.871643;-0.364367;,
0.877887;0.438998;-0.191299;,
0.966663;0.234285;-0.103312;,
0.993577;0.102221;-0.0485255;,
-0.998518;0.0533719;-0.0106141;,
-0.958145;0.285659;0.0189091;,
-0.958145;0.271151;-0.0918475;,
-0.128074;0.991695;0.0117792;,
-0.128074;0.920714;-0.368623;,
-0.186579;0.982247;-0.0194708;,
-0.186579;0.900027;-0.393878;,
-0.557782;0.829593;0.0256084;,
-0.557782;0.776244;-0.293812;,
0.571432;0.820307;-0.0236939;,
0.571432;0.748798;-0.335808;,
0.791501;0.611011;0.013859;,
0.791501;0.569804;-0.22102;,
0.611703;0.791088;-0.000313547;,
0.611703;0.791088;-0.000313547;,
0.395274;0.918538;0.00676515;,
0.544165;0.838826;-0.0159995;,
0.544254;0.838768;0.0159983;,
0.0994405;0.995043;0.000288261;,
-0.537309;0.843029;-0.0245174;,
0.0266059;0.999636;-0.00440601;,
0.790365;0.60889;-0.0676407;,
-0.853067;0.511776;-0.101799;,
-0.733531;0.666597;-0.132594;,
-0.496731;0.867842;0.0104173;,
-0.733531;0.666597;-0.132594;,
-0.73353;0.666597;-0.132595;,
-0.73353;0.666597;-0.132595;,
-0.198249;0.961318;-0.191218;,
-0.00736961;0.999973;9.31898e-05;,
-0.198248;0.961318;-0.191218;,
-0.00736972;0.92389;-0.382587;,
0.327835;0.94473;-0.0030683;,
-0.00736961;0.999973;9.31898e-05;,
0.644752;0.764335;-0.00938524;,
0.877887;0.478789;-0.00873973;,
0.966663;0.255987;-0.00579181;,
0.993577;0.11301;-0.0057147;,
-0.998518;0.053371;0.0106181;,
-0.958145;0.256679;0.126787;,
-0.128074;0.911699;0.390388;,
-0.186579;0.914929;0.357901;,
-0.557782;0.756643;0.341131;,
0.571432;0.766932;0.292028;,
0.791501;0.559197;0.246628;,
0.611703;0.73099;0.302447;,
0.395274;0.84603;0.35776;,
0.611703;0.73099;0.302447;,
0.544165;0.781097;0.306223;,
0.544254;0.768799;0.335763;,
0.0994405;0.91919;0.381053;,
-0.22284;0.927997;0.298605;,
-0.627041;0.764018;0.151973;,
0.940031;0.334534;0.0665428;,
-0.853067;0.511775;0.1018;,
-0.802792;0.548864;0.232968;,
-0.853067;0.511775;0.1018;,
-0.853066;0.511777;0.101798;,
-0.853066;0.511777;0.101798;,
-0.733531;0.666597;0.132594;,
-0.496732;0.797795;0.341733;,
-0.733531;0.666596;0.132595;,
-0.496731;0.867842;0.0104173;,
-0.00736967;0.923819;0.382759;,
-0.496732;0.797795;0.341733;,
0.327834;0.873991;0.358698;,
0.644752;0.709745;0.283827;,
0.877887;0.445688;0.175149;,
0.966663;0.238718;0.0926095;,
0.993577;0.106594;0.0379674;,
-0.998518;0.0452448;0.0302345;,
-0.958145;0.188621;0.215362;,
-0.128073;0.692905;0.709563;,
-0.186579;0.708321;0.680786;,
-0.557782;0.568503;0.604718;,
0.571432;0.596799;0.563291;,
0.791501;0.42225;0.44185;,
0.611703;0.559605;0.559162;,
0.395274;0.644721;0.654289;,
0.395274;0.644721;0.654289;,
0.544165;0.604453;0.581826;,
0.544254;0.581786;0.604411;,
0.0994405;0.703398;0.703806;,
-0.223407;0.713437;0.664151;,
-0.920956;0.323997;0.216487;,
0.0266052;0.709965;0.703735;,
-0.920956;0.323997;0.216487;,
-0.920956;0.323997;0.216487;,
-0.920956;0.323997;0.216487;,
0.940031;0.283605;0.189498;,
0.102209;0.693569;0.713103;,
0.940031;0.283605;0.189498;,
0.940031;0.283605;0.189499;,
-0.853066;0.433865;0.289896;,
-0.802792;0.417931;0.425275;,
-0.853067;0.433862;0.289897;,
-0.802792;0.548864;0.232968;,
-0.496732;0.606291;0.621023;,
-0.802792;0.417931;0.425275;,
-0.00736956;0.707022;0.707153;,
0.327834;0.670195;0.665856;,
0.644752;0.547103;0.53383;,
0.877887;0.344735;0.332374;,
0.966663;0.185106;0.176913;,
0.993578;0.083951;0.0758675;,
-0.998518;0.0302311;0.0452472;,
-0.958145;0.0918475;0.271151;,
-0.128073;0.368623;0.920714;,
-0.186579;0.393879;0.900027;,
-0.557782;0.293812;0.776243;,
0.571432;0.335808;0.748798;,
0.791501;0.22102;0.569804;,
0.611703;0.303026;0.73075;,
0.611703;0.559605;0.559162;,
0.395274;0.345259;0.851208;,
0.611703;0.303026;0.73075;,
0.544165;0.335787;0.768851;,
0.544254;0.306203;0.781043;,
0.0994405;0.38052;0.919411;,
-0.537309;0.345264;0.769475;,
-0.920956;0.216488;0.323996;,
0.026605;0.386615;0.921857;,
0.026605;0.386615;0.921857;,
0.0266052;0.709965;0.703735;,
0.102209;0.367882;0.924238;,
0.102209;0.693569;0.713103;,
-0.802792;0.223371;0.552839;,
-0.496731;0.322484;0.805768;,
-0.00736967;0.382587;0.92389;,
0.327835;0.364368;0.871643;,
0.644751;0.301169;0.702562;,
0.877887;0.1913;0.438998;,
0.966663;0.103313;0.234283;,
0.993577;0.048561;0.102206;,
-0.99852;0.0107531;0.0533141;;

 720;
3;0,1,2;,
3;2,3,4;,
3;2,1,3;,
3;4,5,6;,
3;4,3,5;,
3;6,7,8;,
3;6,5,7;,
3;8,9,10;,
3;8,7,9;,
3;10,11,12;,
3;10,9,11;,
3;12,13,14;,
3;12,11,13;,
3;15,16,17;,
3;15,18,16;,
3;17,19,20;,
3;17,16,19;,
3;20,21,22;,
3;20,19,21;,
3;22,23,24;,
3;22,21,23;,
3;24,25,26;,
3;24,23,25;,
3;26,27,28;,
3;26,25,27;,
3;28,29,30;,
3;28,27,29;,
3;30,31,32;,
3;30,29,31;,
3;32,33,34;,
3;32,31,33;,
3;34,35,36;,
3;34,33,35;,
3;36,37,38;,
3;36,35,37;,
3;38,39,40;,
3;38,37,39;,
3;40,41,42;,
3;40,39,41;,
3;42,43,44;,
3;42,41,43;,
3;44,45,46;,
3;44,43,45;,
3;46,47,48;,
3;46,45,47;,
3;0,49,1;,
3;1,50,3;,
3;1,49,50;,
3;3,51,5;,
3;3,50,51;,
3;5,52,7;,
3;5,51,52;,
3;53,54,55;,
3;53,56,54;,
3;55,57,58;,
3;55,54,57;,
3;58,59,18;,
3;58,57,59;,
3;18,60,16;,
3;18,59,60;,
3;16,61,19;,
3;16,60,61;,
3;19,62,21;,
3;19,61,62;,
3;21,63,23;,
3;21,62,63;,
3;23,64,25;,
3;23,63,64;,
3;25,65,27;,
3;25,64,65;,
3;27,66,29;,
3;27,65,66;,
3;29,67,31;,
3;29,66,67;,
3;31,68,33;,
3;31,67,68;,
3;33,69,35;,
3;33,68,69;,
3;35,70,37;,
3;35,69,70;,
3;37,71,39;,
3;37,70,71;,
3;39,72,41;,
3;39,71,72;,
3;41,73,43;,
3;41,72,73;,
3;43,74,45;,
3;43,73,74;,
3;45,75,47;,
3;45,74,75;,
3;76,77,78;,
3;78,79,80;,
3;78,77,79;,
3;80,81,82;,
3;80,79,81;,
3;82,83,56;,
3;82,81,83;,
3;56,84,54;,
3;56,83,84;,
3;54,85,57;,
3;54,84,85;,
3;57,86,59;,
3;57,85,86;,
3;59,87,60;,
3;59,86,87;,
3;60,88,61;,
3;60,87,88;,
3;61,89,62;,
3;61,88,89;,
3;62,90,63;,
3;62,89,90;,
3;63,91,64;,
3;63,90,91;,
3;64,92,65;,
3;64,91,92;,
3;65,93,66;,
3;65,92,93;,
3;66,94,67;,
3;66,93,94;,
3;67,95,68;,
3;67,94,95;,
3;68,96,69;,
3;68,95,96;,
3;69,97,70;,
3;69,96,97;,
3;70,98,71;,
3;70,97,98;,
3;71,99,72;,
3;71,98,99;,
3;72,100,73;,
3;72,99,100;,
3;73,101,74;,
3;73,100,101;,
3;74,102,75;,
3;74,101,102;,
3;76,103,77;,
3;77,104,79;,
3;77,103,104;,
3;79,105,81;,
3;79,104,105;,
3;81,106,83;,
3;81,105,106;,
3;83,107,84;,
3;83,106,107;,
3;84,108,85;,
3;84,107,108;,
3;85,109,86;,
3;85,108,109;,
3;86,110,87;,
3;86,109,110;,
3;87,111,88;,
3;87,110,111;,
3;88,112,89;,
3;88,111,112;,
3;89,113,90;,
3;89,112,113;,
3;90,114,91;,
3;90,113,114;,
3;91,115,92;,
3;91,114,115;,
3;92,116,93;,
3;92,115,116;,
3;93,117,94;,
3;93,116,117;,
3;94,118,95;,
3;94,117,118;,
3;95,119,96;,
3;95,118,119;,
3;96,120,97;,
3;96,119,120;,
3;97,121,98;,
3;97,120,121;,
3;98,122,99;,
3;98,121,122;,
3;99,123,100;,
3;99,122,123;,
3;100,124,101;,
3;100,123,124;,
3;101,125,102;,
3;101,124,125;,
3;76,126,103;,
3;103,127,104;,
3;103,126,127;,
3;104,128,105;,
3;104,127,128;,
3;105,129,106;,
3;105,128,129;,
3;106,130,107;,
3;106,129,130;,
3;107,131,108;,
3;107,130,131;,
3;108,132,109;,
3;108,131,132;,
3;109,133,110;,
3;109,132,133;,
3;110,134,111;,
3;110,133,134;,
3;111,135,112;,
3;111,134,135;,
3;112,136,113;,
3;112,135,136;,
3;113,137,114;,
3;113,136,137;,
3;114,138,115;,
3;114,137,138;,
3;115,139,116;,
3;115,138,139;,
3;116,140,117;,
3;116,139,140;,
3;117,141,118;,
3;117,140,141;,
3;118,142,119;,
3;118,141,142;,
3;119,143,120;,
3;119,142,143;,
3;120,144,121;,
3;120,143,144;,
3;121,145,122;,
3;121,144,145;,
3;122,146,123;,
3;122,145,146;,
3;123,147,124;,
3;123,146,147;,
3;124,148,125;,
3;124,147,148;,
3;76,149,126;,
3;126,150,127;,
3;126,149,150;,
3;127,151,128;,
3;127,150,151;,
3;128,152,129;,
3;128,151,152;,
3;129,153,130;,
3;129,152,153;,
3;130,154,131;,
3;130,153,154;,
3;131,155,132;,
3;131,154,155;,
3;132,156,133;,
3;132,155,156;,
3;133,157,134;,
3;133,156,157;,
3;134,158,135;,
3;134,157,158;,
3;135,159,136;,
3;135,158,159;,
3;136,160,137;,
3;136,159,160;,
3;137,161,138;,
3;137,160,161;,
3;138,162,139;,
3;138,161,162;,
3;139,163,140;,
3;139,162,163;,
3;140,164,141;,
3;140,163,164;,
3;141,165,142;,
3;141,164,165;,
3;142,166,143;,
3;142,165,166;,
3;143,167,144;,
3;143,166,167;,
3;144,168,145;,
3;144,167,168;,
3;145,169,146;,
3;145,168,169;,
3;146,170,147;,
3;146,169,170;,
3;147,171,148;,
3;147,170,171;,
3;76,172,149;,
3;149,173,150;,
3;149,172,173;,
3;150,174,151;,
3;150,173,174;,
3;151,175,152;,
3;151,174,175;,
3;152,176,153;,
3;152,175,176;,
3;153,177,154;,
3;153,176,177;,
3;154,178,155;,
3;154,177,178;,
3;155,179,156;,
3;155,178,179;,
3;156,180,157;,
3;156,179,180;,
3;157,181,158;,
3;157,180,181;,
3;158,182,159;,
3;158,181,182;,
3;159,183,160;,
3;159,182,183;,
3;160,184,161;,
3;160,183,184;,
3;161,185,162;,
3;161,184,185;,
3;162,186,163;,
3;162,185,186;,
3;163,187,164;,
3;163,186,187;,
3;164,188,165;,
3;164,187,188;,
3;165,189,166;,
3;190,191,192;,
3;166,193,167;,
3;166,189,193;,
3;167,194,168;,
3;167,193,194;,
3;168,195,169;,
3;168,194,195;,
3;169,196,170;,
3;169,195,196;,
3;170,197,171;,
3;170,196,197;,
3;76,198,172;,
3;172,199,173;,
3;172,198,199;,
3;173,200,174;,
3;173,199,200;,
3;174,201,175;,
3;174,200,201;,
3;175,202,176;,
3;175,201,202;,
3;176,203,177;,
3;176,202,203;,
3;177,204,178;,
3;177,203,204;,
3;178,205,179;,
3;178,204,205;,
3;179,206,180;,
3;179,205,206;,
3;180,207,181;,
3;180,206,207;,
3;181,208,182;,
3;181,207,208;,
3;182,209,183;,
3;182,208,209;,
3;183,210,184;,
3;183,209,210;,
3;184,211,185;,
3;184,210,211;,
3;185,212,186;,
3;185,211,212;,
3;186,213,187;,
3;186,212,213;,
3;187,214,188;,
3;187,213,214;,
3;215,216,192;,
3;217,218,216;,
3;189,219,193;,
3;189,220,219;,
3;193,221,194;,
3;193,219,221;,
3;194,222,195;,
3;194,221,222;,
3;195,223,196;,
3;195,222,223;,
3;196,224,197;,
3;196,223,224;,
3;76,225,198;,
3;198,226,199;,
3;198,225,226;,
3;199,227,200;,
3;199,226,227;,
3;200,228,201;,
3;200,227,228;,
3;201,229,202;,
3;201,228,229;,
3;202,230,203;,
3;202,229,230;,
3;203,231,204;,
3;203,230,231;,
3;204,232,205;,
3;204,231,232;,
3;205,233,206;,
3;205,232,233;,
3;206,234,207;,
3;206,233,234;,
3;207,235,208;,
3;207,234,235;,
3;208,236,209;,
3;208,235,236;,
3;209,237,210;,
3;209,236,237;,
3;210,238,211;,
3;210,237,238;,
3;211,239,212;,
3;211,238,239;,
3;212,240,213;,
3;212,239,240;,
3;213,241,214;,
3;213,240,241;,
3;242,243,216;,
3;244,245,243;,
3;220,246,219;,
3;220,247,246;,
3;219,248,221;,
3;219,246,248;,
3;221,249,222;,
3;221,248,249;,
3;222,250,223;,
3;222,249,250;,
3;223,251,224;,
3;223,250,251;,
3;76,252,225;,
3;225,253,226;,
3;225,252,253;,
3;226,254,227;,
3;226,253,254;,
3;227,255,228;,
3;227,254,255;,
3;228,256,229;,
3;228,255,256;,
3;229,257,230;,
3;229,256,257;,
3;230,258,231;,
3;230,257,258;,
3;231,259,232;,
3;231,258,259;,
3;232,260,233;,
3;232,259,260;,
3;233,261,234;,
3;233,260,261;,
3;234,262,235;,
3;234,261,262;,
3;235,263,236;,
3;235,262,263;,
3;236,264,237;,
3;236,263,264;,
3;237,265,238;,
3;237,264,265;,
3;238,266,239;,
3;238,265,266;,
3;239,267,240;,
3;239,266,267;,
3;240,268,241;,
3;240,267,268;,
3;269,270,243;,
3;271,272,270;,
3;247,273,246;,
3;247,274,273;,
3;246,275,248;,
3;246,273,275;,
3;248,276,249;,
3;248,275,276;,
3;249,277,250;,
3;249,276,277;,
3;250,278,251;,
3;250,277,278;,
3;76,279,252;,
3;252,280,253;,
3;252,279,280;,
3;253,281,254;,
3;253,280,281;,
3;254,282,255;,
3;254,281,282;,
3;255,283,256;,
3;255,282,283;,
3;256,284,257;,
3;256,283,284;,
3;257,285,258;,
3;257,284,285;,
3;258,286,259;,
3;258,285,286;,
3;259,287,260;,
3;259,286,287;,
3;260,288,261;,
3;260,287,288;,
3;261,289,262;,
3;261,288,289;,
3;262,290,263;,
3;262,289,290;,
3;263,291,264;,
3;263,290,291;,
3;264,292,265;,
3;264,291,292;,
3;265,293,266;,
3;265,292,293;,
3;266,294,267;,
3;266,293,294;,
3;295,296,297;,
3;298,299,296;,
3;300,301,270;,
3;302,296,301;,
3;274,303,273;,
3;274,304,303;,
3;273,305,275;,
3;273,303,305;,
3;275,306,276;,
3;275,305,306;,
3;276,307,277;,
3;276,306,307;,
3;277,308,278;,
3;277,307,308;,
3;0,309,310;,
3;310,311,312;,
3;310,309,311;,
3;312,313,314;,
3;312,311,313;,
3;314,315,316;,
3;314,313,315;,
3;316,317,318;,
3;316,315,317;,
3;318,319,320;,
3;318,317,319;,
3;284,321,285;,
3;320,319,322;,
3;285,323,286;,
3;285,321,323;,
3;286,324,287;,
3;286,323,324;,
3;287,325,288;,
3;287,324,325;,
3;288,326,289;,
3;288,325,326;,
3;289,327,290;,
3;289,326,327;,
3;290,328,291;,
3;290,327,328;,
3;291,329,292;,
3;291,328,329;,
3;292,330,293;,
3;292,329,330;,
3;331,332,333;,
3;334,335,332;,
3;336,337,296;,
3;338,332,337;,
3;339,340,304;,
3;339,341,340;,
3;304,342,303;,
3;304,340,342;,
3;303,343,305;,
3;303,342,343;,
3;305,344,306;,
3;305,343,344;,
3;306,345,307;,
3;306,344,345;,
3;307,346,308;,
3;307,345,346;,
3;0,347,309;,
3;309,348,311;,
3;309,347,348;,
3;311,349,313;,
3;311,348,349;,
3;313,350,315;,
3;313,349,350;,
3;315,351,317;,
3;315,350,351;,
3;317,352,319;,
3;317,351,352;,
3;319,353,322;,
3;319,352,353;,
3;321,354,323;,
3;321,355,354;,
3;323,356,324;,
3;323,354,356;,
3;324,357,325;,
3;324,356,357;,
3;325,358,326;,
3;325,357,358;,
3;326,359,327;,
3;326,358,359;,
3;327,360,328;,
3;327,359,360;,
3;328,361,329;,
3;328,360,361;,
3;362,363,364;,
3;365,366,363;,
3;367,368,332;,
3;369,363,368;,
3;370,371,341;,
3;370,372,371;,
3;341,373,340;,
3;341,371,373;,
3;340,374,342;,
3;340,373,374;,
3;342,375,343;,
3;342,374,375;,
3;343,376,344;,
3;343,375,376;,
3;344,377,345;,
3;344,376,377;,
3;345,378,346;,
3;345,377,378;,
3;0,379,347;,
3;347,380,348;,
3;347,379,380;,
3;348,381,349;,
3;348,380,381;,
3;349,382,350;,
3;349,381,382;,
3;350,383,351;,
3;350,382,383;,
3;351,384,352;,
3;351,383,384;,
3;352,385,353;,
3;352,384,385;,
3;355,386,354;,
3;353,385,387;,
3;354,388,356;,
3;354,386,388;,
3;356,389,357;,
3;356,388,389;,
3;357,390,358;,
3;357,389,390;,
3;358,391,359;,
3;358,390,391;,
3;392,393,394;,
3;395,396,393;,
3;397,398,399;,
3;400,393,398;,
3;401,402,363;,
3;403,398,402;,
3;404,405,372;,
3;404,406,405;,
3;372,407,371;,
3;372,405,407;,
3;371,408,373;,
3;371,407,408;,
3;373,409,374;,
3;373,408,409;,
3;374,410,375;,
3;374,409,410;,
3;375,411,376;,
3;375,410,411;,
3;376,412,377;,
3;376,411,412;,
3;377,413,378;,
3;377,412,413;,
3;0,414,379;,
3;379,415,380;,
3;379,414,415;,
3;380,416,381;,
3;380,415,416;,
3;381,417,382;,
3;381,416,417;,
3;382,418,383;,
3;382,417,418;,
3;383,419,384;,
3;383,418,419;,
3;384,420,385;,
3;384,419,420;,
3;421,422,386;,
3;421,423,422;,
3;386,424,388;,
3;386,422,424;,
3;388,425,389;,
3;388,424,425;,
3;389,426,390;,
3;389,425,426;,
3;390,427,391;,
3;390,426,427;,
3;428,429,393;,
3;391,427,430;,
3;431,432,433;,
3;431,430,432;,
3;433,434,406;,
3;433,432,434;,
3;406,435,405;,
3;406,434,435;,
3;405,436,407;,
3;405,435,436;,
3;407,437,408;,
3;407,436,437;,
3;408,438,409;,
3;408,437,438;,
3;409,439,410;,
3;409,438,439;,
3;410,440,411;,
3;410,439,440;,
3;411,441,412;,
3;411,440,441;,
3;412,442,413;,
3;412,441,442;,
3;0,2,414;,
3;414,4,415;,
3;414,2,4;,
3;415,6,416;,
3;415,4,6;,
3;416,8,417;,
3;416,6,8;,
3;417,10,418;,
3;417,8,10;,
3;418,12,419;,
3;418,10,12;,
3;419,14,420;,
3;419,12,14;,
3;423,17,422;,
3;423,15,17;,
3;422,20,424;,
3;422,17,20;,
3;424,22,425;,
3;424,20,22;,
3;425,24,426;,
3;425,22,24;,
3;426,26,427;,
3;426,24,26;,
3;427,28,430;,
3;427,26,28;,
3;430,30,432;,
3;430,28,30;,
3;432,32,434;,
3;432,30,32;,
3;434,34,435;,
3;434,32,34;,
3;435,36,436;,
3;435,34,36;,
3;436,38,437;,
3;436,36,38;,
3;437,40,438;,
3;437,38,40;,
3;438,42,439;,
3;438,40,42;,
3;439,44,440;,
3;439,42,44;,
3;440,46,441;,
3;440,44,46;,
3;441,48,442;,
3;441,46,48;;
 }
MeshTextureCoords {
 443;
0.684901;0.0112507;,
0.622834;0.141228;,
0.636418;0.218529;,
0.614235;0.145485;,
0.62867;0.231539;,
0.617714;0.121796;,
0.631843;0.20152;,
0.612359;0.126182;,
0.626936;0.211362;,
0.608401;0.0984876;,
0.623224;0.183285;,
0.620511;0.0569484;,
0.634356;0.12604;,
0.626216;0.00734293;,
0.639379;0.0658755;,
0.639379;1.06588;,
0.637672;0.929996;,
0.64908;0.971716;,
0.626216;1.00734;,
0.633127;0.861984;,
0.64529;0.899797;,
0.647109;0.825707;,
0.656725;0.852024;,
0.639884;0.711804;,
0.650899;0.73157;,
0.594158;0.607836;,
0.609227;0.625235;,
0.452686;0.630125;,
0.41746;0.67794;,
0.469396;0.565645;,
0.441754;0.587667;,
0.41104;0.569051;,
0.363248;0.602105;,
0.364808;0.563148;,
0.315045;0.61099;,
0.321992;0.520417;,
0.279153;0.572789;,
0.286033;0.461317;,
0.253025;0.509372;,
0.259032;0.408396;,
0.234717;0.447775;,
0.232467;0.361966;,
0.217125;0.387797;,
0.209139;0.329451;,
0.20158;0.342374;,
0.19427;0.312784;,
0.19144;0.317672;,
0.183502;0.30404;,
0.183913;0.30333;,
0.620581;0.0441089;,
0.612632;0.037369;,
0.615824;0.0216309;,
0.610925;0.0191633;,
0.612359;1.12618;,
0.607352;0.991949;,
0.608401;1.09849;,
0.610925;1.01916;,
0.618414;0.970142;,
0.620511;1.05695;,
0.623765;0.933803;,
0.634802;0.877578;,
0.630375;0.814475;,
0.644206;0.792641;,
0.636981;0.68697;,
0.594814;0.585976;,
0.482301;0.570049;,
0.495662;0.537975;,
0.447055;0.527523;,
0.402908;0.50304;,
0.355763;0.454617;,
0.311659;0.40094;,
0.276915;0.35892;,
0.242685;0.329512;,
0.213555;0.313214;,
0.195754;0.306642;,
0.183306;0.304933;,
0.684901;1.01125;,
0.627076;0.941956;,
0.620581;1.04411;,
0.620441;0.923649;,
0.612632;1.03737;,
0.623095;0.916275;,
0.615824;1.02163;,
0.619026;0.906598;,
0.616075;0.879888;,
0.625259;0.878838;,
0.629757;0.856453;,
0.63917;0.822444;,
0.635372;0.764504;,
0.64735;0.757862;,
0.641051;0.66085;,
0.605821;0.562982;,
0.513877;0.50686;,
0.525352;0.508872;,
0.481936;0.483842;,
0.437484;0.439817;,
0.383838;0.385407;,
0.329466;0.337435;,
0.286362;0.30688;,
0.245881;0.295377;,
0.213918;0.296136;,
0.195616;0.300182;,
0.183354;0.305872;,
0.640083;0.850322;,
0.635141;0.821639;,
0.637117;0.821767;,
0.63409;0.805623;,
0.631898;0.779367;,
0.638728;0.796934;,
0.642086;0.787066;,
0.64915;0.772987;,
0.646292;0.719678;,
0.655346;0.726665;,
0.650569;0.637419;,
0.624289;0.542357;,
0.552218;0.450178;,
0.561977;0.482765;,
0.523078;0.444659;,
0.476418;0.383104;,
0.409899;0.323323;,
0.33719;0.280468;,
0.283591;0.260198;,
0.239849;0.264756;,
0.209677;0.280816;,
0.193807;0.294387;,
0.183635;0.306715;,
0.657719;0.783156;,
0.654772;0.746868;,
0.65595;0.752495;,
0.654145;0.731611;,
0.652836;0.705687;,
0.656911;0.736901;,
0.658913;0.736208;,
0.663128;0.736737;,
0.661422;0.686822;,
0.666836;0.703797;,
0.663976;0.620244;,
0.648283;0.527239;,
0.601709;0.408632;,
0.608636;0.463629;,
0.57903;0.415939;,
0.533604;0.341535;,
0.44067;0.277818;,
0.324213;0.238714;,
0.260538;0.225982;,
0.222598;0.242312;,
0.200977;0.269587;,
0.19055;0.29014;,
0.184108;0.307332;,
0.678098;0.750685;,
0.677364;0.71072;,
0.677657;0.719006;,
0.677207;0.69583;,
0.676881;0.670066;,
0.677896;0.707878;,
0.678395;0.711621;,
0.679443;0.719212;,
0.679019;0.670938;,
0.680367;0.692742;,
0.679655;0.611941;,
0.675743;0.51993;,
0.663476;0.388546;,
0.665417;0.454378;,
0.656623;0.402054;,
0.638883;0.321438;,
0.531283;0.255818;,
0.24066;0.218527;,
0.207163;0.20944;,
0.194984;0.231461;,
0.189055;0.264158;,
0.186343;0.288087;,
0.1847;0.307631;,
0.699162;0.757852;,
0.700702;0.718698;,
0.700086;0.726397;,
0.70103;0.703727;,
0.701715;0.677928;,
0.699584;0.714284;,
0.698539;0.717047;,
0.696338;0.72308;,
0.697229;0.674444;,
0.6944;0.695182;,
0.695895;0.613774;,
0.7041;0.521543;,
0.729493;0.392979;,
0.725534;0.45642;,
0.743199;0.405118;,
0.776064;0.325874;,
0.892444;0.260673;,
0.0844148;0.222982;,
1.53128;0.255818;,
0.892444;0.260673;,
1.08441;0.222982;,
0.140082;0.213091;,
0.164081;0.233856;,
0.176253;0.265357;,
0.18189;0.28854;,
0.185321;0.307565;,
0.718789;0.803565;,
0.722479;0.769587;,
0.721004;0.773544;,
0.723264;0.7541;,
0.724901;0.728075;,
0.719801;0.755143;,
0.717294;0.751662;,
0.712016;0.747752;,
0.714153;0.696806;,
0.707376;0.710746;,
0.710954;0.625463;,
0.730593;0.531833;,
0.787238;0.421256;,
0.779083;0.469444;,
0.81303;0.424665;,
0.86017;0.354166;,
0.941531;0.291645;,
0.892444;0.260673;,
1.03701;0.251401;,
0.892444;0.260673;,
0.941531;0.291645;,
0.0979726;0.236379;,
0.0370148;0.251401;,
0.139708;0.249132;,
0.165261;0.272999;,
0.17795;0.291431;,
0.18588;0.307145;,
0.734983;0.880865;,
0.740567;0.855641;,
0.738335;0.853268;,
0.741756;0.83928;,
0.744232;0.812872;,
0.736514;0.824234;,
0.732723;0.810194;,
0.724754;0.789472;,
0.727976;0.734619;,
0.717782;0.737063;,
0.723155;0.645229;,
0.75283;0.549232;,
0.832328;0.469071;,
0.821902;0.491467;,
0.86261;0.457719;,
0.908404;0.402007;,
0.969246;0.344017;,
0.941531;0.291645;,
1.03387;0.299456;,
0.941531;0.291645;,
0.969246;0.344017;,
0.0834344;0.275758;,
0.033868;0.299456;,
0.126595;0.274962;,
0.158073;0.285922;,
0.175165;0.296319;,
0.186292;0.306434;,
0.745894;0.977985;,
0.753049;0.963757;,
0.750184;0.953433;,
0.754578;0.946299;,
0.757768;0.919411;,
0.747852;0.91104;,
0.74301;0.883734;,
0.732918;0.84189;,
0.736984;0.782128;,
0.724197;0.770129;,
0.730909;0.670062;,
0.768879;0.571092;,
0.867724;0.529147;,
0.855656;0.519136;,
0.900643;0.499248;,
0.9447;0.462115;,
0.995543;0.409817;,
0.969246;0.344017;,
1.04572;0.359833;,
0.969246;0.344017;,
0.995543;0.409817;,
0.085667;0.325234;,
0.0457246;0.359833;,
0.124123;0.307416;,
0.155502;0.302159;,
0.173942;0.30246;,
0.186493;0.305541;,
0.749553;1.08014;,
0.757838;1.07748;,
0.754504;1.05879;,
0.759625;1.05886;,
0.763373;1.03147;,
0.751806;1.00235;,
0.746252;0.961084;,
0.734888;0.897024;,
0.739431;0.832099;,
0.725306;0.804908;,
0.73266;0.696183;,
0.776619;0.594085;,
0.898013;0.592335;,
0.883711;0.548239;,
0.935051;0.542928;,
0.9797;0.525338;,
0.9447;0.462115;,
1.02525;0.479027;,
0.995543;0.409817;,
0.9447;0.462115;,
0.9797;0.525338;,
0.995543;0.409817;,
1.06642;0.423338;,
0.995543;0.409817;,
0.0984189;0.377274;,
0.066419;0.423338;,
0.13006;0.341551;,
0.157399;0.319237;,
0.174401;0.30892;,
0.186453;0.304602;,
0.743547;0.171772;,
0.749553;0.0801373;,
0.752082;0.179487;,
0.757838;0.077477;,
0.748615;0.153297;,
0.754504;0.0587892;,
0.753959;0.159839;,
0.759625;0.0588642;,
0.757937;0.131993;,
0.763373;0.0314716;,
0.745842;0.0842483;,
0.751806;0.00234503;,
0.740221;1.03047;,
0.740221;0.0304707;,
0.729078;0.94648;,
0.733476;0.876925;,
0.720036;0.836105;,
0.726947;0.719614;,
0.772453;0.614711;,
0.928399;0.649018;,
0.909731;0.574346;,
0.973634;0.582111;,
0.935051;0.542928;,
1.02091;0.582052;,
0.9797;0.525338;,
0.935051;0.542928;,
0.973634;0.582111;,
0.9797;0.525338;,
1.06189;0.541111;,
0.9797;0.525338;,
0.0252509;0.479027;,
0.0947178;0.480305;,
0.0618928;0.541111;,
0.118793;0.423955;,
0.142312;0.372172;,
0.163052;0.334557;,
0.176406;0.314715;,
0.186175;0.30376;,
0.725457;0.238937;,
0.73227;0.254258;,
0.729465;0.222569;,
0.73381;0.233851;,
0.73713;0.205673;,
0.727259;0.144281;,
0.722883;0.0813289;,
0.714554;0.982731;,
0.722883;1.08133;,
0.717789;0.909781;,
0.708095;0.858973;,
0.71301;0.736788;,
0.749917;0.629829;,
0.969906;0.690564;,
0.940394;0.593482;,
0.909731;0.574346;,
1.03043;0.610831;,
0.973634;0.582111;,
0.909731;0.574346;,
0.940394;0.593482;,
0.973634;0.582111;,
1.0772;0.623621;,
0.973634;0.582111;,
0.0209126;0.582052;,
0.108577;0.586616;,
0.0772013;0.623621;,
0.130194;0.522059;,
0.144977;0.458172;,
0.159048;0.394616;,
0.171474;0.345786;,
0.179619;0.318962;,
0.185701;0.303142;,
0.69581;0.271408;,
0.697825;0.290406;,
0.696987;0.256058;,
0.698292;0.269632;,
0.69931;0.241294;,
0.696336;0.173304;,
0.695066;0.105916;,
0.69272;1.00026;,
0.69272;0.0002563;,
0.693621;0.925665;,
0.690955;0.870028;,
0.692294;0.745091;,
0.703438;0.637137;,
0.749917;0.629829;,
1.08777;0.71065;,
0.969906;0.690564;,
0.749917;0.629829;,
0.703438;0.637137;,
0.969906;0.690564;,
1.03055;0.602733;,
0.940394;0.593482;,
0.969906;0.690564;,
0.940394;0.593482;,
1.13732;0.624716;,
0.940394;0.593482;,
0.0304261;0.610831;,
0.156028;0.643718;,
0.137318;0.624716;,
0.165401;0.608616;,
0.171155;0.542246;,
0.174914;0.474713;,
0.178428;0.405467;,
0.181523;0.351215;,
0.183565;0.321016;,
0.185104;0.302844;,
0.662408;0.264242;,
0.658346;0.282428;,
0.660031;0.248667;,
0.657412;0.261735;,
0.655379;0.233432;,
0.661344;0.166899;,
0.663915;0.10049;,
0.695066;1.10592;,
0.668701;0.996388;,
0.663915;1.10049;,
0.666858;0.922159;,
0.672328;0.867588;,
0.669575;0.743259;,
0.64725;0.635524;,
0.703438;0.637137;,
1.34586;0.706217;,
0.345861;0.706217;,
0.087768;0.71065;,
0.392928;0.600691;,
0.0305459;0.602733;,
0.278751;0.621652;,
0.244364;0.639282;,
0.225567;0.603761;,
0.213684;0.537791;,
0.205837;0.471063;,
0.198468;0.403072;,
0.191974;0.350017;,
0.187695;0.320563;,
0.184476;0.302909;;
}
}
 }
