xof 0302txt 0032
Header {
 1;
 0;
 1;
}
template Header {
 <3D82AB43-62DA-11cf-AB39-0020AF71E433>
 WORD major;
 WORD minor;
 DWORD flags;
}

template Vector {
 <3D82AB5E-62DA-11cf-AB39-0020AF71E433>
 FLOAT x;
 FLOAT y;
 FLOAT z;
}

template Coords2d {
 <F6F23F44-7686-11cf-8F52-0040333594A3>
 FLOAT u;
 FLOAT v;
}

template Matrix4x4 {
 <F6F23F45-7686-11cf-8F52-0040333594A3>
 array FLOAT matrix[16];
}

template ColorRGBA {
 <35FF44E0-6C7C-11cf-8F52-0040333594A3>
 FLOAT red;
 FLOAT green;
 FLOAT blue;
 FLOAT alpha;
}

template ColorRGB {
 <D3E16E81-7835-11cf-8F52-0040333594A3>
 FLOAT red;
 FLOAT green;
 FLOAT blue;
}

template TextureFilename {
 <A42790E1-7810-11cf-8F52-0040333594A3>
 STRING filename;
}

template Material {
 <3D82AB4D-62DA-11cf-AB39-0020AF71E433>
 ColorRGBA faceColor;
 FLOAT power;
 ColorRGB specularColor;
 ColorRGB emissiveColor;
 [...]
}

template MeshFace {
 <3D82AB5F-62DA-11cf-AB39-0020AF71E433>
 DWORD nFaceVertexIndices;
 array DWORD faceVertexIndices[nFaceVertexIndices];
}

template MeshTextureCoords {
 <F6F23F40-7686-11cf-8F52-0040333594A3>
 DWORD nTextureCoords;
 array Coords2d textureCoords[nTextureCoords];
}

template MeshMaterialList {
 <F6F23F42-7686-11cf-8F52-0040333594A3>
 DWORD nMaterials;
 DWORD nFaceIndexes;
 array DWORD faceIndexes[nFaceIndexes];
 [Material]
}

template MeshNormals {
 <F6F23F43-7686-11cf-8F52-0040333594A3>
 DWORD nNormals;
 array Vector normals[nNormals];
 DWORD nFaceNormals;
 array MeshFace faceNormals[nFaceNormals];
}

template Mesh {
 <3D82AB44-62DA-11cf-AB39-0020AF71E433>
 DWORD nVertices;
 array Vector vertices[nVertices];
 DWORD nFaces;
 array MeshFace faces[nFaces];
 [...]
}

template FrameTransformMatrix {
 <F6F23F41-7686-11cf-8F52-0040333594A3>
 Matrix4x4 frameMatrix;
}

template Frame {
 <3D82AB46-62DA-11cf-AB39-0020AF71E433>
 [...]
}
template FloatKeys {
 <10DD46A9-775B-11cf-8F52-0040333594A3>
 DWORD nValues;
 array FLOAT values[nValues];
}

template TimedFloatKeys {
 <F406B180-7B3B-11cf-8F52-0040333594A3>
 DWORD time;
 FloatKeys tfkeys;
}

template AnimationKey {
 <10DD46A8-775B-11cf-8F52-0040333594A3>
 DWORD keyType;
 DWORD nKeys;
 array TimedFloatKeys keys[nKeys];
}

template AnimationOptions {
 <E2BF56C0-840F-11cf-8F52-0040333594A3>
 DWORD openclosed;
 DWORD positionquality;
}

template Animation {
 <3D82AB4F-62DA-11cf-AB39-0020AF71E433>
 [...]
}

template AnimationSet {
 <3D82AB50-62DA-11cf-AB39-0020AF71E433>
 [Animation]
}
Frame Cylinder01 {
   FrameTransformMatrix {
1.0,0.0,0.0,0.0,
0.0,1.19249e-08,-1.0,0.0,
0.0,1.0,1.19249e-08,0.0,
0.0,0.0,0.0,1.0;;
 }
Mesh Cylinder01 {
 24;
25.0;43.3013;100.0;,
50.0;0.0;0.0;,
50.0;0.0;100.0;,
25.0;43.3013;0.0;,
-25.0;43.3013;100.0;,
25.0;43.3013;0.0;,
25.0;43.3013;100.0;,
-25.0;43.3013;0.0;,
-50.0;-4.37116e-06;100.0;,
-25.0;43.3013;0.0;,
-25.0;43.3013;100.0;,
-50.0;-4.37116e-06;0.0;,
-25.0;-43.3013;100.0;,
-50.0;-4.37116e-06;0.0;,
-50.0;-4.37116e-06;100.0;,
-25.0;-43.3013;0.0;,
25.0;-43.3013;100.0;,
-25.0;-43.3013;0.0;,
-25.0;-43.3013;100.0;,
25.0;-43.3013;0.0;,
50.0;0.0;100.0;,
25.0;-43.3013;0.0;,
25.0;-43.3013;100.0;,
50.0;0.0;0.0;;

 12;
3;0,1,2;,
3;3,1,0;,
3;4,5,6;,
3;7,5,4;,
3;8,9,10;,
3;11,9,8;,
3;12,13,14;,
3;15,13,12;,
3;16,17,18;,
3;19,17,16;,
3;20,21,22;,
3;23,21,20;;
MeshMaterialList {
 1;
 12;
  0,
  0,
  0,
  0,
  0,
  0,
  0,
  0,
  0,
  0,
  0,
  0;;
Material {
 0.752941;0.752941;0.752941;1.0;;
 50.000000;
 0.752941;0.752941;0.752941;;
 0.117647;0.117647;0.117647;;
 }
}

 MeshNormals {
 24;
-0.866025;-5.96244e-09;-0.5;,
-0.866025;-5.96244e-09;-0.5;,
-0.866025;-5.96244e-09;-0.5;,
-0.866025;-5.96244e-09;-0.5;,
0.0;-1.19249e-08;-1.0;,
0.0;-1.19249e-08;-1.0;,
0.0;-1.19249e-08;-1.0;,
0.0;-1.19249e-08;-1.0;,
0.866025;-5.96244e-09;-0.5;,
0.866025;-5.96244e-09;-0.5;,
0.866025;-5.96244e-09;-0.5;,
0.866025;-5.96244e-09;-0.5;,
0.866025;5.96244e-09;0.5;,
0.866025;5.96244e-09;0.5;,
0.866025;5.96244e-09;0.5;,
0.866025;5.96244e-09;0.5;,
-1.52588e-07;1.19249e-08;1.0;,
-1.52588e-07;1.19249e-08;1.0;,
-1.52588e-07;1.19249e-08;1.0;,
-1.52588e-07;1.19249e-08;1.0;,
-0.866025;5.96244e-09;0.5;,
-0.866025;5.96244e-09;0.5;,
-0.866025;5.96244e-09;0.5;,
-0.866025;5.96244e-09;0.5;;

 12;
3;0,1,2;,
3;3,1,0;,
3;4,5,6;,
3;7,5,4;,
3;8,9,10;,
3;11,9,8;,
3;12,13,14;,
3;15,13,12;,
3;16,17,18;,
3;19,17,16;,
3;20,21,22;,
3;23,21,20;;
 }
MeshTextureCoords {
 24;
0.916667;1.0;,
0.75;2.0;,
0.75;1.0;,
0.916667;2.0;,
1.08333;1.0;,
0.916667;2.0;,
0.916667;1.0;,
1.08333;2.0;,
0.25;1.0;,
0.0833334;2.0;,
0.0833334;1.0;,
0.25;2.0;,
0.416667;1.0;,
0.25;2.0;,
0.25;1.0;,
0.416667;2.0;,
0.583333;1.0;,
0.416667;2.0;,
0.416667;1.0;,
0.583333;2.0;,
0.75;1.0;,
0.583333;2.0;,
0.583333;1.0;,
0.75;2.0;;
}
}
 }
