xof 0302txt 0032
Header {
 1;
 0;
 1;
}
template Header {
 <3D82AB43-62DA-11cf-AB39-0020AF71E433>
 WORD major;
 WORD minor;
 DWORD flags;
}

template Vector {
 <3D82AB5E-62DA-11cf-AB39-0020AF71E433>
 FLOAT x;
 FLOAT y;
 FLOAT z;
}

template Coords2d {
 <F6F23F44-7686-11cf-8F52-0040333594A3>
 FLOAT u;
 FLOAT v;
}

template Matrix4x4 {
 <F6F23F45-7686-11cf-8F52-0040333594A3>
 array FLOAT matrix[16];
}

template ColorRGBA {
 <35FF44E0-6C7C-11cf-8F52-0040333594A3>
 FLOAT red;
 FLOAT green;
 FLOAT blue;
 FLOAT alpha;
}

template ColorRGB {
 <D3E16E81-7835-11cf-8F52-0040333594A3>
 FLOAT red;
 FLOAT green;
 FLOAT blue;
}

template TextureFilename {
 <A42790E1-7810-11cf-8F52-0040333594A3>
 STRING filename;
}

template Material {
 <3D82AB4D-62DA-11cf-AB39-0020AF71E433>
 ColorRGBA faceColor;
 FLOAT power;
 ColorRGB specularColor;
 ColorRGB emissiveColor;
 [...]
}

template MeshFace {
 <3D82AB5F-62DA-11cf-AB39-0020AF71E433>
 DWORD nFaceVertexIndices;
 array DWORD faceVertexIndices[nFaceVertexIndices];
}

template MeshTextureCoords {
 <F6F23F40-7686-11cf-8F52-0040333594A3>
 DWORD nTextureCoords;
 array Coords2d textureCoords[nTextureCoords];
}

template MeshMaterialList {
 <F6F23F42-7686-11cf-8F52-0040333594A3>
 DWORD nMaterials;
 DWORD nFaceIndexes;
 array DWORD faceIndexes[nFaceIndexes];
 [Material]
}

template MeshNormals {
 <F6F23F43-7686-11cf-8F52-0040333594A3>
 DWORD nNormals;
 array Vector normals[nNormals];
 DWORD nFaceNormals;
 array MeshFace faceNormals[nFaceNormals];
}

template Mesh {
 <3D82AB44-62DA-11cf-AB39-0020AF71E433>
 DWORD nVertices;
 array Vector vertices[nVertices];
 DWORD nFaces;
 array MeshFace faces[nFaces];
 [...]
}

template FrameTransformMatrix {
 <F6F23F41-7686-11cf-8F52-0040333594A3>
 Matrix4x4 frameMatrix;
}

template Frame {
 <3D82AB46-62DA-11cf-AB39-0020AF71E433>
 [...]
}
template FloatKeys {
 <10DD46A9-775B-11cf-8F52-0040333594A3>
 DWORD nValues;
 array FLOAT values[nValues];
}

template TimedFloatKeys {
 <F406B180-7B3B-11cf-8F52-0040333594A3>
 DWORD time;
 FloatKeys tfkeys;
}

template AnimationKey {
 <10DD46A8-775B-11cf-8F52-0040333594A3>
 DWORD keyType;
 DWORD nKeys;
 array TimedFloatKeys keys[nKeys];
}

template AnimationOptions {
 <E2BF56C0-840F-11cf-8F52-0040333594A3>
 DWORD openclosed;
 DWORD positionquality;
}

template Animation {
 <3D82AB4F-62DA-11cf-AB39-0020AF71E433>
 [...]
}

template AnimationSet {
 <3D82AB50-62DA-11cf-AB39-0020AF71E433>
 [Animation]
}
Frame ChamferBox {
   FrameTransformMatrix {
0.5,0.0,0.0,0.0,
0.0,5.96244e-09,-0.5,0.0,
0.0,0.5,5.96244e-09,0.0,
0.0,0.0,0.0,1.0;;
 }
Mesh ChamferBox {
 169;
-105.0;105.0;80.0;,
-105.0;0.0;80.0;,
0.0;0.0;80.0;,
0.0;105.0;80.0;,
0.0;105.0;80.0;,
0.0;0.0;80.0;,
105.0;0.0;80.0;,
105.0;105.0;80.0;,
-105.0;0.0;80.0;,
-105.0;-105.0;80.0;,
0.0;-105.0;80.0;,
105.0;-105.0;80.0;,
-105.0;112.5;77.9904;,
-108.75;111.495;77.9904;,
-111.495;108.75;77.9904;,
-112.5;105.0;77.9904;,
-112.5;0.0;77.9904;,
-112.5;0.0;77.9904;,
-112.5;-105.0;77.9904;,
-111.495;-108.75;77.9904;,
-108.75;-111.495;77.9904;,
-105.0;-112.5;77.9904;,
0.0;-112.5;77.9904;,
105.0;-112.5;77.9904;,
105.0;-105.0;80.0;,
105.0;-112.5;77.9904;,
108.75;-111.495;77.9904;,
111.495;-108.75;77.9904;,
112.5;-105.0;77.9904;,
112.5;-105.0;77.9904;,
112.5;0.0;77.9904;,
112.5;105.0;77.9904;,
111.495;108.75;77.9904;,
108.75;111.495;77.9904;,
105.0;112.5;77.9904;,
0.0;112.5;77.9904;,
0.0;112.5;77.9904;,
-105.0;117.99;72.5;,
-111.495;116.25;72.5;,
-116.25;111.495;72.5;,
-117.99;105.0;72.5;,
-117.99;0.0;72.5;,
-117.99;0.0;72.5;,
-117.99;-105.0;72.5;,
-116.25;-111.495;72.5;,
-111.495;-116.25;72.5;,
-105.0;-117.99;72.5;,
0.0;-117.99;72.5;,
105.0;-117.99;72.5;,
105.0;-117.99;72.5;,
111.495;-116.25;72.5;,
116.25;-111.495;72.5;,
117.99;-105.0;72.5;,
117.99;-105.0;72.5;,
117.99;0.0;72.5;,
117.99;105.0;72.5;,
116.25;111.495;72.5;,
111.495;116.25;72.5;,
105.0;117.99;72.5;,
0.0;117.99;72.5;,
0.0;117.99;72.5;,
-105.0;120.0;65.0;,
-112.5;117.99;65.0;,
-117.99;112.5;65.0;,
-120.0;105.0;65.0;,
-120.0;0.0;65.0;,
-120.0;0.0;65.0;,
-120.0;-105.0;65.0;,
-117.99;-112.5;65.0;,
-112.5;-117.99;65.0;,
-105.0;-120.0;65.0;,
0.0;-120.0;65.0;,
105.0;-120.0;65.0;,
105.0;-120.0;65.0;,
112.5;-117.99;65.0;,
117.99;-112.5;65.0;,
120.0;-105.0;65.0;,
120.0;-105.0;65.0;,
120.0;0.0;65.0;,
120.0;105.0;65.0;,
117.99;112.5;65.0;,
112.5;117.99;65.0;,
105.0;120.0;65.0;,
0.0;120.0;65.0;,
0.0;120.0;65.0;,
-105.0;120.0;15.0;,
-112.5;117.99;15.0;,
-117.99;112.5;15.0;,
-120.0;105.0;15.0;,
-120.0;0.0;15.0;,
-120.0;0.0;15.0;,
-120.0;-105.0;15.0;,
-117.99;-112.5;15.0;,
-112.5;-117.99;15.0;,
-105.0;-120.0;15.0;,
0.0;-120.0;15.0;,
105.0;-120.0;15.0;,
105.0;-120.0;15.0;,
112.5;-117.99;15.0;,
117.99;-112.5;15.0;,
120.0;-105.0;15.0;,
120.0;-105.0;15.0;,
120.0;0.0;15.0;,
120.0;105.0;15.0;,
117.99;112.5;15.0;,
112.5;117.99;15.0;,
105.0;120.0;15.0;,
0.0;120.0;15.0;,
0.0;120.0;15.0;,
-105.0;117.99;7.5;,
-111.495;116.25;7.5;,
-116.25;111.495;7.5;,
-117.99;105.0;7.5;,
-117.99;0.0;7.5;,
-117.99;0.0;7.5;,
-117.99;-105.0;7.5;,
-116.25;-111.495;7.5;,
-111.495;-116.25;7.5;,
-105.0;-117.99;7.5;,
0.0;-117.99;7.5;,
105.0;-117.99;7.5;,
105.0;-117.99;7.5;,
111.495;-116.25;7.5;,
116.25;-111.495;7.5;,
117.99;-105.0;7.5;,
117.99;-105.0;7.5;,
117.99;0.0;7.5;,
117.99;105.0;7.5;,
116.25;111.495;7.5;,
111.495;116.25;7.5;,
105.0;117.99;7.5;,
0.0;117.99;7.5;,
0.0;117.99;7.5;,
-105.0;112.5;2.00962;,
-108.75;111.495;2.00962;,
-111.495;108.75;2.00962;,
-112.5;105.0;2.00962;,
-112.5;0.0;2.00962;,
-112.5;0.0;2.00962;,
-112.5;-105.0;2.00962;,
-111.495;-108.75;2.00962;,
-108.75;-111.495;2.00962;,
-105.0;-112.5;2.00962;,
0.0;-112.5;2.00962;,
105.0;-112.5;2.00962;,
105.0;-112.5;2.00962;,
108.75;-111.495;2.00962;,
111.495;-108.75;2.00962;,
112.5;-105.0;2.00962;,
112.5;-105.0;2.00962;,
112.5;0.0;2.00962;,
112.5;105.0;2.00962;,
111.495;108.75;2.00962;,
108.75;111.495;2.00962;,
105.0;112.5;2.00962;,
0.0;112.5;2.00962;,
0.0;112.5;2.00962;,
-105.0;105.0;0.0;,
-105.0;0.0;0.0;,
-105.0;0.0;0.0;,
-105.0;-105.0;0.0;,
0.0;-105.0;0.0;,
105.0;-105.0;0.0;,
105.0;-105.0;0.0;,
105.0;0.0;0.0;,
105.0;105.0;0.0;,
0.0;105.0;0.0;,
0.0;105.0;0.0;,
0.0;0.0;0.0;;

 272;
3;0,1,2;,
3;0,2,3;,
3;4,5,6;,
3;4,6,7;,
3;8,9,10;,
3;8,10,5;,
3;5,10,11;,
3;5,11,6;,
3;0,12,13;,
3;0,13,14;,
3;0,14,15;,
3;0,15,16;,
3;0,16,1;,
3;8,17,18;,
3;8,18,9;,
3;9,18,19;,
3;9,19,20;,
3;9,20,21;,
3;9,21,22;,
3;9,22,10;,
3;10,22,23;,
3;10,23,11;,
3;24,25,26;,
3;24,26,27;,
3;24,27,28;,
3;11,29,30;,
3;11,30,6;,
3;6,30,31;,
3;6,31,7;,
3;7,31,32;,
3;7,32,33;,
3;7,33,34;,
3;7,34,35;,
3;7,35,4;,
3;3,36,12;,
3;3,12,0;,
3;12,37,38;,
3;12,38,13;,
3;13,38,39;,
3;13,39,14;,
3;14,39,40;,
3;14,40,15;,
3;15,40,41;,
3;15,41,16;,
3;17,42,43;,
3;17,43,18;,
3;18,43,44;,
3;18,44,19;,
3;19,44,45;,
3;19,45,20;,
3;20,45,46;,
3;20,46,21;,
3;21,46,47;,
3;21,47,22;,
3;22,47,48;,
3;22,48,23;,
3;25,49,50;,
3;25,50,26;,
3;26,50,51;,
3;26,51,27;,
3;27,51,52;,
3;27,52,28;,
3;29,53,54;,
3;29,54,30;,
3;30,54,55;,
3;30,55,31;,
3;31,55,56;,
3;31,56,32;,
3;32,56,57;,
3;32,57,33;,
3;33,57,58;,
3;33,58,34;,
3;34,58,59;,
3;34,59,35;,
3;36,60,37;,
3;36,37,12;,
3;37,61,62;,
3;37,62,38;,
3;38,62,63;,
3;38,63,39;,
3;39,63,64;,
3;39,64,40;,
3;40,64,65;,
3;40,65,41;,
3;42,66,67;,
3;42,67,43;,
3;43,67,68;,
3;43,68,44;,
3;44,68,69;,
3;44,69,45;,
3;45,69,70;,
3;45,70,46;,
3;46,70,71;,
3;46,71,47;,
3;47,71,72;,
3;47,72,48;,
3;49,73,74;,
3;49,74,50;,
3;50,74,75;,
3;50,75,51;,
3;51,75,76;,
3;51,76,52;,
3;53,77,78;,
3;53,78,54;,
3;54,78,79;,
3;54,79,55;,
3;55,79,80;,
3;55,80,56;,
3;56,80,81;,
3;56,81,57;,
3;57,81,82;,
3;57,82,58;,
3;58,82,83;,
3;58,83,59;,
3;60,84,61;,
3;60,61,37;,
3;61,85,86;,
3;61,86,62;,
3;62,86,87;,
3;62,87,63;,
3;63,87,88;,
3;63,88,64;,
3;64,88,89;,
3;64,89,65;,
3;66,90,91;,
3;66,91,67;,
3;67,91,92;,
3;67,92,68;,
3;68,92,93;,
3;68,93,69;,
3;69,93,94;,
3;69,94,70;,
3;70,94,95;,
3;70,95,71;,
3;71,95,96;,
3;71,96,72;,
3;73,97,98;,
3;73,98,74;,
3;74,98,99;,
3;74,99,75;,
3;75,99,100;,
3;75,100,76;,
3;77,101,102;,
3;77,102,78;,
3;78,102,103;,
3;78,103,79;,
3;79,103,104;,
3;79,104,80;,
3;80,104,105;,
3;80,105,81;,
3;81,105,106;,
3;81,106,82;,
3;82,106,107;,
3;82,107,83;,
3;84,108,85;,
3;84,85,61;,
3;85,109,110;,
3;85,110,86;,
3;86,110,111;,
3;86,111,87;,
3;87,111,112;,
3;87,112,88;,
3;88,112,113;,
3;88,113,89;,
3;90,114,115;,
3;90,115,91;,
3;91,115,116;,
3;91,116,92;,
3;92,116,117;,
3;92,117,93;,
3;93,117,118;,
3;93,118,94;,
3;94,118,119;,
3;94,119,95;,
3;95,119,120;,
3;95,120,96;,
3;97,121,122;,
3;97,122,98;,
3;98,122,123;,
3;98,123,99;,
3;99,123,124;,
3;99,124,100;,
3;101,125,126;,
3;101,126,102;,
3;102,126,127;,
3;102,127,103;,
3;103,127,128;,
3;103,128,104;,
3;104,128,129;,
3;104,129,105;,
3;105,129,130;,
3;105,130,106;,
3;106,130,131;,
3;106,131,107;,
3;108,132,109;,
3;108,109,85;,
3;109,133,134;,
3;109,134,110;,
3;110,134,135;,
3;110,135,111;,
3;111,135,136;,
3;111,136,112;,
3;112,136,137;,
3;112,137,113;,
3;114,138,139;,
3;114,139,115;,
3;115,139,140;,
3;115,140,116;,
3;116,140,141;,
3;116,141,117;,
3;117,141,142;,
3;117,142,118;,
3;118,142,143;,
3;118,143,119;,
3;119,143,144;,
3;119,144,120;,
3;121,145,146;,
3;121,146,122;,
3;122,146,147;,
3;122,147,123;,
3;123,147,148;,
3;123,148,124;,
3;125,149,150;,
3;125,150,126;,
3;126,150,151;,
3;126,151,127;,
3;127,151,152;,
3;127,152,128;,
3;128,152,153;,
3;128,153,129;,
3;129,153,154;,
3;129,154,130;,
3;130,154,155;,
3;130,155,131;,
3;132,156,133;,
3;132,133,109;,
3;133,157,134;,
3;134,157,135;,
3;135,157,136;,
3;136,157,158;,
3;136,158,137;,
3;138,159,160;,
3;138,160,139;,
3;139,160,140;,
3;140,160,141;,
3;141,160,142;,
3;142,160,161;,
3;142,161,143;,
3;143,161,162;,
3;143,162,144;,
3;145,163,146;,
3;146,163,147;,
3;147,163,148;,
3;149,162,164;,
3;149,164,150;,
3;150,164,165;,
3;150,165,151;,
3;151,165,152;,
3;152,165,153;,
3;153,165,154;,
3;154,165,166;,
3;154,166,155;,
3;156,167,157;,
3;156,157,133;,
3;164,162,161;,
3;164,161,168;,
3;168,161,160;,
3;168,160,159;,
3;165,164,168;,
3;165,168,166;,
3;166,168,159;,
3;167,158,157;;
MeshMaterialList {
 1;
 272;
  0,
  0,
  0,
  0,
  0,
  0,
  0,
  0,
  0,
  0,
  0,
  0,
  0,
  0,
  0,
  0,
  0,
  0,
  0,
  0,
  0,
  0,
  0,
  0,
  0,
  0,
  0,
  0,
  0,
  0,
  0,
  0,
  0,
  0,
  0,
  0,
  0,
  0,
  0,
  0,
  0,
  0,
  0,
  0,
  0,
  0,
  0,
  0,
  0,
  0,
  0,
  0,
  0,
  0,
  0,
  0,
  0,
  0,
  0,
  0,
  0,
  0,
  0,
  0,
  0,
  0,
  0,
  0,
  0,
  0,
  0,
  0,
  0,
  0,
  0,
  0,
  0,
  0,
  0,
  0,
  0,
  0,
  0,
  0,
  0,
  0,
  0,
  0,
  0,
  0,
  0,
  0,
  0,
  0,
  0,
  0,
  0,
  0,
  0,
  0,
  0,
  0,
  0,
  0,
  0,
  0,
  0,
  0,
  0,
  0,
  0,
  0,
  0,
  0,
  0,
  0,
  0,
  0,
  0,
  0,
  0,
  0,
  0,
  0,
  0,
  0,
  0,
  0,
  0,
  0,
  0,
  0,
  0,
  0,
  0,
  0,
  0,
  0,
  0,
  0,
  0,
  0,
  0,
  0,
  0,
  0,
  0,
  0,
  0,
  0,
  0,
  0,
  0,
  0,
  0,
  0,
  0,
  0,
  0,
  0,
  0,
  0,
  0,
  0,
  0,
  0,
  0,
  0,
  0,
  0,
  0,
  0,
  0,
  0,
  0,
  0,
  0,
  0,
  0,
  0,
  0,
  0,
  0,
  0,
  0,
  0,
  0,
  0,
  0,
  0,
  0,
  0,
  0,
  0,
  0,
  0,
  0,
  0,
  0,
  0,
  0,
  0,
  0,
  0,
  0,
  0,
  0,
  0,
  0,
  0,
  0,
  0,
  0,
  0,
  0,
  0,
  0,
  0,
  0,
  0,
  0,
  0,
  0,
  0,
  0,
  0,
  0,
  0,
  0,
  0,
  0,
  0,
  0,
  0,
  0,
  0,
  0,
  0,
  0,
  0,
  0,
  0,
  0,
  0,
  0,
  0,
  0,
  0,
  0,
  0,
  0,
  0,
  0,
  0,
  0,
  0,
  0,
  0,
  0,
  0,
  0,
  0,
  0,
  0,
  0,
  0,
  0,
  0,
  0,
  0,
  0,
  0;;
Material {
 0.752941;0.752941;0.752941;1.0;;
 50.000000;
 0.752941;0.752941;0.752941;;
 0.117647;0.117647;0.117647;;
 }
}

 MeshNormals {
 169;
-0.130972;-0.986512;0.0981896;,
-0.130526;-0.991445;1.18229e-08;,
0.0;-1.0;1.19249e-08;,
0.0;-0.991445;0.130526;,
0.0;-0.991445;0.130526;,
0.0;-1.0;1.19249e-08;,
0.130526;-0.991445;1.18229e-08;,
0.112179;-0.982357;0.149632;,
-0.130526;-0.991445;1.18229e-08;,
-0.112179;-0.982357;-0.149632;,
0.0;-0.991445;-0.130526;,
0.130972;-0.986512;-0.0981896;,
-0.0764315;-0.864221;0.497273;,
-0.305484;-0.838459;0.451294;,
-0.490204;-0.838459;0.23809;,
-0.544364;-0.837178;0.0529319;,
-0.5;-0.866025;1.03272e-08;,
-0.5;-0.866025;1.03272e-08;,
-0.497273;-0.864221;-0.0764315;,
-0.451294;-0.838459;-0.305484;,
-0.23809;-0.838459;-0.490204;,
-0.0529319;-0.837178;-0.544364;,
0.0;-0.866025;-0.5;,
0.0764315;-0.864221;-0.497273;,
0.130972;-0.986512;-0.0981896;,
0.0764315;-0.864221;-0.497273;,
0.305484;-0.838459;-0.451294;,
0.490204;-0.838459;-0.23809;,
0.544364;-0.837178;-0.0529319;,
0.544364;-0.837178;-0.0529319;,
0.5;-0.866025;1.03272e-08;,
0.497273;-0.864221;0.0764315;,
0.451294;-0.838459;0.305484;,
0.23809;-0.838459;0.490204;,
0.0529319;-0.837178;0.544364;,
0.0;-0.866025;0.5;,
0.0;-0.866025;0.5;,
-0.119357;-0.498228;0.858792;,
-0.442356;-0.501682;0.743396;,
-0.754789;-0.501682;0.422621;,
-0.861024;-0.496954;0.108049;,
-0.866025;-0.5;5.96244e-09;,
-0.866025;-0.5;5.96244e-09;,
-0.858792;-0.498228;-0.119357;,
-0.743396;-0.501682;-0.442356;,
-0.422621;-0.501682;-0.754789;,
-0.108049;-0.496954;-0.861024;,
0.0;-0.5;-0.866025;,
0.119357;-0.498228;-0.858792;,
0.119357;-0.498228;-0.858792;,
0.442356;-0.501682;-0.743396;,
0.754789;-0.501682;-0.422621;,
0.861024;-0.496954;-0.108049;,
0.861024;-0.496954;-0.108049;,
0.866025;-0.5;5.96244e-09;,
0.858792;-0.498228;0.119357;,
0.743396;-0.501682;0.442356;,
0.422621;-0.501682;0.754789;,
0.108049;-0.496954;0.861024;,
0.0;-0.5;0.866025;,
0.0;-0.5;0.866025;,
-0.13021;-0.13021;0.982899;,
-0.496955;-0.130673;0.857881;,
-0.859316;-0.130673;0.494469;,
-0.983274;-0.128787;0.128787;,
-0.991445;-0.130526;1.55651e-09;,
-0.991445;-0.130526;1.55651e-09;,
-0.982899;-0.13021;-0.13021;,
-0.857881;-0.130673;-0.496955;,
-0.494469;-0.130673;-0.859316;,
-0.128787;-0.128787;-0.983274;,
0.0;-0.130526;-0.991445;,
0.13021;-0.13021;-0.982899;,
0.13021;-0.13021;-0.982899;,
0.496955;-0.130673;-0.857881;,
0.859316;-0.130673;-0.494469;,
0.983274;-0.128787;-0.128787;,
0.983274;-0.128787;-0.128787;,
0.991445;-0.130526;1.55651e-09;,
0.982899;-0.13021;0.13021;,
0.857881;-0.130673;0.496955;,
0.494469;-0.130673;0.859316;,
0.128787;-0.128787;0.983274;,
0.0;-0.130526;0.991445;,
0.0;-0.130526;0.991445;,
-0.128787;0.128787;0.983274;,
-0.494469;0.130673;0.859316;,
-0.857881;0.130673;0.496955;,
-0.982899;0.13021;0.13021;,
-0.991445;0.130526;-1.55651e-09;,
-0.991445;0.130526;-1.55651e-09;,
-0.983274;0.128787;-0.128787;,
-0.859316;0.130673;-0.494469;,
-0.496955;0.130673;-0.857881;,
-0.13021;0.13021;-0.982899;,
0.0;0.130526;-0.991445;,
0.128787;0.128787;-0.983274;,
0.128787;0.128787;-0.983274;,
0.494469;0.130673;-0.859316;,
0.857881;0.130673;-0.496955;,
0.982899;0.13021;-0.13021;,
0.982899;0.13021;-0.13021;,
0.991445;0.130526;-1.55651e-09;,
0.983274;0.128787;0.128787;,
0.859316;0.130673;0.494469;,
0.496955;0.130673;0.857881;,
0.13021;0.13021;0.982899;,
0.0;0.130526;0.991445;,
0.0;0.130526;0.991445;,
-0.108049;0.496954;0.861024;,
-0.422621;0.501682;0.754789;,
-0.743396;0.501682;0.442356;,
-0.858792;0.498228;0.119357;,
-0.866025;0.5;-5.96244e-09;,
-0.866025;0.5;-5.96244e-09;,
-0.861024;0.496954;-0.108049;,
-0.754789;0.501682;-0.422621;,
-0.442356;0.501682;-0.743396;,
-0.119357;0.498228;-0.858792;,
0.0;0.5;-0.866025;,
0.108049;0.496954;-0.861024;,
0.108049;0.496954;-0.861024;,
0.422621;0.501682;-0.754789;,
0.743396;0.501682;-0.442356;,
0.858792;0.498228;-0.119357;,
0.858792;0.498228;-0.119357;,
0.866025;0.5;-5.96244e-09;,
0.861024;0.496954;0.108049;,
0.754789;0.501682;0.422621;,
0.442356;0.501682;0.743396;,
0.119357;0.498228;0.858792;,
0.0;0.5;0.866025;,
0.0;0.5;0.866025;,
-0.0529319;0.837178;0.544364;,
-0.23809;0.838459;0.490204;,
-0.451294;0.838459;0.305484;,
-0.497273;0.864221;0.0764315;,
-0.5;0.866025;-1.03272e-08;,
-0.5;0.866025;-1.03272e-08;,
-0.544364;0.837178;-0.0529319;,
-0.490204;0.838459;-0.23809;,
-0.305484;0.838459;-0.451294;,
-0.0764315;0.864221;-0.497273;,
0.0;0.866025;-0.5;,
0.0529319;0.837178;-0.544364;,
0.0529319;0.837178;-0.544364;,
0.23809;0.838459;-0.490204;,
0.451294;0.838459;-0.305484;,
0.497273;0.864221;-0.0764315;,
0.497273;0.864221;-0.0764315;,
0.5;0.866025;-1.03272e-08;,
0.544364;0.837178;0.0529319;,
0.490204;0.838459;0.23809;,
0.305484;0.838459;0.451294;,
0.0764315;0.864221;0.497273;,
0.0;0.866025;0.5;,
0.0;0.866025;0.5;,
-0.112179;0.982357;0.149632;,
-0.130526;0.991445;-1.18229e-08;,
-0.130526;0.991445;-1.18229e-08;,
-0.130972;0.986512;-0.0981896;,
0.0;0.991445;-0.130526;,
0.112179;0.982357;-0.149632;,
0.112179;0.982357;-0.149632;,
0.130526;0.991445;-1.18229e-08;,
0.130972;0.986512;0.0981896;,
0.0;0.991445;0.130526;,
0.0;0.991445;0.130526;,
0.0;1.0;-1.19249e-08;;

 272;
3;0,1,2;,
3;0,2,3;,
3;4,5,6;,
3;4,6,7;,
3;8,9,10;,
3;8,10,5;,
3;5,10,11;,
3;5,11,6;,
3;0,12,13;,
3;0,13,14;,
3;0,14,15;,
3;0,15,16;,
3;0,16,1;,
3;8,17,18;,
3;8,18,9;,
3;9,18,19;,
3;9,19,20;,
3;9,20,21;,
3;9,21,22;,
3;9,22,10;,
3;10,22,23;,
3;10,23,11;,
3;24,25,26;,
3;24,26,27;,
3;24,27,28;,
3;11,29,30;,
3;11,30,6;,
3;6,30,31;,
3;6,31,7;,
3;7,31,32;,
3;7,32,33;,
3;7,33,34;,
3;7,34,35;,
3;7,35,4;,
3;3,36,12;,
3;3,12,0;,
3;12,37,38;,
3;12,38,13;,
3;13,38,39;,
3;13,39,14;,
3;14,39,40;,
3;14,40,15;,
3;15,40,41;,
3;15,41,16;,
3;17,42,43;,
3;17,43,18;,
3;18,43,44;,
3;18,44,19;,
3;19,44,45;,
3;19,45,20;,
3;20,45,46;,
3;20,46,21;,
3;21,46,47;,
3;21,47,22;,
3;22,47,48;,
3;22,48,23;,
3;25,49,50;,
3;25,50,26;,
3;26,50,51;,
3;26,51,27;,
3;27,51,52;,
3;27,52,28;,
3;29,53,54;,
3;29,54,30;,
3;30,54,55;,
3;30,55,31;,
3;31,55,56;,
3;31,56,32;,
3;32,56,57;,
3;32,57,33;,
3;33,57,58;,
3;33,58,34;,
3;34,58,59;,
3;34,59,35;,
3;36,60,37;,
3;36,37,12;,
3;37,61,62;,
3;37,62,38;,
3;38,62,63;,
3;38,63,39;,
3;39,63,64;,
3;39,64,40;,
3;40,64,65;,
3;40,65,41;,
3;42,66,67;,
3;42,67,43;,
3;43,67,68;,
3;43,68,44;,
3;44,68,69;,
3;44,69,45;,
3;45,69,70;,
3;45,70,46;,
3;46,70,71;,
3;46,71,47;,
3;47,71,72;,
3;47,72,48;,
3;49,73,74;,
3;49,74,50;,
3;50,74,75;,
3;50,75,51;,
3;51,75,76;,
3;51,76,52;,
3;53,77,78;,
3;53,78,54;,
3;54,78,79;,
3;54,79,55;,
3;55,79,80;,
3;55,80,56;,
3;56,80,81;,
3;56,81,57;,
3;57,81,82;,
3;57,82,58;,
3;58,82,83;,
3;58,83,59;,
3;60,84,61;,
3;60,61,37;,
3;61,85,86;,
3;61,86,62;,
3;62,86,87;,
3;62,87,63;,
3;63,87,88;,
3;63,88,64;,
3;64,88,89;,
3;64,89,65;,
3;66,90,91;,
3;66,91,67;,
3;67,91,92;,
3;67,92,68;,
3;68,92,93;,
3;68,93,69;,
3;69,93,94;,
3;69,94,70;,
3;70,94,95;,
3;70,95,71;,
3;71,95,96;,
3;71,96,72;,
3;73,97,98;,
3;73,98,74;,
3;74,98,99;,
3;74,99,75;,
3;75,99,100;,
3;75,100,76;,
3;77,101,102;,
3;77,102,78;,
3;78,102,103;,
3;78,103,79;,
3;79,103,104;,
3;79,104,80;,
3;80,104,105;,
3;80,105,81;,
3;81,105,106;,
3;81,106,82;,
3;82,106,107;,
3;82,107,83;,
3;84,108,85;,
3;84,85,61;,
3;85,109,110;,
3;85,110,86;,
3;86,110,111;,
3;86,111,87;,
3;87,111,112;,
3;87,112,88;,
3;88,112,113;,
3;88,113,89;,
3;90,114,115;,
3;90,115,91;,
3;91,115,116;,
3;91,116,92;,
3;92,116,117;,
3;92,117,93;,
3;93,117,118;,
3;93,118,94;,
3;94,118,119;,
3;94,119,95;,
3;95,119,120;,
3;95,120,96;,
3;97,121,122;,
3;97,122,98;,
3;98,122,123;,
3;98,123,99;,
3;99,123,124;,
3;99,124,100;,
3;101,125,126;,
3;101,126,102;,
3;102,126,127;,
3;102,127,103;,
3;103,127,128;,
3;103,128,104;,
3;104,128,129;,
3;104,129,105;,
3;105,129,130;,
3;105,130,106;,
3;106,130,131;,
3;106,131,107;,
3;108,132,109;,
3;108,109,85;,
3;109,133,134;,
3;109,134,110;,
3;110,134,135;,
3;110,135,111;,
3;111,135,136;,
3;111,136,112;,
3;112,136,137;,
3;112,137,113;,
3;114,138,139;,
3;114,139,115;,
3;115,139,140;,
3;115,140,116;,
3;116,140,141;,
3;116,141,117;,
3;117,141,142;,
3;117,142,118;,
3;118,142,143;,
3;118,143,119;,
3;119,143,144;,
3;119,144,120;,
3;121,145,146;,
3;121,146,122;,
3;122,146,147;,
3;122,147,123;,
3;123,147,148;,
3;123,148,124;,
3;125,149,150;,
3;125,150,126;,
3;126,150,151;,
3;126,151,127;,
3;127,151,152;,
3;127,152,128;,
3;128,152,153;,
3;128,153,129;,
3;129,153,154;,
3;129,154,130;,
3;130,154,155;,
3;130,155,131;,
3;132,156,133;,
3;132,133,109;,
3;133,157,134;,
3;134,157,135;,
3;135,157,136;,
3;136,157,158;,
3;136,158,137;,
3;138,159,160;,
3;138,160,139;,
3;139,160,140;,
3;140,160,141;,
3;141,160,142;,
3;142,160,161;,
3;142,161,143;,
3;143,161,162;,
3;143,162,144;,
3;145,163,146;,
3;146,163,147;,
3;147,163,148;,
3;149,162,164;,
3;149,164,150;,
3;150,164,165;,
3;150,165,151;,
3;151,165,152;,
3;152,165,153;,
3;153,165,154;,
3;154,165,166;,
3;154,166,155;,
3;156,167,157;,
3;156,157,133;,
3;164,162,161;,
3;164,161,168;,
3;168,161,160;,
3;168,160,159;,
3;165,164,168;,
3;165,168,166;,
3;166,168,159;,
3;167,158,157;;
 }
MeshTextureCoords {
 169;
0.903329;0.246706;,
1.12075;0.312501;,
1.4999;0.274546;,
1.28248;0.208752;,
0.282477;0.208752;,
0.499896;0.274546;,
0.879044;0.236592;,
0.661624;0.170797;,
0.120749;0.312501;,
0.338168;0.378295;,
0.717315;0.340341;,
1.09646;0.302386;,
0.887803;0.250244;,
0.876343;0.252229;,
0.872115;0.254942;,
0.876251;0.257655;,
1.09367;0.323449;,
0.0936706;0.323449;,
0.31109;0.389244;,
0.322483;0.39123;,
0.33808;0.391958;,
0.353702;0.391232;,
0.732849;0.353278;,
1.112;0.315324;,
0.0964628;0.302386;,
0.111997;0.315324;,
0.123457;0.313338;,
0.127685;0.310626;,
0.123549;0.307913;,
1.12355;0.307913;,
0.906129;0.242118;,
0.68871;0.176324;,
0.677317;0.174337;,
0.66172;0.173609;,
0.646098;0.174335;,
0.266951;0.21229;,
1.26695;0.21229;,
0.876445;0.26931;,
0.856595;0.272748;,
0.849271;0.277446;,
0.856436;0.282145;,
1.07386;0.34794;,
0.0738557;0.34794;,
0.291275;0.413734;,
0.311009;0.417175;,
0.338024;0.418436;,
0.365081;0.417179;,
0.744228;0.379224;,
1.12338;0.34127;,
0.123376;0.34127;,
0.143226;0.337831;,
0.150549;0.333133;,
0.143384;0.328434;,
1.14338;0.328434;,
0.925965;0.26264;,
0.708546;0.196845;,
0.688812;0.193404;,
0.661797;0.192144;,
0.63474;0.193401;,
0.255592;0.231355;,
1.25559;0.231355;,
0.872298;0.298794;,
0.849377;0.302765;,
0.840921;0.30819;,
0.849194;0.313616;,
1.06661;0.37941;,
0.0666132;0.37941;,
0.284033;0.445205;,
0.306819;0.449178;,
0.338013;0.450633;,
0.369256;0.449182;,
0.748404;0.411227;,
1.12755;0.373273;,
0.127551;0.373273;,
0.150472;0.369303;,
0.158928;0.363878;,
0.150655;0.358452;,
1.15066;0.358452;,
0.933236;0.292657;,
0.715816;0.226863;,
0.69303;0.222889;,
0.661836;0.221434;,
0.630593;0.222885;,
0.251445;0.26084;,
1.25145;0.26084;,
0.872392;0.503752;,
0.849472;0.507723;,
0.841015;0.513148;,
0.849288;0.518574;,
1.06671;0.584368;,
0.0667076;0.584368;,
0.284127;0.650163;,
0.306914;0.654136;,
0.338108;0.655592;,
0.369351;0.65414;,
0.748498;0.616185;,
1.12765;0.578231;,
0.127645;0.578231;,
0.150566;0.574261;,
0.159023;0.568836;,
0.150749;0.56341;,
1.15075;0.56341;,
0.93333;0.497615;,
0.715911;0.431821;,
0.693124;0.427847;,
0.66193;0.426392;,
0.630687;0.427843;,
0.25154;0.465798;,
1.25154;0.465798;,
0.876568;0.535755;,
0.856718;0.539194;,
0.849394;0.543892;,
0.856559;0.548591;,
1.07398;0.614385;,
0.0739784;0.614385;,
0.291398;0.68018;,
0.311131;0.683621;,
0.338146;0.684882;,
0.365204;0.683624;,
0.744351;0.64567;,
1.1235;0.607715;,
0.123498;0.607715;,
0.143348;0.604277;,
0.150672;0.599579;,
0.143507;0.59488;,
1.14351;0.59488;,
0.926088;0.529085;,
0.708668;0.463291;,
0.688935;0.45985;,
0.66192;0.458589;,
0.634862;0.459846;,
0.255715;0.497801;,
1.25572;0.497801;,
0.887947;0.561702;,
0.876486;0.563687;,
0.872258;0.566399;,
0.876395;0.569112;,
1.09381;0.634907;,
0.0938141;0.634907;,
0.311233;0.700701;,
0.322627;0.702688;,
0.338224;0.703416;,
0.353845;0.70269;,
0.732993;0.664735;,
1.11214;0.626781;,
0.11214;0.626781;,
0.1236;0.624796;,
0.127829;0.622083;,
0.123692;0.61937;,
1.12369;0.61937;,
0.906273;0.553576;,
0.688853;0.487781;,
0.67746;0.485795;,
0.661863;0.485067;,
0.646241;0.485793;,
0.267094;0.523747;,
1.26709;0.523747;,
0.903481;0.574639;,
1.1209;0.640433;,
0.1209;0.640433;,
0.338319;0.706228;,
0.717467;0.668274;,
1.09661;0.630319;,
0.0966139;0.630319;,
0.879195;0.564525;,
0.661775;0.49873;,
0.282628;0.536685;,
1.28263;0.536685;,
0.500047;0.602479;;
}
}
 }
