xof 0302txt 0032
Header {
 1;
 0;
 1;
}
template Header {
 <3D82AB43-62DA-11cf-AB39-0020AF71E433>
 WORD major;
 WORD minor;
 DWORD flags;
}

template Vector {
 <3D82AB5E-62DA-11cf-AB39-0020AF71E433>
 FLOAT x;
 FLOAT y;
 FLOAT z;
}

template Coords2d {
 <F6F23F44-7686-11cf-8F52-0040333594A3>
 FLOAT u;
 FLOAT v;
}

template Matrix4x4 {
 <F6F23F45-7686-11cf-8F52-0040333594A3>
 array FLOAT matrix[16];
}

template ColorRGBA {
 <35FF44E0-6C7C-11cf-8F52-0040333594A3>
 FLOAT red;
 FLOAT green;
 FLOAT blue;
 FLOAT alpha;
}

template ColorRGB {
 <D3E16E81-7835-11cf-8F52-0040333594A3>
 FLOAT red;
 FLOAT green;
 FLOAT blue;
}

template TextureFilename {
 <A42790E1-7810-11cf-8F52-0040333594A3>
 STRING filename;
}

template Material {
 <3D82AB4D-62DA-11cf-AB39-0020AF71E433>
 ColorRGBA faceColor;
 FLOAT power;
 ColorRGB specularColor;
 ColorRGB emissiveColor;
 [...]
}

template MeshFace {
 <3D82AB5F-62DA-11cf-AB39-0020AF71E433>
 DWORD nFaceVertexIndices;
 array DWORD faceVertexIndices[nFaceVertexIndices];
}

template MeshTextureCoords {
 <F6F23F40-7686-11cf-8F52-0040333594A3>
 DWORD nTextureCoords;
 array Coords2d textureCoords[nTextureCoords];
}

template MeshMaterialList {
 <F6F23F42-7686-11cf-8F52-0040333594A3>
 DWORD nMaterials;
 DWORD nFaceIndexes;
 array DWORD faceIndexes[nFaceIndexes];
 [Material]
}

template MeshNormals {
 <F6F23F43-7686-11cf-8F52-0040333594A3>
 DWORD nNormals;
 array Vector normals[nNormals];
 DWORD nFaceNormals;
 array MeshFace faceNormals[nFaceNormals];
}

template Mesh {
 <3D82AB44-62DA-11cf-AB39-0020AF71E433>
 DWORD nVertices;
 array Vector vertices[nVertices];
 DWORD nFaces;
 array MeshFace faces[nFaces];
 [...]
}

template FrameTransformMatrix {
 <F6F23F41-7686-11cf-8F52-0040333594A3>
 Matrix4x4 frameMatrix;
}

template Frame {
 <3D82AB46-62DA-11cf-AB39-0020AF71E433>
 [...]
}
template FloatKeys {
 <10DD46A9-775B-11cf-8F52-0040333594A3>
 DWORD nValues;
 array FLOAT values[nValues];
}

template TimedFloatKeys {
 <F406B180-7B3B-11cf-8F52-0040333594A3>
 DWORD time;
 FloatKeys tfkeys;
}

template AnimationKey {
 <10DD46A8-775B-11cf-8F52-0040333594A3>
 DWORD keyType;
 DWORD nKeys;
 array TimedFloatKeys keys[nKeys];
}

template AnimationOptions {
 <E2BF56C0-840F-11cf-8F52-0040333594A3>
 DWORD openclosed;
 DWORD positionquality;
}

template Animation {
 <3D82AB4F-62DA-11cf-AB39-0020AF71E433>
 [...]
}

template AnimationSet {
 <3D82AB50-62DA-11cf-AB39-0020AF71E433>
 [Animation]
}
Frame LINE01 {
   FrameTransformMatrix {
0.759494,0.0,0.0,0.0,
0.0,9.05687e-09,-0.759494,0.0,
0.0,0.759494,9.05687e-09,0.0,
-0.00023656,1.76165,-0.000190932,1.0;;
 }
Mesh LINE01 {
 461;
-0.0981939;0.138057;-55.8153;,
-16.7111;16.5717;-55.6449;,
-0.0981931;23.5348;-55.6449;,
-0.167087;0.0282238;-55.8153;,
-19.7105;19.5715;-52.0504;,
-0.0981931;27.7768;-52.0504;,
-0.0981931;27.7768;-52.0504;,
-18.6846;18.5455;-50.06;,
-0.0981931;26.3255;-50.06;,
-19.7105;19.5715;-52.0504;,
-0.0981931;26.3255;-50.06;,
-19.5305;19.3921;-44.909;,
-0.0981931;27.522;-44.909;,
-18.6846;18.5455;-50.06;,
-0.0981931;27.522;-44.909;,
-14.3796;14.2411;-41.326;,
-0.0981939;20.2377;-41.326;,
-19.5305;19.3921;-44.909;,
-0.0981939;20.2377;-41.326;,
-9.93828;9.7989;-30.152;,
-0.0981947;13.9566;-30.152;,
-14.3796;14.2411;-41.326;,
-9.56087;9.38451;-22.7743;,
-0.124707;13.3964;-22.7743;,
-6.85001;6.68198;-19.5651;,
-0.118816;9.56849;-19.5651;,
-0.118816;9.56849;-19.5651;,
-5.79948;5.61423;-3.75343;,
-0.130986;8.07062;-3.75343;,
-0.118816;9.56849;-19.5651;,
-6.85001;6.68198;-19.5651;,
-0.130986;8.07062;-3.75343;,
-14.1332;13.9445;-0.0391154;,
-0.133203;19.8546;-0.0391138;,
-5.79948;5.61423;-3.75343;,
-0.182621;19.6874;1.26437;,
-14.05;13.7915;1.26437;,
-8.7092;8.5385;5.16362;,
-23.5348;-0.0981727;-55.6449;,
-0.138044;-0.0981744;-55.8153;,
-27.7762;-0.0981727;-52.0504;,
-26.3259;-0.0981736;-50.06;,
-27.7762;-0.0981727;-52.0504;,
-27.5225;-0.0981736;-44.909;,
-26.3259;-0.0981736;-50.06;,
-20.2376;-0.0981736;-41.326;,
-27.5225;-0.0981736;-44.909;,
-13.9567;-0.0981778;-30.152;,
-20.2376;-0.0981736;-41.326;,
-13.3964;-0.124683;-22.7743;,
-9.56847;-0.118791;-19.5651;,
-8.0706;-0.130955;-3.75343;,
-5.79948;5.61423;-3.75343;,
-5.79948;5.61423;-3.75343;,
-19.8542;-0.133169;-0.039117;,
-14.1332;13.9445;-0.0391154;,
-8.0706;-0.130955;-3.75343;,
-14.05;13.7915;1.26437;,
-19.6871;-0.182582;1.26437;,
-12.196;-0.120668;5.16362;,
-16.5722;-16.7111;-55.6449;,
-0.0282034;-0.167075;-55.8153;,
-23.5348;-0.0981727;-55.6449;,
-19.5716;-19.7104;-52.0504;,
-27.7762;-0.0981727;-52.0504;,
-16.5722;-16.7111;-55.6449;,
-27.7762;-0.0981727;-52.0504;,
-18.5457;-18.6846;-50.06;,
-26.3259;-0.0981736;-50.06;,
-19.5716;-19.7104;-52.0504;,
-26.3259;-0.0981736;-50.06;,
-19.3916;-19.5305;-44.909;,
-27.5225;-0.0981736;-44.909;,
-18.5457;-18.6846;-50.06;,
-27.5225;-0.0981736;-44.909;,
-14.2408;-14.3796;-41.326;,
-19.3916;-19.5305;-44.909;,
-9.79939;-9.93826;-30.152;,
-9.38448;-9.56085;-22.7743;,
-6.68196;-6.84999;-19.5651;,
-5.61422;-5.79945;-3.75343;,
-13.9448;-14.1332;-0.039116;,
-5.61422;-5.79945;-3.75343;,
-13.7917;-14.05;1.26438;,
-8.5385;-8.70918;5.16362;,
-0.0282034;-0.167075;-55.8153;,
0.098193;-23.5348;-55.6449;,
0.0981947;-0.138123;-55.8153;,
0.098193;-27.7765;-52.0504;,
0.098193;-26.3258;-50.06;,
0.098193;-27.7765;-52.0504;,
0.098193;-27.5222;-44.909;,
0.098193;-26.3258;-50.06;,
0.098193;-20.2377;-41.326;,
0.098193;-27.5222;-44.909;,
0.0981922;-13.9566;-30.152;,
0.124705;-13.3964;-22.7743;,
0.118813;-9.56857;-19.5651;,
0.130977;-8.07071;-3.75343;,
0.133196;-19.8542;-0.0391145;,
0.130977;-8.07071;-3.75343;,
0.182615;-19.6871;1.26438;,
0.120685;-12.196;5.16362;,
16.7111;-16.5722;-55.6449;,
0.167088;-0.0281831;-55.8153;,
19.7105;-19.5716;-52.0504;,
18.6846;-18.5457;-50.06;,
19.7105;-19.5716;-52.0504;,
19.5305;-19.3916;-44.909;,
18.6846;-18.5457;-50.06;,
14.3797;-14.2407;-41.326;,
19.5305;-19.3916;-44.909;,
9.93827;-9.79938;-30.152;,
9.56086;-9.38446;-22.7743;,
6.85;-6.68193;-19.5651;,
5.79947;-5.61419;-3.75343;,
14.1332;-13.9448;-0.0391135;,
5.79947;-5.61419;-3.75343;,
14.05;-13.7917;1.26438;,
8.70919;-8.53848;5.16362;,
23.5348;0.0982058;-55.6449;,
0.138143;0.0982067;-55.8153;,
27.7765;0.098205;-52.0504;,
26.3258;0.098205;-50.06;,
27.7765;0.098205;-52.0504;,
27.5222;0.098205;-44.909;,
26.3258;0.098205;-50.06;,
20.2377;0.098205;-41.326;,
27.5222;0.098205;-44.909;,
13.9566;0.0982016;-30.152;,
13.3964;0.12472;-22.7743;,
9.56847;0.118829;-19.5651;,
8.0706;0.130997;-3.75343;,
19.8542;0.13322;-0.039112;,
8.0706;0.130997;-3.75343;,
19.6871;0.18264;1.26437;,
12.196;0.120699;5.16362;,
16.5722;16.7115;-55.6449;,
0.138143;0.0982067;-55.8153;,
0.0282034;0.167108;-55.8153;,
16.5722;16.7115;-55.6449;,
19.5716;19.7103;-52.0504;,
18.5457;18.6842;-50.06;,
19.5716;19.7103;-52.0504;,
19.3916;19.5308;-44.909;,
18.5457;18.6842;-50.06;,
14.2408;14.3799;-41.326;,
19.3916;19.5308;-44.909;,
9.79939;9.93869;-30.152;,
9.38448;9.56089;-22.7743;,
6.68195;6.85003;-19.5651;,
5.61421;5.79937;-3.75343;,
13.9448;14.1327;-0.0391135;,
5.61421;5.79937;-3.75343;,
13.7917;14.0497;1.26437;,
8.53849;8.70916;5.16362;,
19.5716;19.7103;-52.0504;,
19.5716;19.7103;-52.0504;,
18.5457;18.6842;-50.06;,
18.5457;18.6842;-50.06;,
19.3916;19.5308;-44.909;,
19.3916;19.5308;-44.909;,
-0.130986;8.07062;-3.75343;,
-0.130986;8.07062;-3.75343;,
-0.133203;19.8546;-0.0391138;,
-0.130986;8.07062;-3.75343;,
-0.133203;19.8546;-0.0391138;,
-0.182621;19.6874;1.26437;,
-0.120691;12.1959;5.16362;,
-0.0664506;11.4565;8.51704;,
-0.120691;12.1959;5.16362;,
-8.7092;8.5385;5.16362;,
-8.14811;8.05428;8.51704;,
-18.1446;17.9175;35.6903;,
-3.498;3.45918;37.2277;,
-3.06205;3.7528;37.2195;,
-0.160792;25.4998;35.6903;,
-18.1446;17.9175;35.6903;,
-3.06205;3.7528;37.2195;,
-8.14811;8.05428;8.51704;,
-8.7092;8.5385;5.16362;,
-12.196;-0.120668;5.16362;,
-11.4567;-0.066429;8.51704;,
-22.4452;7.332;35.6903;,
-25.4996;-0.160379;35.6903;,
-4.17772;-0.0261514;37.283;,
-8.5385;-8.70918;5.16362;,
-8.05413;-8.14809;8.51704;,
-17.9175;-18.1442;35.6903;,
-3.41299;-3.46097;37.2321;,
-4.20314;-2.92485;37.19;,
0.120685;-12.196;5.16362;,
0.0664414;-11.4567;8.51704;,
8.70919;-8.53848;5.16362;,
8.14809;-8.05412;8.51704;,
18.1442;-17.9171;35.6903;,
3.47036;-3.42197;37.2316;,
3.06148;-3.69698;37.2239;,
0.160375;-25.4993;35.6903;,
18.1442;-17.9171;35.6903;,
3.06148;-3.69698;37.2239;,
12.196;0.120699;5.16362;,
11.4567;0.0664583;8.51704;,
8.53849;8.70916;5.16362;,
8.05411;8.1482;8.51704;,
21.0551;10.6868;35.6903;,
17.917;18.1445;35.6903;,
3.45185;3.49089;37.229;,
4.20425;2.98153;37.1888;,
-0.120691;12.1959;5.16362;,
-0.0664506;11.4565;8.51704;,
-0.00914883;3.74892;37.3151;,
-4.20372;2.98154;37.1894;,
-17.9175;-18.1442;35.6903;,
0.160375;-25.4993;35.6903;,
-3.06077;-3.69702;37.2251;,
-3.06077;-3.69702;37.2251;,
3.06148;-3.69698;37.2239;,
0.0142909;-3.69312;37.3191;,
0.0142909;-3.69312;37.3191;,
4.17792;0.0264665;37.2837;,
25.4993;0.160776;35.6903;,
3.062;3.75284;37.2212;,
-0.160792;25.4998;35.6903;,
-0.160792;25.4998;35.6903;,
-0.00914883;3.74892;37.3151;,
-12.2237;12.0768;24.2526;,
-18.1446;17.9175;35.6903;,
-0.160792;25.4998;35.6903;,
-17.1829;-0.103923;24.2526;,
-25.4996;-0.160379;35.6903;,
-22.4452;7.332;35.6903;,
12.2236;-12.0767;24.2526;,
18.1442;-17.9171;35.6903;,
0.160375;-25.4993;35.6903;,
12.0766;12.2237;24.2526;,
17.917;18.1445;35.6903;,
21.0551;10.6868;35.6903;,
-0.103947;17.1828;24.2526;,
-18.1446;17.9175;35.6903;,
-12.2237;12.0768;24.2526;,
-12.0766;-12.2236;24.2526;,
-17.9175;-18.1442;35.6903;,
0.103936;-17.1829;24.2526;,
0.160375;-25.4993;35.6903;,
-17.9175;-18.1442;35.6903;,
0.103936;-17.1829;24.2526;,
0.103936;-17.1829;24.2526;,
17.183;0.103952;24.2526;,
25.4993;0.160776;35.6903;,
18.1442;-17.9171;35.6903;,
12.2236;-12.0767;24.2526;,
25.4993;0.160776;35.6903;,
17.183;0.103952;24.2526;,
-0.103947;17.1828;24.2526;,
-0.160792;25.4998;35.6903;,
-0.103947;17.1828;24.2526;,
0.0664414;-11.4567;8.51704;,
8.14809;-8.05412;8.51704;,
12.2236;-12.0767;24.2526;,
-0.0664506;11.4565;8.51704;,
-0.103947;17.1828;24.2526;,
0.103936;-17.1829;24.2526;,
12.2236;-12.0767;24.2526;,
-0.103947;17.1828;24.2526;,
-0.120691;12.1959;5.16362;,
-0.182621;19.6874;1.26437;,
-0.133203;19.8546;-0.0391138;,
-14.1332;13.9445;-0.0391154;,
-14.05;13.7915;1.26437;,
-8.7092;8.5385;5.16362;,
-14.05;13.7915;1.26437;,
-14.1332;13.9445;-0.0391154;,
-19.8542;-0.133169;-0.039117;,
-19.6871;-0.182582;1.26437;,
-13.9448;-14.1332;-0.039116;,
-13.7917;-14.05;1.26438;,
0.133196;-19.8542;-0.0391145;,
0.182615;-19.6871;1.26438;,
14.1332;-13.9448;-0.0391135;,
14.05;-13.7917;1.26438;,
19.8542;0.13322;-0.039112;,
19.6871;0.18264;1.26437;,
13.9448;14.1327;-0.0391135;,
13.7917;14.0497;1.26437;,
-0.133203;19.8546;-0.0391138;,
-0.133203;19.8546;-0.0391138;,
-0.182621;19.6874;1.26437;,
4.20237;-2.92411;37.1919;,
25.4993;0.160776;35.6903;,
4.20237;-2.92411;37.1919;,
-1.87787;3.74892;41.5793;,
1.87826;3.74892;41.5793;,
3.59069;3.74892;34.6412;,
-1.87787;3.74892;46.8554;,
1.87826;3.74892;46.8554;,
-1.87787;3.74892;46.8554;,
-2.90855;4.19544;53.7935;,
0.000197317;4.19544;56.2003;,
2.90895;4.19544;53.7935;,
1.87826;3.74892;46.8554;,
-1.87787;3.74892;46.8554;,
0.000197317;4.19544;56.2003;,
1.87826;-3.69312;46.8554;,
-1.87787;-3.69312;46.8554;,
-1.87787;-3.69312;41.5793;,
1.87826;-3.69312;41.5793;,
0.000197278;-4.13964;56.2003;,
-2.90855;-4.13964;53.7935;,
2.90895;-4.13964;53.7935;,
0.000197278;-4.13964;56.2003;,
-1.87787;-3.69312;46.8554;,
1.87826;-3.69312;46.8554;,
5.18774;2.9799;33.4921;,
-5.18734;2.9799;33.4921;,
-3.59029;3.74892;34.6412;,
3.59069;3.74892;34.6412;,
5.18774;-2.92411;33.4921;,
-5.18734;-2.92411;33.4921;,
-5.18734;2.9799;33.4921;,
5.18774;2.9799;33.4921;,
3.59069;-3.69312;34.6412;,
-3.59029;-3.69312;34.6412;,
-5.18734;-2.92411;33.4921;,
5.18774;-2.92411;33.4921;,
3.28345;2.97991;40.6423;,
9.18459;4.00704;47.5901;,
9.3667;3.64609;40.8447;,
8.77923;4.19758;41.6431;,
4.20276;3.33415;54.9427;,
3.28345;2.97991;47.7925;,
3.28345;2.97991;40.6423;,
3.28345;-2.92411;40.6423;,
5.18774;-2.92411;33.4921;,
9.3667;-3.58915;47.5901;,
9.18458;-3.75695;40.8447;,
9.3667;3.64609;40.8447;,
9.18459;4.00704;47.5901;,
4.20276;-3.27835;54.9427;,
3.28345;-2.92411;47.7925;,
3.28345;2.97991;47.7925;,
4.20276;3.33415;54.9427;,
5.18774;-2.92411;33.4921;,
3.28345;-2.92411;40.6423;,
1.87826;-3.69312;41.5793;,
9.18458;-3.75695;40.8447;,
9.3667;-3.58915;47.5901;,
8.77923;-4.14644;46.7916;,
3.28345;-2.92411;47.7925;,
3.28345;-2.92411;47.7925;,
4.20276;-3.27835;54.9427;,
2.90895;-4.13964;53.7935;,
0.000197388;3.33415;57.3495;,
0.000197317;4.19544;56.2003;,
-4.20237;3.33415;54.9427;,
0.000197388;3.33415;57.3495;,
0.000197207;-3.27835;57.3495;,
4.20276;-3.27835;54.9427;,
4.20276;3.33415;54.9427;,
4.20276;3.33415;54.9427;,
0.000197388;3.33415;57.3495;,
-4.20237;-3.27835;54.9427;,
0.000197207;-3.27835;57.3495;,
0.000197388;3.33415;57.3495;,
0.000197388;3.33415;57.3495;,
-4.20237;3.33415;54.9427;,
4.20276;-3.27835;54.9427;,
4.20276;-3.27835;54.9427;,
0.000197207;-3.27835;57.3495;,
0.000197207;-3.27835;57.3495;,
-4.20237;-3.27835;54.9427;,
-3.28305;2.97991;47.7925;,
-4.20237;3.33415;54.9427;,
-2.90855;4.19544;53.7935;,
-2.90855;4.19544;53.7935;,
-1.87787;3.74892;46.8554;,
-3.28305;2.97991;47.7925;,
-9.18419;3.84154;40.8447;,
-9.36631;3.64609;47.5901;,
-8.77884;4.19758;46.7916;,
-3.28306;-2.92411;47.7925;,
-4.20237;-3.27835;54.9427;,
-4.20237;3.33415;54.9427;,
-3.28305;2.97991;47.7925;,
-9.36631;-3.58915;40.8447;,
-9.18419;-3.59145;47.5901;,
-9.36631;3.64609;47.5901;,
-9.18419;3.84154;40.8447;,
-3.28306;-2.92411;47.7925;,
-8.77883;-4.14644;41.6432;,
-8.77883;-4.14644;46.7916;,
-9.18419;3.84154;40.8447;,
-8.77884;4.19758;46.7916;,
-1.87787;3.74892;46.8554;,
-1.87787;3.74892;46.8554;,
-1.87787;3.74892;41.5793;,
9.18459;4.00704;47.5901;,
8.77923;4.19758;41.6431;,
-8.77883;-4.14644;46.7916;,
-8.77883;-4.14644;41.6432;,
-1.87787;-3.69312;41.5793;,
-1.87787;-3.69312;46.8554;,
9.18458;-3.75695;40.8447;,
8.77923;-4.14644;46.7916;,
1.87826;-3.69312;41.5793;,
9.18458;-3.75695;40.8447;,
9.3667;3.64609;40.8447;,
3.28345;2.97991;40.6423;,
1.87826;3.74892;46.8554;,
3.28345;2.97991;47.7925;,
9.3667;3.64609;40.8447;,
9.18458;-3.75695;40.8447;,
3.28345;-2.92411;40.6423;,
3.28345;2.97991;40.6423;,
9.3667;-3.58915;47.5901;,
9.18459;4.00704;47.5901;,
3.28345;2.97991;47.7925;,
3.28345;-2.92411;47.7925;,
3.28345;-2.92411;40.6423;,
9.18458;-3.75695;40.8447;,
8.77923;-4.14644;46.7916;,
9.3667;-3.58915;47.5901;,
3.28345;-2.92411;47.7925;,
3.28345;-2.92411;47.7925;,
8.77923;-4.14644;46.7916;,
-8.77884;4.19758;46.7916;,
-9.36631;3.64609;47.5901;,
-3.28305;2.97991;47.7925;,
-3.28305;2.97991;47.7925;,
-1.87787;3.74892;46.8554;,
-1.87787;3.74892;41.5793;,
-3.28305;2.97991;40.6423;,
-9.36631;3.64609;47.5901;,
-9.18419;-3.59145;47.5901;,
-3.28306;-2.92411;47.7925;,
-3.28305;2.97991;47.7925;,
-9.36631;-3.58915;40.8447;,
-9.18419;3.84154;40.8447;,
-3.28305;2.97991;40.6423;,
-3.28306;-2.92411;40.6423;,
-9.18419;-3.59145;47.5901;,
-3.28306;-2.92411;47.7925;,
-9.36631;-3.58915;40.8447;,
-3.28306;-2.92411;40.6423;,
-1.87787;3.74892;41.5793;,
-5.18734;2.9799;33.4921;,
-1.87787;3.74892;41.5793;,
-3.28305;2.97991;40.6423;,
-5.18734;-2.92411;33.4921;,
-3.28306;-2.92411;40.6423;,
-3.28305;2.97991;40.6423;,
-5.18734;2.9799;33.4921;,
-3.28306;-2.92411;40.6423;,
-5.18734;-2.92411;33.4921;,
-3.59029;-3.69312;34.6412;,
1.87826;-3.69312;41.5793;,
5.18774;2.9799;33.4921;,
5.18774;-2.92411;33.4921;,
5.18774;2.9799;33.4921;,
3.59069;3.74892;34.6412;,
-1.87787;3.74892;41.5793;;

 362;
3;0,1,2;,
3;0,3,1;,
3;2,4,5;,
3;2,1,4;,
3;6,7,8;,
3;6,9,7;,
3;10,11,12;,
3;10,13,11;,
3;14,15,16;,
3;14,17,15;,
3;18,19,20;,
3;18,21,19;,
3;20,22,23;,
3;20,19,22;,
3;23,24,25;,
3;23,22,24;,
3;26,27,28;,
3;29,30,27;,
3;31,32,33;,
3;31,34,32;,
3;35,36,37;,
3;3,38,1;,
3;3,39,38;,
3;1,40,4;,
3;1,38,40;,
3;9,41,7;,
3;9,42,41;,
3;13,43,11;,
3;13,44,43;,
3;17,45,15;,
3;17,46,45;,
3;21,47,19;,
3;21,48,47;,
3;19,49,22;,
3;19,47,49;,
3;22,50,24;,
3;22,49,50;,
3;24,51,52;,
3;24,50,51;,
3;53,54,55;,
3;53,56,54;,
3;57,58,59;,
3;39,60,38;,
3;39,61,60;,
3;62,63,64;,
3;62,65,63;,
3;66,67,68;,
3;66,69,67;,
3;70,71,72;,
3;70,73,71;,
3;74,75,48;,
3;74,76,75;,
3;48,77,47;,
3;48,75,77;,
3;47,78,49;,
3;47,77,78;,
3;49,79,50;,
3;49,78,79;,
3;50,80,51;,
3;50,79,80;,
3;56,81,54;,
3;56,82,81;,
3;58,83,84;,
3;85,86,65;,
3;85,87,86;,
3;65,88,63;,
3;65,86,88;,
3;69,89,67;,
3;69,90,89;,
3;73,91,71;,
3;73,92,91;,
3;76,93,75;,
3;76,94,93;,
3;75,95,77;,
3;75,93,95;,
3;77,96,78;,
3;77,95,96;,
3;78,97,79;,
3;78,96,97;,
3;79,98,80;,
3;79,97,98;,
3;82,99,81;,
3;82,100,99;,
3;83,101,102;,
3;87,103,86;,
3;87,104,103;,
3;86,105,88;,
3;86,103,105;,
3;90,106,89;,
3;90,107,106;,
3;92,108,91;,
3;92,109,108;,
3;94,110,93;,
3;94,111,110;,
3;93,112,95;,
3;93,110,112;,
3;95,113,96;,
3;95,112,113;,
3;96,114,97;,
3;96,113,114;,
3;97,115,98;,
3;97,114,115;,
3;100,116,99;,
3;100,117,116;,
3;101,118,119;,
3;104,120,103;,
3;104,121,120;,
3;103,122,105;,
3;103,120,122;,
3;107,123,106;,
3;107,124,123;,
3;109,125,108;,
3;109,126,125;,
3;111,127,110;,
3;111,128,127;,
3;110,129,112;,
3;110,127,129;,
3;112,130,113;,
3;112,129,130;,
3;113,131,114;,
3;113,130,131;,
3;114,132,115;,
3;114,131,132;,
3;117,133,116;,
3;117,134,133;,
3;118,135,136;,
3;121,137,120;,
3;138,139,140;,
3;120,141,122;,
3;120,137,141;,
3;124,142,123;,
3;124,143,142;,
3;126,144,125;,
3;126,145,144;,
3;128,146,127;,
3;128,147,146;,
3;127,148,129;,
3;127,146,148;,
3;129,149,130;,
3;129,148,149;,
3;130,150,131;,
3;130,149,150;,
3;131,151,132;,
3;131,150,151;,
3;134,152,133;,
3;134,153,152;,
3;135,154,155;,
3;139,2,140;,
3;139,0,2;,
3;140,5,156;,
3;140,2,5;,
3;157,8,158;,
3;157,6,8;,
3;159,12,160;,
3;159,10,12;,
3;147,18,146;,
3;161,14,16;,
3;146,20,148;,
3;146,18,20;,
3;148,23,149;,
3;148,20,23;,
3;149,25,150;,
3;149,23,25;,
3;150,162,151;,
3;150,25,163;,
3;153,164,152;,
3;153,165,166;,
3;154,167,168;,
3;169,170,171;,
3;171,172,169;,
3;173,174,175;,
3;176,177,178;,
3;179,180,181;,
3;181,182,179;,
3;183,184,185;,
3;182,181,186;,
3;186,187,182;,
3;188,189,190;,
3;187,186,191;,
3;191,192,187;,
3;192,191,193;,
3;193,194,192;,
3;195,196,197;,
3;198,199,200;,
3;194,193,201;,
3;201,202,194;,
3;202,201,203;,
3;203,204,202;,
3;205,206,207;,
3;208,205,207;,
3;204,203,209;,
3;209,210,204;,
3;178,211,176;,
3;183,185,212;,
3;183,212,174;,
3;173,183,174;,
3;185,184,188;,
3;188,190,185;,
3;213,214,215;,
3;188,216,189;,
3;198,217,218;,
3;219,215,214;,
3;220,221,205;,
3;205,208,220;,
3;222,207,206;,
3;222,206,223;,
3;222,224,225;,
3;226,227,228;,
3;229,230,231;,
3;232,233,234;,
3;235,236,237;,
3;228,238,226;,
3;229,231,239;,
3;239,240,229;,
3;241,242,230;,
3;230,229,241;,
3;243,244,245;,
3;242,241,246;,
3;234,247,232;,
3;248,249,250;,
3;250,251,248;,
3;235,237,252;,
3;252,253,235;,
3;254,255,236;,
3;236,235,256;,
3;169,172,226;,
3;179,182,229;,
3;182,187,241;,
3;187,192,246;,
3;257,258,259;,
3;194,202,253;,
3;202,204,235;,
3;204,260,261;,
3;169,226,238;,
3;179,229,240;,
3;182,241,229;,
3;187,246,241;,
3;257,259,262;,
3;194,253,263;,
3;202,235,253;,
3;204,264,235;,
3;35,37,265;,
3;266,267,268;,
3;268,269,266;,
3;57,59,270;,
3;271,272,273;,
3;273,274,271;,
3;58,84,59;,
3;274,273,275;,
3;275,276,274;,
3;83,102,84;,
3;276,275,277;,
3;277,278,276;,
3;101,119,102;,
3;278,277,279;,
3;279,280,278;,
3;118,136,119;,
3;280,279,281;,
3;281,282,280;,
3;135,155,136;,
3;282,281,283;,
3;283,284,282;,
3;154,168,155;,
3;284,283,285;,
3;286,287,284;,
3;288,196,195;,
3;288,195,289;,
3;290,221,220;,
3;291,292,293;,
3;294,292,291;,
3;292,294,295;,
3;296,297,298;,
3;299,300,301;,
3;301,302,299;,
3;303,304,305;,
3;305,306,303;,
3;307,308,304;,
3;309,310,311;,
3;311,312,309;,
3;313,314,315;,
3;315,316,313;,
3;317,318,319;,
3;319,320,317;,
3;321,322,323;,
3;323,324,321;,
3;293,292,325;,
3;326,327,328;,
3;329,330,300;,
3;300,299,329;,
3;331,332,333;,
3;334,335,336;,
3;336,337,334;,
3;338,339,340;,
3;340,341,338;,
3;342,343,344;,
3;345,346,347;,
3;309,312,348;,
3;349,350,351;,
3;352,329,299;,
3;299,353,352;,
3;354,355,298;,
3;298,297,354;,
3;356,357,358;,
3;359,360,356;,
3;361,362,363;,
3;364,365,361;,
3;310,309,366;,
3;367,368,310;,
3;308,307,369;,
3;369,370,308;,
3;371,372,373;,
3;374,375,376;,
3;377,378,379;,
3;380,381,382;,
3;382,383,380;,
3;384,385,386;,
3;386,387,384;,
3;304,308,370;,
3;370,388,304;,
3;389,390,385;,
3;385,384,389;,
3;391,392,393;,
3;394,395,391;,
3;396,397,292;,
3;292,295,326;,
3;398,399,400;,
3;400,401,398;,
3;402,403,312;,
3;312,404,405;,
3;397,406,407;,
3;407,292,397;,
3;408,409,396;,
3;410,411,412;,
3;412,413,410;,
3;414,415,416;,
3;416,417,414;,
3;344,418,419;,
3;420,421,422;,
3;423,312,424;,
3;425,426,427;,
3;428,429,392;,
3;430,431,391;,
3;432,433,434;,
3;434,435,432;,
3;436,437,438;,
3;438,439,436;,
3;440,398,401;,
3;401,441,440;,
3;399,442,443;,
3;443,400,399;,
3;444,315,445;,
3;446,445,447;,
3;448,449,450;,
3;448,450,451;,
3;452,453,454;,
3;454,400,452;,
3;455,400,454;,
3;321,344,322;,
3;344,321,342;,
3;456,331,457;,
3;325,458,293;,
3;459,315,460;;
MeshMaterialList {
 1;
 362;
  0,
  0,
  0,
  0,
  0,
  0,
  0,
  0,
  0,
  0,
  0,
  0,
  0,
  0,
  0,
  0,
  0,
  0,
  0,
  0,
  0,
  0,
  0,
  0,
  0,
  0,
  0,
  0,
  0,
  0,
  0,
  0,
  0,
  0,
  0,
  0,
  0,
  0,
  0,
  0,
  0,
  0,
  0,
  0,
  0,
  0,
  0,
  0,
  0,
  0,
  0,
  0,
  0,
  0,
  0,
  0,
  0,
  0,
  0,
  0,
  0,
  0,
  0,
  0,
  0,
  0,
  0,
  0,
  0,
  0,
  0,
  0,
  0,
  0,
  0,
  0,
  0,
  0,
  0,
  0,
  0,
  0,
  0,
  0,
  0,
  0,
  0,
  0,
  0,
  0,
  0,
  0,
  0,
  0,
  0,
  0,
  0,
  0,
  0,
  0,
  0,
  0,
  0,
  0,
  0,
  0,
  0,
  0,
  0,
  0,
  0,
  0,
  0,
  0,
  0,
  0,
  0,
  0,
  0,
  0,
  0,
  0,
  0,
  0,
  0,
  0,
  0,
  0,
  0,
  0,
  0,
  0,
  0,
  0,
  0,
  0,
  0,
  0,
  0,
  0,
  0,
  0,
  0,
  0,
  0,
  0,
  0,
  0,
  0,
  0,
  0,
  0,
  0,
  0,
  0,
  0,
  0,
  0,
  0,
  0,
  0,
  0,
  0,
  0,
  0,
  0,
  0,
  0,
  0,
  0,
  0,
  0,
  0,
  0,
  0,
  0,
  0,
  0,
  0,
  0,
  0,
  0,
  0,
  0,
  0,
  0,
  0,
  0,
  0,
  0,
  0,
  0,
  0,
  0,
  0,
  0,
  0,
  0,
  0,
  0,
  0,
  0,
  0,
  0,
  0,
  0,
  0,
  0,
  0,
  0,
  0,
  0,
  0,
  0,
  0,
  0,
  0,
  0,
  0,
  0,
  0,
  0,
  0,
  0,
  0,
  0,
  0,
  0,
  0,
  0,
  0,
  0,
  0,
  0,
  0,
  0,
  0,
  0,
  0,
  0,
  0,
  0,
  0,
  0,
  0,
  0,
  0,
  0,
  0,
  0,
  0,
  0,
  0,
  0,
  0,
  0,
  0,
  0,
  0,
  0,
  0,
  0,
  0,
  0,
  0,
  0,
  0,
  0,
  0,
  0,
  0,
  0,
  0,
  0,
  0,
  0,
  0,
  0,
  0,
  0,
  0,
  0,
  0,
  0,
  0,
  0,
  0,
  0,
  0,
  0,
  0,
  0,
  0,
  0,
  0,
  0,
  0,
  0,
  0,
  0,
  0,
  0,
  0,
  0,
  0,
  0,
  0,
  0,
  0,
  0,
  0,
  0,
  0,
  0,
  0,
  0,
  0,
  0,
  0,
  0,
  0,
  0,
  0,
  0,
  0,
  0,
  0,
  0,
  0,
  0,
  0,
  0,
  0,
  0,
  0,
  0,
  0,
  0,
  0,
  0,
  0,
  0,
  0,
  0,
  0,
  0,
  0,
  0,
  0,
  0,
  0,
  0,
  0,
  0,
  0,
  0,
  0,
  0,
  0,
  0,
  0,
  0;;
Material {
 0.752941;0.752941;0.752941;1.0;;
 50.000000;
 0.752941;0.752941;0.752941;;
 0.117647;0.117647;0.117647;;
 }
}

 MeshNormals {
 461;
-0.00368539;0.999974;0.00617926;,
-0.275366;0.938772;0.207075;,
-0.0482863;0.938777;0.341126;,
-0.00697388;0.999974;0.00176286;,
-0.39459;0.759766;0.516773;,
0.0864147;0.759743;0.644456;,
-0.113823;-0.585689;0.802504;,
-0.491968;-0.585269;0.644536;,
0.107898;-0.585311;0.803598;,
-0.648024;-0.585558;0.487018;,
-0.136832;0.224384;0.964847;,
-0.591195;0.224172;0.774749;,
0.129781;0.224169;0.96587;,
-0.779008;0.224385;0.585489;,
-0.0626795;-0.895733;0.440152;,
-0.505185;-0.730748;0.459124;,
-0.0325802;-0.730744;0.681874;,
-0.355546;-0.895739;0.266906;,
-0.0325802;-0.730744;0.681874;,
-0.686572;-0.291624;0.666014;,
-0.0145615;-0.29161;0.956427;,
-0.505185;-0.730748;0.459124;,
-0.614957;-0.465009;0.636863;,
0.0154898;-0.465031;0.885159;,
-0.647309;-0.472818;0.597858;,
0.164808;-0.628378;0.760249;,
-0.396131;-0.0862919;0.91413;,
-0.612902;-0.0930805;0.784657;,
-0.396131;-0.0862919;0.91413;,
-0.392591;-0.0879068;0.915502;,
-0.647309;-0.472818;0.597858;,
-0.126771;0.946616;0.296391;,
-0.185726;0.952883;0.239832;,
-0.125889;0.946163;0.298206;,
-0.243655;0.953134;0.179352;,
-0.1922;-0.871222;0.451697;,
-0.373441;-0.885255;0.277245;,
-0.284488;-0.885193;0.368103;,
-0.341152;0.938767;-0.0482798;,
-0.00617901;0.999974;-0.00368524;,
-0.644467;0.759734;0.0864139;,
-0.803732;-0.585128;0.107894;,
-0.802643;-0.585496;-0.113833;,
-0.965875;0.224146;0.129784;,
-0.964854;0.224343;-0.136849;,
-0.681875;-0.730743;-0.0325769;,
-0.440134;-0.895741;-0.0626832;,
-0.95642;-0.291632;-0.0145313;,
-0.681875;-0.730743;-0.0325769;,
-0.885162;-0.465024;0.0155011;,
-0.880467;-0.472816;-0.0349604;,
-0.988225;-0.0930805;0.121442;,
-0.612902;-0.0930805;0.784657;,
-0.243655;0.953134;0.179352;,
-0.30091;0.952885;0.0382616;,
-0.185726;0.952883;0.239832;,
-0.299109;0.953135;-0.0454718;,
-0.373441;-0.885255;0.277245;,
-0.460099;-0.885259;-0.0680163;,
-0.461453;-0.885192;0.0591328;,
-0.207083;0.938771;-0.275364;,
-0.0017646;0.999974;-0.00697384;,
-0.341152;0.938767;-0.0482798;,
-0.516808;0.75974;-0.394594;,
-0.644467;0.759734;0.0864139;,
-0.207083;0.938771;-0.275364;,
-0.802643;-0.585496;-0.113833;,
-0.644612;-0.585157;-0.492003;,
-0.803732;-0.585128;0.107894;,
-0.487027;-0.585571;-0.648006;,
-0.964854;0.224343;-0.136849;,
-0.774749;0.224114;-0.591217;,
-0.965875;0.224146;0.129784;,
-0.585494;0.224316;-0.779024;,
-0.440134;-0.895741;-0.0626832;,
-0.459124;-0.730742;-0.505195;,
-0.266907;-0.895734;-0.355557;,
-0.666015;-0.291628;-0.686569;,
-0.636863;-0.465023;-0.614947;,
-0.597865;-0.472816;-0.647304;,
-0.784661;-0.0930809;-0.612897;,
-0.239832;0.952885;-0.185719;,
-0.179351;0.953135;-0.243655;,
-0.277244;-0.885258;-0.373435;,
-0.368108;-0.885193;-0.284483;,
-0.0017646;0.999974;-0.00697384;,
0.0482816;0.938771;-0.341142;,
0.00368464;0.999974;-0.00617829;,
-0.0864125;0.759745;-0.644453;,
-0.107897;-0.58519;-0.803686;,
0.113832;-0.585566;-0.802592;,
-0.129784;0.224105;-0.965885;,
0.136846;0.224318;-0.96486;,
0.0325759;-0.730739;-0.681879;,
0.0626835;-0.895735;-0.440148;,
0.0145341;-0.29163;-0.956421;,
-0.0154961;-0.465023;-0.885163;,
0.0349643;-0.472814;-0.880468;,
-0.121448;-0.0930805;-0.988224;,
-0.0382624;0.952884;-0.300912;,
0.0454715;0.953135;-0.29911;,
0.068018;-0.885258;-0.4601;,
-0.0591309;-0.885192;-0.461452;,
0.275364;0.938771;-0.207082;,
0.00697506;0.999974;-0.001764;,
0.394593;0.759747;-0.516799;,
0.491995;-0.585192;-0.644587;,
0.648009;-0.585569;-0.487025;,
0.591213;0.224101;-0.774755;,
0.779023;0.224315;-0.585496;,
0.505196;-0.730739;-0.459127;,
0.355555;-0.895735;-0.266908;,
0.686569;-0.291629;-0.666014;,
0.614947;-0.465025;-0.636861;,
0.647313;-0.472814;-0.597857;,
0.612912;-0.0930801;-0.78465;,
0.185722;0.952884;-0.239831;,
0.243656;0.953135;-0.179347;,
0.373435;-0.885258;-0.277244;,
0.284484;-0.885192;-0.368108;,
0.341146;0.938769;0.0482825;,
0.00617864;0.999974;0.00368427;,
0.644453;0.759746;-0.0864116;,
0.803687;-0.585189;-0.107895;,
0.802587;-0.585573;0.113833;,
0.965884;0.224105;-0.129785;,
0.964856;0.224336;0.136845;,
0.681879;-0.730739;0.0325726;,
0.440147;-0.895735;0.0626817;,
0.95642;-0.291633;0.0145289;,
0.885161;-0.465028;-0.0154983;,
0.880467;-0.472817;0.0349615;,
0.988225;-0.0930808;-0.12144;,
0.30091;0.952885;-0.0382586;,
0.29911;0.953135;0.0454749;,
0.4601;-0.885258;0.0680202;,
0.461452;-0.885193;-0.0591305;,
0.207089;0.938768;0.275371;,
0.00617864;0.999974;0.00368427;,
0.00176201;0.999974;0.00697492;,
0.207089;0.938768;0.275371;,
0.516817;0.759726;0.394609;,
0.644574;-0.585215;0.491983;,
0.487003;-0.585645;0.647957;,
0.774742;0.22416;0.591208;,
0.585479;0.224385;0.779016;,
0.45912;-0.730739;0.505202;,
0.266902;-0.895736;0.355556;,
0.666006;-0.291636;0.686574;,
0.636858;-0.465037;0.614941;,
0.59786;-0.472818;0.647307;,
0.784659;-0.0930843;0.612899;,
0.239838;0.952883;0.185721;,
0.179356;0.953135;0.24365;,
0.277251;-0.885256;0.373435;,
0.368111;-0.885189;0.28449;,
0.516817;0.759726;0.394609;,
0.487003;-0.585645;0.647957;,
0.644574;-0.585215;0.491983;,
0.585479;0.224385;0.779016;,
0.774742;0.22416;0.591208;,
0.266902;-0.895736;0.355556;,
0.366273;-0.0862982;0.926497;,
0.369736;-0.0879081;0.924969;,
0.121882;0.94616;0.299876;,
0.118022;0.947072;0.298539;,
0.118022;0.947072;0.298539;,
0.183578;-0.87134;0.455044;,
0.18351;-0.871219;0.455304;,
-0.388289;0.0616974;0.91947;,
-0.383503;-0.204773;0.900552;,
-0.59602;-0.215198;0.773596;,
-0.799248;0.0670944;0.597245;,
-0.04577;-0.997169;0.0596652;,
-0.060231;-0.997169;0.0450171;,
-0.0312373;-0.996749;0.0742747;,
-0.0312237;-0.99675;0.0742544;,
-0.04577;-0.997169;0.0596652;,
-0.0312373;-0.996749;0.0742747;,
-0.799248;0.0670944;0.597245;,
-0.59602;-0.215198;0.773596;,
-0.968467;-0.215196;0.125552;,
-0.987468;0.0670846;-0.142849;,
-0.0746662;-0.996746;0.030372;,
-0.0744878;-0.997222;-0.000439751;,
-0.0744867;-0.997222;-0.000456506;,
-0.773588;-0.215202;-0.596028;,
-0.597239;0.0670841;-0.799253;,
-0.0567273;-0.997203;-0.0486718;,
-0.052345;-0.997221;-0.0530041;,
-0.074266;-0.996747;-0.0312974;,
-0.125554;-0.215202;-0.968465;,
0.142847;0.0670856;-0.987469;,
0.596029;-0.215201;-0.773588;,
0.799253;0.0670851;-0.597239;,
0.0602472;-0.997167;-0.0450425;,
0.0530178;-0.99722;-0.0523675;,
0.0312729;-0.996743;-0.0743297;,
0.00040172;-0.997221;-0.0744953;,
0.0313184;-0.996745;-0.0742816;,
0.0313184;-0.996745;-0.0742816;,
0.968465;-0.215202;-0.125553;,
0.987469;0.0670874;0.142847;,
0.77359;-0.215185;0.596032;,
0.59723;0.0670852;0.79926;,
0.0743198;-0.996743;0.0313166;,
0.0450426;-0.997167;0.0602414;,
0.059702;-0.997166;0.0457704;,
0.0743238;-0.996742;0.0313099;,
0.367863;-0.199514;0.908224;,
0.3701;-0.194323;0.908441;,
-0.0311362;-0.996754;0.0742429;,
-0.074671;-0.996746;0.0303601;,
-0.0567273;-0.997203;-0.0486718;,
0.00040172;-0.997221;-0.0744953;,
-0.0303662;-0.996746;-0.0746671;,
-0.0303662;-0.996746;-0.0746671;,
0.031044;-0.996757;-0.0742459;,
0.000331406;-0.997222;-0.0744864;,
0.000331406;-0.997222;-0.0744864;,
0.0744592;-0.997166;0.0107759;,
0.0745833;-0.997167;-0.00980934;,
0.0303736;-0.996745;0.0746803;,
0.0303804;-0.996745;0.07467;,
0.0303886;-0.996745;0.0746712;,
0.0303886;-0.996745;0.0746712;,
-0.538014;0.467287;0.701558;,
-0.650042;0.584332;0.485799;,
-0.322376;0.557674;0.764901;,
-0.863565;0.482643;0.145986;,
-0.80312;0.584461;-0.115775;,
-0.769057;0.557308;0.312985;,
0.348255;0.442096;-0.826601;,
0.322508;0.557543;-0.764941;,
0.115963;0.584433;-0.803113;,
0.713865;0.482631;0.507409;,
0.486035;0.584455;0.649756;,
0.765134;0.557281;0.322501;,
-0.348228;0.44221;0.826552;,
-0.650042;0.584332;0.485799;,
-0.538014;0.467287;0.701558;,
-0.701558;0.467277;-0.538023;,
-0.485887;0.58444;-0.649881;,
-0.115638;0.467273;-0.876518;,
0.115963;0.584433;-0.803113;,
-0.485887;0.58444;-0.649881;,
-0.115638;0.467273;-0.876518;,
-0.115638;0.467273;-0.876518;,
0.876519;0.467272;-0.115638;,
0.803176;0.584311;0.116142;,
0.76884;0.557643;-0.31292;,
0.768738;0.557745;-0.31299;,
0.803176;0.584311;0.116142;,
0.876519;0.467272;-0.115638;,
0.312852;0.557569;0.768921;,
0.312852;0.557569;0.768921;,
0.31298;0.557754;0.768736;,
0.142847;0.0670856;-0.987469;,
0.799253;0.0670851;-0.597239;,
0.348255;0.442096;-0.826601;,
0.357631;0.318601;0.877835;,
0.357631;0.318601;0.877835;,
-0.115638;0.467273;-0.876518;,
0.877869;0.31874;-0.357422;,
0.357414;0.318736;0.877874;,
-0.192409;-0.871114;0.451818;,
-0.387394;-0.117364;0.914413;,
-0.386854;-0.102907;0.916381;,
-0.605608;-0.120485;0.786589;,
-0.795504;-0.130804;0.591662;,
-0.284488;-0.885193;0.368103;,
-0.795504;-0.130804;0.591662;,
-0.605608;-0.120485;0.786589;,
-0.984428;-0.120489;0.128003;,
-0.980867;-0.130861;-0.144134;,
-0.786602;-0.120507;-0.605587;,
-0.591658;-0.130862;-0.795497;,
-0.127996;-0.120509;-0.984426;,
0.144136;-0.130863;-0.980867;,
0.605587;-0.120506;-0.786602;,
0.795497;-0.13086;-0.591659;,
0.984427;-0.120508;-0.127992;,
0.980868;-0.130843;0.144145;,
0.786613;-0.120436;0.605586;,
0.591686;-0.130825;0.795482;,
0.37454;-0.102669;0.921509;,
0.370857;-0.132003;0.919261;,
0.370857;-0.132003;0.919261;,
0.0746914;-0.996744;-0.0303798;,
0.0745833;-0.997167;-0.00980934;,
0.0746914;-0.996744;-0.0303798;,
0.0;1.46417e-07;1.0;,
0.0607229;0.0758265;0.99527;,
0.363215;-0.0930687;0.927045;,
-0.00846707;0.0262972;0.999618;,
0.238302;0.0668783;0.968886;,
0.0472921;0.0571554;0.997245;,
-0.372667;-0.00986801;0.927912;,
-0.198771;-0.301737;0.93244;,
0.277527;-0.15073;0.94882;,
0.238302;0.0668783;0.968886;,
-0.00846707;0.0262972;0.999618;,
-0.0338518;0.0409119;0.998589;,
0.0646339;-0.0611867;-0.996031;,
-0.119142;-0.103928;-0.987423;,
-0.0560121;0.0814041;-0.995106;,
0.148853;0.0661989;-0.986641;,
0.0394901;-0.29598;-0.954378;,
-0.344274;-0.202067;-0.916867;,
0.209215;-0.0282309;-0.977462;,
0.0394901;-0.29598;-0.954378;,
-0.119142;-0.103928;-0.987423;,
0.0646339;-0.0611867;-0.996031;,
-2.51457e-08;0.556162;0.831074;,
-5.02915e-08;0.556162;0.831074;,
-0.135915;0.267983;0.953789;,
0.0;0.556161;0.831074;,
0.0;1.0;-1.19249e-08;,
0.0;1.0;-1.19249e-08;,
0.0;1.0;-1.19249e-08;,
0.0;1.0;-1.19249e-08;,
0.135914;0.267982;-0.953789;,
-0.226277;0.0618617;-0.972097;,
0.0;0.55616;-0.831075;,
0.0;0.55616;-0.831075;,
0.525168;-0.134567;0.840292;,
0.3414;0.0117228;0.939845;,
0.668403;0.0217386;0.743481;,
0.668403;0.0217386;0.743481;,
0.48936;-0.0526674;0.87049;,
0.532633;0.110056;0.83916;,
0.966317;-0.257356;-9.96896e-08;,
0.966317;-0.257356;-4.83103e-08;,
0.966317;-0.257356;-4.83103e-08;,
1.0;0.000335088;-0.000312404;,
0.99935;0.0263691;-0.0245841;,
1.0;0.000335088;-0.000312404;,
0.999383;-0.0256994;0.0239597;,
0.991836;0.127522;-7.49746e-08;,
0.991836;0.127522;-5.42568e-08;,
0.991836;0.127522;-7.49746e-08;,
0.991836;0.127522;-9.56924e-08;,
0.524969;-0.134919;-0.84036;,
0.548065;-0.145965;-0.823601;,
0.148853;0.0661989;-0.986641;,
0.688619;0.000553057;-0.725123;,
0.688619;0.000553057;-0.725123;,
0.688619;0.000553057;-0.725123;,
0.543026;0.134019;-0.828952;,
0.620879;0.11822;-0.774941;,
0.620879;0.11822;-0.774941;,
0.620879;0.11822;-0.774941;,
0.341735;-0.475835;0.810431;,
0.444524;-0.537234;0.716783;,
-0.434881;-0.280713;0.855616;,
-0.324846;-0.567222;0.756792;,
0.496968;-0.867769;-2.00317e-08;,
0.496968;-0.867769;-3.68375e-08;,
0.496968;-0.867769;-3.68375e-08;,
0.496968;-0.867769;-3.226e-09;,
0.496968;-0.867769;-3.226e-09;,
-0.496968;-0.867769;2.89314e-08;,
-0.496968;-0.867769;2.39221e-08;,
-0.496968;-0.867769;2.39221e-08;,
-0.496968;-0.867769;3.39408e-08;,
-0.496968;-0.867769;3.39408e-08;,
0.286751;-0.346555;-0.893126;,
0.324846;-0.567223;-0.756791;,
-0.124302;-0.534417;-0.836031;,
-0.124302;-0.534417;-0.836031;,
-0.48936;-0.0526679;-0.87049;,
-0.582625;0.126265;0.802873;,
-0.434881;-0.280713;0.855616;,
-0.372667;-0.00986801;0.927912;,
-0.372667;-0.00986801;0.927912;,
-0.543026;0.134019;0.828952;,
-0.582625;0.126265;0.802873;,
-0.147545;0.214224;0.965577;,
-0.682436;-0.00275431;0.73094;,
-0.682436;-0.00275431;0.73094;,
-0.991836;0.127522;4.83903e-08;,
-0.991836;0.127522;4.55652e-08;,
-0.991836;0.127522;4.83903e-08;,
-0.991836;0.127522;5.12155e-08;,
-0.966815;-0.00694402;-0.255385;,
-0.883724;-0.0160891;-0.467732;,
-1.0;-0.000350226;-0.000326518;,
-0.999355;0.0262713;0.0244929;,
-0.532633;0.110055;-0.83916;,
-0.756976;-0.00937795;-0.653375;,
-0.807535;-5.80752e-07;-0.58982;,
-0.147545;0.214224;0.965577;,
0.0621036;-0.429176;0.901083;,
0.065335;0.0640718;0.995804;,
0.0126764;1.90403e-07;0.99992;,
0.0126764;1.90403e-07;0.99992;,
-0.0522427;-0.717892;0.694191;,
-0.0617544;0.436963;0.897357;,
0.0622854;-0.20424;-0.976937;,
0.0615151;0.448735;-0.891545;,
-0.0560121;0.0814041;-0.995106;,
-0.119142;-0.103928;-0.987423;,
-0.0660303;0.069691;-0.995381;,
-0.0660303;0.069691;-0.995381;,
0.148853;0.0661989;-0.986641;,
-0.00873635;-4.28394e-07;-0.999962;,
-0.0673299;0.600072;0.797108;,
-0.0546981;0.636073;0.769688;,
-0.0962785;-0.713741;0.693761;,
-0.0103208;-0.968695;0.24804;,
0.0337014;0.999432;-0.000420117;,
0.0341546;0.999416;-0.00084022;,
0.0337014;0.999432;-0.000420117;,
0.0332482;0.999447;-1.36861e-08;,
0.0336887;-0.999432;0.000409136;,
-0.0522427;-0.717892;0.694191;,
-0.0103208;-0.968695;0.24804;,
0.0332474;-0.999447;1.01505e-08;,
-0.0764567;0.698544;-0.711471;,
-0.0764567;0.698544;-0.711471;,
-0.0667758;-0.60361;-0.794479;,
-0.0667758;-0.60361;-0.794479;,
-0.0667758;-0.60361;-0.794479;,
-0.0424152;-0.671066;-0.740184;,
-0.0424152;-0.671066;-0.740184;,
0.0621036;-0.429176;0.901083;,
0.0673308;-0.600068;0.79711;,
0.054698;-0.636073;0.769688;,
0.054698;-0.636073;0.769688;,
0.0419443;-0.670673;0.740566;,
0.0794625;0.700886;0.708833;,
0.0794625;0.700886;0.708833;,
-0.0337112;-0.999431;-0.000429955;,
-0.0341751;-0.999415;-0.000859924;,
-0.0337112;-0.999431;-0.000429955;,
-0.0332474;-0.999447;1.36861e-08;,
-0.0336996;0.999432;0.000418488;,
-0.034151;0.999416;0.000836986;,
-0.0336996;0.999432;0.000418488;,
-0.0332482;0.999447;-1.01505e-08;,
0.0533149;-0.636677;-0.769285;,
0.0587098;-0.684438;-0.726704;,
0.066775;0.603611;-0.794478;,
0.0546509;0.637982;-0.76811;,
-0.501383;-0.123748;0.85633;,
-0.52497;-0.13492;0.840359;,
-0.548065;-0.145964;0.823601;,
-0.548065;-0.145964;0.823601;,
-0.966317;-0.257356;1.05828e-07;,
-0.966317;-0.257356;5.44482e-08;,
-0.966317;-0.257356;1.05828e-07;,
-0.966317;-0.257356;1.57207e-07;,
-0.525167;-0.134567;-0.840292;,
-0.507068;-0.135046;-0.85126;,
-0.226277;0.0618617;-0.972097;,
0.148853;0.0661989;-0.986641;,
0.966317;-0.257356;-1.51069e-07;,
0.966317;-0.257356;-1.51069e-07;,
0.507069;-0.135046;0.85126;,
0.0;1.02416e-07;1.0;,
0.0;1.02416e-07;1.0;;

 362;
3;0,1,2;,
3;0,3,1;,
3;2,4,5;,
3;2,1,4;,
3;6,7,8;,
3;6,9,7;,
3;10,11,12;,
3;10,13,11;,
3;14,15,16;,
3;14,17,15;,
3;18,19,20;,
3;18,21,19;,
3;20,22,23;,
3;20,19,22;,
3;23,24,25;,
3;23,22,24;,
3;26,27,28;,
3;29,30,27;,
3;31,32,33;,
3;31,34,32;,
3;35,36,37;,
3;3,38,1;,
3;3,39,38;,
3;1,40,4;,
3;1,38,40;,
3;9,41,7;,
3;9,42,41;,
3;13,43,11;,
3;13,44,43;,
3;17,45,15;,
3;17,46,45;,
3;21,47,19;,
3;21,48,47;,
3;19,49,22;,
3;19,47,49;,
3;22,50,24;,
3;22,49,50;,
3;24,51,52;,
3;24,50,51;,
3;53,54,55;,
3;53,56,54;,
3;57,58,59;,
3;39,60,38;,
3;39,61,60;,
3;62,63,64;,
3;62,65,63;,
3;66,67,68;,
3;66,69,67;,
3;70,71,72;,
3;70,73,71;,
3;74,75,48;,
3;74,76,75;,
3;48,77,47;,
3;48,75,77;,
3;47,78,49;,
3;47,77,78;,
3;49,79,50;,
3;49,78,79;,
3;50,80,51;,
3;50,79,80;,
3;56,81,54;,
3;56,82,81;,
3;58,83,84;,
3;85,86,65;,
3;85,87,86;,
3;65,88,63;,
3;65,86,88;,
3;69,89,67;,
3;69,90,89;,
3;73,91,71;,
3;73,92,91;,
3;76,93,75;,
3;76,94,93;,
3;75,95,77;,
3;75,93,95;,
3;77,96,78;,
3;77,95,96;,
3;78,97,79;,
3;78,96,97;,
3;79,98,80;,
3;79,97,98;,
3;82,99,81;,
3;82,100,99;,
3;83,101,102;,
3;87,103,86;,
3;87,104,103;,
3;86,105,88;,
3;86,103,105;,
3;90,106,89;,
3;90,107,106;,
3;92,108,91;,
3;92,109,108;,
3;94,110,93;,
3;94,111,110;,
3;93,112,95;,
3;93,110,112;,
3;95,113,96;,
3;95,112,113;,
3;96,114,97;,
3;96,113,114;,
3;97,115,98;,
3;97,114,115;,
3;100,116,99;,
3;100,117,116;,
3;101,118,119;,
3;104,120,103;,
3;104,121,120;,
3;103,122,105;,
3;103,120,122;,
3;107,123,106;,
3;107,124,123;,
3;109,125,108;,
3;109,126,125;,
3;111,127,110;,
3;111,128,127;,
3;110,129,112;,
3;110,127,129;,
3;112,130,113;,
3;112,129,130;,
3;113,131,114;,
3;113,130,131;,
3;114,132,115;,
3;114,131,132;,
3;117,133,116;,
3;117,134,133;,
3;118,135,136;,
3;121,137,120;,
3;138,139,140;,
3;120,141,122;,
3;120,137,141;,
3;124,142,123;,
3;124,143,142;,
3;126,144,125;,
3;126,145,144;,
3;128,146,127;,
3;128,147,146;,
3;127,148,129;,
3;127,146,148;,
3;129,149,130;,
3;129,148,149;,
3;130,150,131;,
3;130,149,150;,
3;131,151,132;,
3;131,150,151;,
3;134,152,133;,
3;134,153,152;,
3;135,154,155;,
3;139,2,140;,
3;139,0,2;,
3;140,5,156;,
3;140,2,5;,
3;157,8,158;,
3;157,6,8;,
3;159,12,160;,
3;159,10,12;,
3;147,18,146;,
3;161,14,16;,
3;146,20,148;,
3;146,18,20;,
3;148,23,149;,
3;148,20,23;,
3;149,25,150;,
3;149,23,25;,
3;150,162,151;,
3;150,25,163;,
3;153,164,152;,
3;153,165,166;,
3;154,167,168;,
3;169,170,171;,
3;171,172,169;,
3;173,174,175;,
3;176,177,178;,
3;179,180,181;,
3;181,182,179;,
3;183,184,185;,
3;182,181,186;,
3;186,187,182;,
3;188,189,190;,
3;187,186,191;,
3;191,192,187;,
3;192,191,193;,
3;193,194,192;,
3;195,196,197;,
3;198,199,200;,
3;194,193,201;,
3;201,202,194;,
3;202,201,203;,
3;203,204,202;,
3;205,206,207;,
3;208,205,207;,
3;204,203,209;,
3;209,210,204;,
3;178,211,176;,
3;183,185,212;,
3;183,212,174;,
3;173,183,174;,
3;185,184,188;,
3;188,190,185;,
3;213,214,215;,
3;188,216,189;,
3;198,217,218;,
3;219,215,214;,
3;220,221,205;,
3;205,208,220;,
3;222,207,206;,
3;222,206,223;,
3;222,224,225;,
3;226,227,228;,
3;229,230,231;,
3;232,233,234;,
3;235,236,237;,
3;228,238,226;,
3;229,231,239;,
3;239,240,229;,
3;241,242,230;,
3;230,229,241;,
3;243,244,245;,
3;242,241,246;,
3;234,247,232;,
3;248,249,250;,
3;250,251,248;,
3;235,237,252;,
3;252,253,235;,
3;254,255,236;,
3;236,235,256;,
3;169,172,226;,
3;179,182,229;,
3;182,187,241;,
3;187,192,246;,
3;257,258,259;,
3;194,202,253;,
3;202,204,235;,
3;204,260,261;,
3;169,226,238;,
3;179,229,240;,
3;182,241,229;,
3;187,246,241;,
3;257,259,262;,
3;194,253,263;,
3;202,235,253;,
3;204,264,235;,
3;35,37,265;,
3;266,267,268;,
3;268,269,266;,
3;57,59,270;,
3;271,272,273;,
3;273,274,271;,
3;58,84,59;,
3;274,273,275;,
3;275,276,274;,
3;83,102,84;,
3;276,275,277;,
3;277,278,276;,
3;101,119,102;,
3;278,277,279;,
3;279,280,278;,
3;118,136,119;,
3;280,279,281;,
3;281,282,280;,
3;135,155,136;,
3;282,281,283;,
3;283,284,282;,
3;154,168,155;,
3;284,283,285;,
3;286,287,284;,
3;288,196,195;,
3;288,195,289;,
3;290,221,220;,
3;291,292,293;,
3;294,292,291;,
3;292,294,295;,
3;296,297,298;,
3;299,300,301;,
3;301,302,299;,
3;303,304,305;,
3;305,306,303;,
3;307,308,304;,
3;309,310,311;,
3;311,312,309;,
3;313,314,315;,
3;315,316,313;,
3;317,318,319;,
3;319,320,317;,
3;321,322,323;,
3;323,324,321;,
3;293,292,325;,
3;326,327,328;,
3;329,330,300;,
3;300,299,329;,
3;331,332,333;,
3;334,335,336;,
3;336,337,334;,
3;338,339,340;,
3;340,341,338;,
3;342,343,344;,
3;345,346,347;,
3;309,312,348;,
3;349,350,351;,
3;352,329,299;,
3;299,353,352;,
3;354,355,298;,
3;298,297,354;,
3;356,357,358;,
3;359,360,356;,
3;361,362,363;,
3;364,365,361;,
3;310,309,366;,
3;367,368,310;,
3;308,307,369;,
3;369,370,308;,
3;371,372,373;,
3;374,375,376;,
3;377,378,379;,
3;380,381,382;,
3;382,383,380;,
3;384,385,386;,
3;386,387,384;,
3;304,308,370;,
3;370,388,304;,
3;389,390,385;,
3;385,384,389;,
3;391,392,393;,
3;394,395,391;,
3;396,397,292;,
3;292,295,326;,
3;398,399,400;,
3;400,401,398;,
3;402,403,312;,
3;312,404,405;,
3;397,406,407;,
3;407,292,397;,
3;408,409,396;,
3;410,411,412;,
3;412,413,410;,
3;414,415,416;,
3;416,417,414;,
3;344,418,419;,
3;420,421,422;,
3;423,312,424;,
3;425,426,427;,
3;428,429,392;,
3;430,431,391;,
3;432,433,434;,
3;434,435,432;,
3;436,437,438;,
3;438,439,436;,
3;440,398,401;,
3;401,441,440;,
3;399,442,443;,
3;443,400,399;,
3;444,315,445;,
3;446,445,447;,
3;448,449,450;,
3;448,450,451;,
3;452,453,454;,
3;454,400,452;,
3;455,400,454;,
3;321,344,322;,
3;344,321,342;,
3;456,331,457;,
3;325,458,293;,
3;459,315,460;;
 }
MeshTextureCoords {
 461;
0.50081;0.0724951;,
0.460403;0.27056;,
0.583893;0.243187;,
0.500305;0.0720121;,
0.436991;0.270597;,
0.615866;0.238171;,
0.615866;0.238171;,
0.439028;0.238091;,
0.613414;0.20739;,
0.436991;0.270597;,
0.613414;0.20739;,
0.412954;0.196354;,
0.639731;0.164225;,
0.439028;0.238091;,
0.639731;0.164225;,
0.447702;0.0978412;,
0.602128;0.074388;,
0.412954;0.196354;,
0.602128;1.07439;,
0.453483;0.931306;,
0.593346;0.915338;,
0.447702;1.09784;,
0.422859;0.852011;,
0.628886;0.836881;,
0.448403;0.78687;,
0.598529;0.776259;,
0.598529;0.776259;,
1.08922;0.614459;,
0.827326;0.605712;,
0.598529;0.776259;,
1.4484;0.78687;,
0.827326;0.605712;,
1.04847;0.677833;,
0.88643;0.655076;,
1.08922;0.614459;,
0.892224;0.640923;,
1.0464;0.663157;,
1.03659;0.559802;,
0.401145;0.180039;,
0.500118;0.0709431;,
0.375587;0.163853;,
0.377378;0.136898;,
0.375587;0.163853;,
0.359072;0.0905824;,
0.377378;0.136898;,
0.38593;0.0199205;,
0.359072;0.0905824;,
0.392871;0.877407;,
0.38593;1.01992;,
0.366209;0.800104;,
0.388318;0.749631;,
0.245073;0.58288;,
0.0892168;0.614459;,
0.0892168;0.614459;,
0.183977;0.601191;,
0.0484663;0.677833;,
0.245073;0.58288;,
0.0463953;0.663157;,
0.177677;0.586881;,
0.14802;0.512507;,
0.419264;0.0246407;,
0.500356;0.0699151;,
0.401145;1.18004;,
0.404427;0.980469;,
0.375587;1.16385;,
0.419264;1.02464;,
0.375587;1.16385;,
0.405439;0.963084;,
0.377378;1.1369;,
0.404427;0.980469;,
0.377378;1.1369;,
0.395368;0.908874;,
0.359072;1.09058;,
0.405439;0.963084;,
0.359072;1.09058;,
0.410344;0.886277;,
0.395368;0.908874;,
0.414477;0.785205;,
0.399536;0.711567;,
0.412092;0.686357;,
0.331385;0.529474;,
0.281775;0.470036;,
0.331385;0.529474;,
0.275258;0.456769;,
0.239679;0.431895;,
0.500356;1.06992;,
0.462866;0.895399;,
0.500878;1.06953;,
0.456578;0.827867;,
0.457015;0.818471;,
0.456578;0.827867;,
0.452745;0.757673;,
0.457015;0.818471;,
0.459139;0.775194;,
0.452745;0.757673;,
0.460983;0.708714;,
0.45482;0.638263;,
0.460242;0.634112;,
0.424236;0.485526;,
0.392969;0.361199;,
0.424236;0.485526;,
0.388164;0.349042;,
0.353971;0.365187;,
0.515733;0.868022;,
0.501381;1.07001;,
0.518102;0.795439;,
0.517954;0.787771;,
0.518102;0.795439;,
0.519591;0.725548;,
0.517954;0.787771;,
0.517246;0.751743;,
0.519591;0.725548;,
0.516742;0.692743;,
0.519436;0.623134;,
0.517576;0.623502;,
0.53335;0.47678;,
0.545316;0.338436;,
0.53335;0.47678;,
0.548365;0.326804;,
0.567388;0.351461;,
0.565028;0.958547;,
0.501571;1.07108;,
0.57593;0.902182;,
0.575204;0.888967;,
0.57593;0.902182;,
0.58262;0.831318;,
0.575204;0.888967;,
0.571695;0.829661;,
0.58262;0.831318;,
0.568841;0.746646;,
0.580194;0.675041;,
0.571138;0.660742;,
0.634193;0.508359;,
0.675814;0.415081;,
0.634193;0.508359;,
0.682756;0.403082;,
0.720078;0.398756;,
0.597352;1.11395;,
0.501571;0.0710821;,
0.501335;0.0721105;,
0.597352;0.113948;,
0.617585;1.08557;,
0.616208;1.06278;,
0.617585;1.08557;,
0.630165;1.01303;,
0.616208;1.06278;,
0.60957;0.963307;,
0.630165;1.01303;,
0.604111;0.838851;,
0.62508;0.763578;,
0.607907;0.724016;,
0.719432;0.561764;,
0.773335;0.546232;,
0.719432;0.561764;,
0.780507;0.533191;,
0.813375;0.479368;,
0.617585;0.0855653;,
0.617585;0.0855653;,
0.616208;0.0627773;,
0.616208;0.0627773;,
0.630165;0.0130265;,
0.630165;0.0130265;,
0.827326;0.605712;,
0.827326;0.605712;,
0.88643;0.655076;,
0.827326;0.605712;,
0.88643;0.655076;,
0.892224;0.640923;,
0.913906;0.546075;,
0.927613;0.506528;,
0.913906;0.546075;,
1.03659;0.559802;,
1.02993;0.519734;,
0.0220092;0.365539;,
0.00704247;0.174108;,
0.0040065;0.17429;,
0.947454;0.336236;,
1.02201;0.365539;,
1.00401;0.17429;,
0.0299341;0.519734;,
0.0365896;0.559802;,
0.14802;0.512507;,
0.125498;0.475563;,
0.0622662;0.307903;,
0.0924293;0.267159;,
0.0226236;0.151086;,
0.239679;0.431895;,
0.206578;0.399893;,
0.148347;0.0987238;,
0.0330747;0.122667;,
0.0346435;0.130785;,
0.353971;0.365187;,
0.306188;0.33705;,
0.567388;0.351461;,
0.602559;0.323846;,
0.851795;0.929596;,
0.992477;1.09036;,
0.996328;1.09034;,
1.17891;0.9589;,
0.851795;0.929596;,
0.996328;1.09034;,
0.720078;0.398756;,
0.758153;0.368016;,
0.813375;0.479368;,
0.839543;0.443686;,
0.867265;0.126592;,
0.882641;0.19641;,
0.970364;0.141412;,
0.967283;0.1345;,
0.913906;0.546075;,
0.927613;0.506528;,
0.98867;0.158837;,
0.0119695;0.174318;,
0.148347;1.09872;,
0.17891;0.9589;,
0.0323546;1.11933;,
0.0323546;0.119329;,
0.996328;1.09034;,
1.01542;1.10384;,
0.0154241;1.10384;,
0.97581;0.111891;,
0.834999;0.0279754;,
0.971889;0.145267;,
0.947454;0.336236;,
0.947454;0.336236;,
0.98867;0.158837;,
1.02201;0.409881;,
1.02201;0.365539;,
0.947454;0.336236;,
0.092511;0.34361;,
0.0924293;0.267159;,
0.0622662;0.307903;,
0.850994;1.1161;,
0.851795;0.929596;,
1.17891;0.9589;,
0.882486;0.295869;,
0.882641;0.19641;,
0.867265;0.126592;,
0.947373;0.390104;,
0.0220092;0.365539;,
0.0220086;0.409881;,
0.148523;0.230114;,
0.148347;0.0987238;,
0.17935;1.13588;,
0.17891;0.9589;,
0.148347;1.09872;,
0.17935;0.135877;,
1.17935;1.13588;,
0.834731;1.18237;,
0.834999;1.02798;,
0.851795;0.929596;,
0.850994;1.1161;,
0.834999;0.0279754;,
0.834731;0.182372;,
0.947373;0.390104;,
0.947454;0.336236;,
0.947373;0.390104;,
1.30619;0.33705;,
1.60256;0.323846;,
0.850994;0.116102;,
0.927613;0.506528;,
0.947373;0.390104;,
1.17935;0.135877;,
0.850994;0.116102;,
0.947373;0.390104;,
0.913906;0.546075;,
0.892224;0.640923;,
0.88643;0.655076;,
1.04847;0.677833;,
1.0464;0.663157;,
0.0365896;0.559802;,
0.0463953;0.663157;,
0.0484663;0.677833;,
0.183977;0.601191;,
0.177677;0.586881;,
0.281775;0.470036;,
0.275258;0.456769;,
0.392969;0.361199;,
0.388164;0.349042;,
0.545316;0.338436;,
0.548365;0.326804;,
0.675814;0.415081;,
0.682756;0.403082;,
0.773335;0.546232;,
0.780507;0.533191;,
0.88643;0.655076;,
0.88643;0.655076;,
0.892224;0.640923;,
0.985576;1.09096;,
0.834999;1.02798;,
0.985576;0.0909592;,
0.998465;0.124655;,
0.980717;0.106864;,
0.966637;0.168771;,
0.998712;0.0714097;,
0.982885;0.0536193;,
0.998712;1.07141;,
1.00158;1.00956;,
0.991599;0.971499;,
0.980251;0.982011;,
0.982885;1.05362;,
0.998712;1.07141;,
0.991599;0.971499;,
0.00329357;0.998779;,
0.0206238;1.01657;,
0.0233074;1.06981;,
0.00365176;1.05202;,
0.0113976;0.910078;,
0.0230797;0.948143;,
0.999772;0.920589;,
1.0114;0.910078;,
1.02062;1.01657;,
1.00329;0.998779;,
0.957174;0.167137;,
1.01798;0.216277;,
1.00691;0.202783;,
0.966637;0.168771;,
0.975712;0.12363;,
1.04338;0.17277;,
1.01798;0.216277;,
0.957174;0.167137;,
0.991997;0.11393;,
1.03762;0.147942;,
1.04338;0.17277;,
0.975712;0.12363;,
0.974998;0.103998;,
0.94933;0.0135019;,
0.940588;0.0780527;,
0.94401;0.076841;,
0.977362;0.957939;,
0.978806;1.03184;,
0.974998;0.103998;,
0.992659;0.0604914;,
0.975712;0.12363;,
0.963128;0.956663;,
0.956976;1.02436;,
0.940588;1.07805;,
0.94933;1.0135;,
0.992008;0.909212;,
0.994046;0.988334;,
0.978806;1.03184;,
0.977362;0.957939;,
0.975712;0.12363;,
0.992659;0.0604914;,
1.00365;0.0520238;,
0.956976;1.02436;,
0.963128;0.956663;,
0.96718;0.963397;,
0.994046;0.988334;,
0.994046;0.988334;,
0.992008;0.909212;,
0.999772;0.920589;,
0.993532;0.953556;,
0.991599;0.971499;,
1.00785;0.997749;,
0.993532;0.953556;,
1.0089;0.904828;,
0.992008;0.909212;,
0.977362;0.957939;,
0.977362;0.957939;,
0.993532;0.953556;,
1.0247;0.949021;,
1.0089;0.904828;,
0.993532;0.953556;,
0.993532;0.953556;,
1.00785;0.997749;,
0.992008;0.909212;,
0.992008;0.909212;,
1.0089;0.904828;,
0.00889654;0.904828;,
0.0247005;0.949021;,
0.00622014;1.06294;,
0.00784841;0.997749;,
0.00158058;1.00956;,
1.00158;0.00956476;,
0.998712;0.0714097;,
1.00622;0.062942;,
0.0282665;0.167357;,
0.0261567;0.0987059;,
0.0230538;0.108046;,
0.0234961;1.01944;,
0.0247005;0.949021;,
0.00784841;0.997749;,
0.00622014;1.06294;,
0.0548581;0.113462;,
0.0473199;0.0445097;,
0.0261567;0.0987059;,
0.0282665;0.167357;,
0.0234961;1.01944;,
0.0539996;0.098515;,
0.0485933;0.0465583;,
1.02827;0.167357;,
1.02305;0.108046;,
0.998712;0.0714097;,
0.998712;0.0714097;,
0.998465;0.124655;,
0.94933;0.0135019;,
0.94401;0.076841;,
0.0485933;0.0465583;,
0.0539996;0.098515;,
0.0233074;0.0698142;,
0.0206238;0.0165691;,
0.956976;1.02436;,
0.96718;0.963397;,
1.00365;1.05202;,
0.956976;1.02436;,
0.940588;0.0780527;,
0.974998;0.103998;,
0.982885;0.0536193;,
0.978806;0.0318407;,
0.940588;0.0780527;,
0.956976;0.024362;,
0.992659;0.0604914;,
0.974998;0.103998;,
0.963128;0.956663;,
0.94933;1.0135;,
0.978806;1.03184;,
0.994046;0.988334;,
0.992659;0.0604914;,
0.956976;0.024362;,
0.96718;0.963397;,
0.963128;0.956663;,
0.994046;0.988334;,
0.994046;0.988334;,
0.96718;0.963397;,
0.0230538;0.108046;,
0.0261567;0.0987059;,
0.00622014;0.062942;,
1.00622;0.062942;,
0.998712;0.0714097;,
0.998465;0.124655;,
1.00708;0.1351;,
0.0261567;0.0987059;,
0.0473199;0.0445097;,
0.0234961;0.0194352;,
0.00622014;0.062942;,
0.0548581;0.113462;,
0.0282665;0.167357;,
0.00707709;0.1351;,
0.0275682;0.0915928;,
0.0473199;0.0445097;,
0.0234961;0.0194352;,
0.0548581;0.113462;,
0.0275682;0.0915928;,
0.998465;0.124655;,
1.01798;0.216277;,
0.998465;0.124655;,
1.00708;0.1351;,
0.0433797;0.17277;,
0.0275682;0.0915928;,
0.00707709;0.1351;,
0.0179839;0.216277;,
0.0275682;0.0915928;,
0.0433797;0.17277;,
0.0376213;0.147942;,
0.00365176;0.0520238;,
0.957174;0.167137;,
0.975712;0.12363;,
0.957174;0.167137;,
0.966637;0.168771;,
0.998465;0.124655;;
}
}
 }
