xof 0302txt 0032
Header {
 1;
 0;
 1;
}
template Header {
 <3D82AB43-62DA-11cf-AB39-0020AF71E433>
 WORD major;
 WORD minor;
 DWORD flags;
}

template Vector {
 <3D82AB5E-62DA-11cf-AB39-0020AF71E433>
 FLOAT x;
 FLOAT y;
 FLOAT z;
}

template Coords2d {
 <F6F23F44-7686-11cf-8F52-0040333594A3>
 FLOAT u;
 FLOAT v;
}

template Matrix4x4 {
 <F6F23F45-7686-11cf-8F52-0040333594A3>
 array FLOAT matrix[16];
}

template ColorRGBA {
 <35FF44E0-6C7C-11cf-8F52-0040333594A3>
 FLOAT red;
 FLOAT green;
 FLOAT blue;
 FLOAT alpha;
}

template ColorRGB {
 <D3E16E81-7835-11cf-8F52-0040333594A3>
 FLOAT red;
 FLOAT green;
 FLOAT blue;
}

template TextureFilename {
 <A42790E1-7810-11cf-8F52-0040333594A3>
 STRING filename;
}

template Material {
 <3D82AB4D-62DA-11cf-AB39-0020AF71E433>
 ColorRGBA faceColor;
 FLOAT power;
 ColorRGB specularColor;
 ColorRGB emissiveColor;
 [...]
}

template MeshFace {
 <3D82AB5F-62DA-11cf-AB39-0020AF71E433>
 DWORD nFaceVertexIndices;
 array DWORD faceVertexIndices[nFaceVertexIndices];
}

template MeshTextureCoords {
 <F6F23F40-7686-11cf-8F52-0040333594A3>
 DWORD nTextureCoords;
 array Coords2d textureCoords[nTextureCoords];
}

template MeshMaterialList {
 <F6F23F42-7686-11cf-8F52-0040333594A3>
 DWORD nMaterials;
 DWORD nFaceIndexes;
 array DWORD faceIndexes[nFaceIndexes];
 [Material]
}

template MeshNormals {
 <F6F23F43-7686-11cf-8F52-0040333594A3>
 DWORD nNormals;
 array Vector normals[nNormals];
 DWORD nFaceNormals;
 array MeshFace faceNormals[nFaceNormals];
}

template Mesh {
 <3D82AB44-62DA-11cf-AB39-0020AF71E433>
 DWORD nVertices;
 array Vector vertices[nVertices];
 DWORD nFaces;
 array MeshFace faces[nFaces];
 [...]
}

template FrameTransformMatrix {
 <F6F23F41-7686-11cf-8F52-0040333594A3>
 Matrix4x4 frameMatrix;
}

template Frame {
 <3D82AB46-62DA-11cf-AB39-0020AF71E433>
 [...]
}
template FloatKeys {
 <10DD46A9-775B-11cf-8F52-0040333594A3>
 DWORD nValues;
 array FLOAT values[nValues];
}

template TimedFloatKeys {
 <F406B180-7B3B-11cf-8F52-0040333594A3>
 DWORD time;
 FloatKeys tfkeys;
}

template AnimationKey {
 <10DD46A8-775B-11cf-8F52-0040333594A3>
 DWORD keyType;
 DWORD nKeys;
 array TimedFloatKeys keys[nKeys];
}

template AnimationOptions {
 <E2BF56C0-840F-11cf-8F52-0040333594A3>
 DWORD openclosed;
 DWORD positionquality;
}

template Animation {
 <3D82AB4F-62DA-11cf-AB39-0020AF71E433>
 [...]
}

template AnimationSet {
 <3D82AB50-62DA-11cf-AB39-0020AF71E433>
 [Animation]
}
Frame KNIGHT01 {
   FrameTransformMatrix {
0.000624798,1.79119,1.77896e-07,0.0,
-8.24745e-08,1.77926e-07,-1.79119,0.0,
-1.79119,0.000624798,8.2536e-08,0.0,
0.177665,7.36644,-1.86777,1.0;;
 }
Frame KNIGHT01 {
   FrameTransformMatrix {
1.0,1.10506e-23,-1.02831e-19,0.0,
5.79026e-24,1.0,1.54062e-23,0.0,
1.57105e-19,-1.11669e-23,1.0,0.0,
1.06122e-15,-1.67834e-16,2.67662e-18,1.0;;
 }
Frame KNIGHT01 {
   FrameTransformMatrix {
1.0,1.10442e-23,-6.62761e-20,0.0,
5.7838e-24,1.0,3.56399e-24,0.0,
7.2005e-20,-2.14712e-23,1.0,0.0,
1.73039e-16,3.02059e-16,3.07642e-18,1.0;;
 }
Frame KNIGHT01 {
   FrameTransformMatrix {
1.0,1.10377e-23,-1.77305e-20,0.0,
5.77734e-24,1.0,1.09569e-23,0.0,
2.3433e-20,2.23597e-24,1.0,0.0,
6.68736e-16,8.00141e-17,3.44912e-18,1.0;;
 }
Frame KNIGHT01 {
   FrameTransformMatrix {
1.0,1.10312e-23,-7.82669e-20,0.0,
5.77088e-24,1.0,1.24174e-23,0.0,
2.3433e-20,2.23597e-24,1.0,0.0,
-2.19443e-16,8.00141e-17,3.44912e-18,1.0;;
 }
Frame KNIGHT01 {
   FrameTransformMatrix {
1.0,1.10377e-23,3.08151e-20,0.0,
5.77088e-24,1.0,5.68687e-25,0.0,
2.3433e-20,2.23597e-24,1.0,0.0,
-2.69836e-15,8.00141e-17,2.78504e-18,1.0;;
 }
Frame KNIGHT01 {
   FrameTransformMatrix {
1.0,1.10377e-23,1.03342e-19,0.0,
5.77088e-24,1.0,1.53448e-23,0.0,
2.3433e-20,2.23597e-24,1.0,0.0,
-5.29958e-16,8.00141e-17,2.41235e-18,1.0;;
 }
Frame KNIGHT01 {
   FrameTransformMatrix {
1.0,1.10442e-23,1.82155e-20,0.0,
5.76441e-24,1.0,1.08632e-23,0.0,
2.3433e-20,2.23597e-24,1.0,0.0,
-1.37477e-16,8.00141e-17,1.63986e-18,1.0;;
 }
Frame KNIGHT01 {
   FrameTransformMatrix {
1.0,1.10442e-23,3.01798e-20,0.0,
5.76441e-24,1.0,4.93077e-24,0.0,
2.3433e-20,2.23597e-24,1.0,0.0,
-1.1293e-15,8.00141e-17,1.09775e-18,1.0;;
 }
Frame KNIGHT01 {
   FrameTransformMatrix {
1.0,1.10442e-23,-1.83658e-20,0.0,
5.76441e-24,1.0,4.92431e-24,0.0,
2.3433e-20,2.23597e-24,1.0,0.0,
-2.41127e-16,8.00141e-17,8.94467e-19,1.0;;
 }
Mesh KNIGHT01 {
 330;
14.6471;0.615394;0.791914;,
14.5048;3.47248;0.846232;,
16.2041;-0.137986;2.35967;,
-24.4265;4.08634;-10.2189;,
-24.4265;-4.42616;-10.2189;,
-24.4265;10.1056;-4.23317;,
-24.4265;-10.4454;-4.23317;,
-24.4265;10.1056;4.23318;,
-24.4265;-10.4454;4.23318;,
-24.4265;10.1056;4.23318;,
-24.4265;-10.4454;-4.23317;,
-24.4265;4.08634;10.2189;,
-24.4265;-4.42616;10.2189;,
-5.68275;7.34064;3.23015;,
0.929597;5.21911;2.9288;,
1.61988;7.40756;1.33054;,
-11.6934;6.56046;5.59391;,
-11.6934;9.0513;2.73315;,
-5.68275;7.34064;3.23015;,
-5.68275;7.34064;3.61419e-06;,
-11.6934;9.0513;2.73315;,
-5.68275;7.34064;-3.23014;,
-11.6934;9.05129;-2.73116;,
1.61989;7.40756;-1.33054;,
0.929597;5.21911;-2.92877;,
-5.68275;7.34064;-3.23014;,
-11.6934;6.56045;-5.59194;,
-11.6934;9.05129;-2.73116;,
1.50103;-0.872797;1.33798;,
2.36007;-3.79336;1.87317;,
0.929597;1.65055;2.9288;,
4.4938;-4.23045;-2.43234;,
0.929597;1.65055;-2.92877;,
8.87023;-1.81193;-4.52225;,
0.929597;5.21911;2.9288;,
9.19118;6.7384;1.7553;,
1.61988;7.40756;1.33054;,
9.31394;6.98545;-0.704664;,
9.19118;6.7384;-1.7553;,
1.61989;7.40756;-1.33054;,
1.61989;7.40756;-1.33054;,
9.19118;6.7384;-1.7553;,
0.929597;5.21911;-2.92877;,
8.87023;-1.81194;4.52223;,
0.929597;1.65055;2.9288;,
0.929597;1.65055;-2.92877;,
2.36007;-3.79336;-1.87317;,
1.50103;-0.872797;-1.33798;,
16.2041;-0.137986;2.35967;,
11.709;5.12373;1.87318;,
12.1271;1.18544;3.1977;,
11.709;5.12373;-1.87317;,
12.1271;1.18545;-3.19771;,
3.39275;-12.355;1.87317;,
10.6928;-12.355;1.87317;,
8.2194;-8.19752;3.83351;,
3.39275;-12.355;-1.87318;,
2.92058;-8.42528;-1.87317;,
4.02058;-8.42528;-1.87317;,
11.2928;-6.75496;-1.87317;,
8.87023;-1.81193;-4.52225;,
14.5048;3.47248;0.846232;,
14.5048;3.47248;-0.846222;,
11.709;5.12373;-1.87317;,
11.709;5.12373;-0.980955;,
8.87023;-1.81194;4.52223;,
11.2928;-6.75496;1.87317;,
4.4938;-4.23045;2.43233;,
3.60268;-6.30029;1.87317;,
4.02058;-8.42528;1.87317;,
16.2041;-0.137986;-2.35968;,
0.929597;5.21911;-2.92877;,
9.19118;6.7384;-1.7553;,
8.87023;-1.81193;-4.52225;,
8.2194;-8.19752;-3.83353;,
3.60268;-6.30029;-1.87317;,
8.87023;-1.81194;4.52223;,
8.87023;-1.81193;-4.52225;,
11.2928;-6.75496;1.87317;,
11.2928;-6.75496;-1.87317;,
12.3907;-5.9227;1.87317;,
12.3907;-5.9227;6.97154e-07;,
12.3907;-5.9227;-1.87317;,
12.3907;-5.9227;6.97154e-07;,
11.2928;-6.75496;-1.87317;,
12.3907;-5.9227;1.87317;,
12.3907;-5.9227;-1.87317;,
10.6928;-12.355;-1.87317;,
2.92058;-8.42528;1.87317;,
14.6471;0.615395;-0.791911;,
16.2041;-0.137986;-2.35968;,
14.5048;3.47248;-0.846222;,
8.87023;-1.81193;-4.52225;,
0.929597;1.65055;-2.92877;,
0.929597;5.21911;-2.92877;,
12.3907;-5.9227;1.87317;,
12.3907;-5.9227;6.97154e-07;,
12.2589;-2.36863;0.724999;,
2.36007;-3.79336;1.87317;,
2.36007;-3.79336;-1.87317;,
10.1715;9.05191;0.355351;,
10.1715;9.05191;-0.355351;,
5.09418;10.2513;6.9674e-07;,
13.2624;6.55765;0.546705;,
11.709;5.12373;0.980938;,
14.5048;3.47248;0.846232;,
14.5048;3.47248;-0.846222;,
11.709;5.12373;-0.980955;,
13.2624;6.55765;-0.546707;,
1.61988;7.40756;1.33054;,
9.19118;6.7384;1.7553;,
9.31394;6.98545;0.704664;,
12.2589;-2.36863;-0.725;,
12.3907;-5.9227;-1.87317;,
14.5048;3.47248;-0.846222;,
14.5048;3.47248;0.846232;,
11.709;5.12373;0.980938;,
11.709;5.12373;1.87318;,
1.61989;7.40756;-1.33054;,
1.61988;7.40756;1.33054;,
1.69732;7.57898;-0.60473;,
1.69732;7.57898;0.604736;,
1.69732;7.57898;0.604736;,
1.69732;7.57898;-0.60473;,
1.69732;7.57898;-0.60473;,
-5.68275;7.34064;3.61419e-06;,
5.09418;10.2513;6.9674e-07;,
5.09418;10.2513;6.9674e-07;,
-5.68275;7.34064;3.61419e-06;,
1.69732;7.57898;0.604736;,
-24.4265;10.1056;-4.23317;,
-20.8295;10.2695;-4.29787;,
-20.8514;7.2554;-6.81085;,
-16.7033;2.61558;-4.86301;,
-20.8811;4.29127;-10.2268;,
-20.8514;7.2554;-6.81085;,
-24.4265;4.08634;10.2189;,
-20.7063;4.26233;9.87205;,
-20.7284;7.34334;7.33537;,
-16.7033;6.55487;2.02552;,
-20.757;10.2405;4.04349;,
-20.7284;7.34334;7.33537;,
-24.4265;-10.4454;4.23318;,
-20.757;-10.1416;4.04349;,
-20.7349;-7.05826;6.58673;,
-21.4832;-4.29204;10.4105;,
-24.4265;-4.42616;10.2189;,
-20.8514;-7.15648;-6.81085;,
-20.8811;-4.19233;-10.2269;,
-16.7033;-2.9554;-4.86301;,
-20.8514;-7.15648;-6.81085;,
-20.8295;-10.1706;-4.29788;,
-24.4265;-10.4454;-4.23317;,
-16.7033;-6.89469;2.02552;,
-8.85953;-7.23406;2.73413;,
-11.7313;-2.72674;6.20139;,
-16.7033;-2.95541;4.86616;,
-16.7033;-2.95541;4.86616;,
-11.7313;-2.72674;6.20139;,
-16.7033;2.61559;4.86616;,
-16.7033;2.61559;4.86616;,
-11.6934;6.56046;5.59391;,
-16.7033;6.55487;2.02552;,
-16.7033;6.55487;-2.02236;,
-11.6934;6.56045;-5.59194;,
-16.7033;2.61558;-4.86301;,
-16.7033;6.55487;-2.02236;,
-16.7033;2.61558;-4.86301;,
-11.6934;6.56045;-5.59194;,
-11.7313;-2.72674;-6.1994;,
-11.7313;-2.72674;-6.1994;,
-16.7033;-2.9554;-4.86301;,
-16.7033;2.61558;-4.86301;,
-16.7033;-2.9554;-4.86301;,
-11.7313;-2.72674;-6.1994;,
-8.85953;-7.23405;-2.73017;,
-16.7033;-6.89469;-2.02236;,
-8.85953;-7.23406;2.73413;,
1.50103;-0.872797;1.33798;,
0.929597;1.65055;-2.92877;,
0.929597;1.65055;-2.92877;,
-11.7313;-2.72674;-6.1994;,
0.929597;1.65055;-2.92877;,
1.50103;-0.872797;-1.33798;,
-11.7313;-2.72674;-6.1994;,
11.2928;-6.75496;1.87317;,
8.87023;-1.81194;4.52223;,
16.2041;-0.137986;2.35967;,
12.1271;1.18544;3.1977;,
12.1271;1.18544;1.45;,
14.6471;0.615394;0.791914;,
8.2194;-8.19752;-3.83353;,
8.87023;-1.81193;-4.52225;,
11.2928;-6.75496;-1.87317;,
10.6928;-12.355;-1.87317;,
14.6471;0.615395;-0.791911;,
12.1271;1.18545;-1.45;,
12.1271;1.18545;-3.19771;,
16.2041;-0.137986;-2.35968;,
12.2589;-2.36863;-0.725;,
12.1271;1.18545;-1.45;,
14.6471;0.615395;-0.791911;,
14.6867;-2.99955;-0.374204;,
1.69732;7.57898;-0.60473;,
5.09418;10.2513;6.9674e-07;,
10.1715;9.05191;-0.355351;,
9.31394;6.98545;-0.704664;,
10.1715;9.05191;0.355351;,
9.31394;6.98545;0.704664;,
14.6867;-2.99955;0.374373;,
14.6471;0.615394;0.791914;,
12.1271;1.18544;1.45;,
12.2589;-2.36863;0.724999;,
1.69732;7.57898;0.604736;,
5.09418;10.2513;6.9674e-07;,
-20.7883;-10.1541;0.447304;,
-20.757;-10.1416;4.04349;,
-24.4265;-10.4454;4.23318;,
-20.8295;-10.1706;-4.29788;,
-16.7033;-6.89469;-2.02236;,
-24.4265;4.08634;-10.2189;,
-20.8811;4.29127;-10.2268;,
-20.8811;0.0350065;-10.2269;,
-20.8811;0.0350065;-10.2269;,
-24.4265;10.1056;4.23318;,
-20.757;10.2405;4.04349;,
-20.7882;10.253;0.447283;,
-16.7033;6.55487;-2.02236;,
-20.8295;10.2695;-4.29787;,
-20.7882;10.253;0.447283;,
-20.7063;0.202473;9.87206;,
-20.7063;-3.07501;9.87206;,
-16.7033;2.61559;4.86616;,
-20.7063;4.26233;9.87205;,
-16.7033;6.55487;2.02552;,
-11.6934;9.0513;2.73315;,
-11.6934;9.05129;-2.73116;,
-16.7033;6.55487;-2.02236;,
-16.7033;-6.89469;-2.02236;,
-8.85953;-7.23405;-2.73017;,
-8.85953;-7.23406;2.73413;,
-16.7033;-6.89469;2.02552;,
1.50103;-0.872797;-1.33798;,
1.50103;-0.872797;1.33798;,
13.2624;6.55765;0.546705;,
13.2624;6.55765;-0.546707;,
2.92058;-8.42528;-1.87317;,
3.39275;-12.355;-1.87318;,
3.39275;-12.355;1.87317;,
2.92058;-8.42528;1.87317;,
14.6867;-2.99955;0.374373;,
14.6867;-2.99955;-0.374204;,
14.6471;0.615395;-0.791911;,
14.6471;0.615394;0.791914;,
4.02058;-8.42528;1.87317;,
3.60268;-6.30029;1.87317;,
3.60268;-6.30029;-1.87317;,
4.02058;-8.42528;-1.87317;,
11.2928;-6.75496;1.87317;,
10.6928;-12.355;1.87317;,
10.6928;-12.355;-1.87317;,
11.2928;-6.75496;-1.87317;,
10.6928;-12.355;1.87317;,
3.39275;-12.355;1.87317;,
3.39275;-12.355;-1.87318;,
10.6928;-12.355;-1.87317;,
4.02058;-8.42528;-1.87317;,
2.92058;-8.42528;-1.87317;,
2.92058;-8.42528;1.87317;,
4.02058;-8.42528;1.87317;,
12.1271;1.18545;-3.19771;,
12.1271;1.18545;-1.45;,
14.5048;3.47248;0.846232;,
14.5048;3.47248;-0.846222;,
12.2589;-2.36863;0.724999;,
12.2589;-2.36863;-0.725;,
14.6867;-2.99955;-0.374204;,
14.6867;-2.99955;0.374373;,
12.1271;1.18544;1.45;,
12.1271;1.18544;3.1977;,
-16.7033;-2.95541;4.86616;,
-20.7063;-4.1634;9.87206;,
-20.7349;-7.05826;6.58673;,
-21.4832;-4.29204;10.4105;,
-20.7063;-4.1634;9.87206;,
-20.7063;-3.07501;9.87206;,
-20.8295;10.2695;-4.29787;,
-16.7033;6.55487;-2.02236;,
-20.8514;7.2554;-6.81085;,
-20.8811;4.29127;-10.2268;,
-24.4265;10.1056;-4.23317;,
-24.4265;4.08634;-10.2189;,
-20.7284;7.34334;7.33537;,
-20.757;10.2405;4.04349;,
-24.4265;4.08634;10.2189;,
-24.4265;10.1056;4.23318;,
-20.757;-10.1416;4.04349;,
-16.7033;-2.95541;4.86616;,
-16.7033;-6.89469;2.02552;,
-24.4265;-4.42616;-10.2189;,
-20.8811;-4.19233;-10.2269;,
-24.4265;-10.4454;-4.23317;,
-24.4265;-4.42616;-10.2189;,
-20.8514;-7.15648;-6.81085;,
-16.7033;-6.89469;-2.02236;,
-20.8295;-10.1706;-4.29788;,
-16.7033;-6.89469;-2.02236;,
-16.7033;-6.89469;2.02552;,
-20.757;-10.1416;4.04349;,
-16.7033;-6.89469;2.02552;,
-24.4265;-10.4454;-4.23317;,
-24.4265;-10.4454;4.23318;,
-24.4265;-10.4454;-4.23317;,
-20.8811;4.29127;-10.2268;,
-20.8811;4.29127;-10.2268;,
-16.7033;2.61558;-4.86301;,
-20.8811;-4.19233;-10.2269;,
-24.4265;4.08634;-10.2189;,
-24.4265;-4.42616;-10.2189;,
-20.8295;10.2695;-4.29787;,
-24.4265;10.1056;-4.23317;,
-20.7063;0.202473;9.87206;,
-24.4265;-4.42616;10.2189;,
-21.4832;-4.29204;10.4105;,
-20.7063;4.26233;9.87205;,
-24.4265;4.08634;10.2189;,
-20.7063;-4.1634;9.87206;,
-21.4832;-4.29204;10.4105;,
-20.7063;-4.1634;9.87206;,
-16.7033;-2.95541;4.86616;;

 206;
3;0,1,2;,
3;3,4,5;,
3;6,5,4;,
3;5,6,7;,
3;8,9,10;,
3;9,8,11;,
3;11,8,12;,
3;13,14,15;,
3;14,13,16;,
3;13,17,16;,
3;18,19,20;,
3;19,21,20;,
3;22,20,21;,
3;23,24,25;,
3;26,25,24;,
3;26,27,25;,
3;28,29,30;,
3;31,32,33;,
3;34,35,36;,
3;37,38,39;,
3;40,41,42;,
3;43,14,44;,
3;45,46,47;,
3;48,49,50;,
3;41,51,52;,
3;53,54,55;,
3;50,49,35;,
3;56,57,58;,
3;59,60,52;,
3;49,48,61;,
3;62,63,64;,
3;50,65,66;,
3;43,67,55;,
3;67,68,55;,
3;68,69,55;,
3;52,51,70;,
3;71,72,73;,
3;43,44,67;,
3;74,31,33;,
3;74,75,31;,
3;75,74,58;,
3;35,76,50;,
3;52,77,41;,
3;78,79,80;,
3;80,79,81;,
3;82,83,84;,
3;50,66,85;,
3;86,59,52;,
3;74,87,56;,
3;69,88,53;,
3;53,55,69;,
3;58,74,56;,
3;89,90,91;,
3;92,93,94;,
3;76,35,34;,
3;95,96,97;,
3;67,98,68;,
3;99,31,75;,
3;100,101,102;,
3;103,104,105;,
3;106,107,108;,
3;109,110,111;,
3;97,96,112;,
3;112,96,113;,
3;114,70,51;,
3;115,116,117;,
3;118,21,19;,
3;19,18,119;,
3;118,19,120;,
3;109,111,121;,
3;122,19,119;,
3;123,37,39;,
3;67,44,98;,
3;99,32,31;,
3;124,125,126;,
3;127,128,129;,
3;130,131,132;,
3;133,134,135;,
3;136,137,138;,
3;139,140,141;,
3;142,143,144;,
3;145,146,142;,
3;147,148,149;,
3;150,151,152;,
3;153,154,155;,
3;155,156,153;,
3;157,158,16;,
3;16,159,157;,
3;160,161,17;,
3;17,162,160;,
3;163,27,26;,
3;164,165,166;,
3;167,168,169;,
3;170,171,172;,
3;173,174,175;,
3;175,176,173;,
3;177,178,44;,
3;44,158,177;,
3;158,44,14;,
3;14,16,158;,
3;168,94,179;,
3;180,169,168;,
3;181,182,183;,
3;183,175,184;,
3;54,185,186;,
3;186,55,54;,
3;187,188,189;,
3;189,190,187;,
3;191,192,193;,
3;193,194,191;,
3;195,196,197;,
3;197,198,195;,
3;199,200,201;,
3;201,202,199;,
3;111,110,117;,
3;117,116,111;,
3;64,63,38;,
3;38,37,64;,
3;203,204,205;,
3;205,206,203;,
3;108,107,206;,
3;206,205,108;,
3;207,208,104;,
3;104,103,207;,
3;209,210,211;,
3;211,212,209;,
3;213,208,207;,
3;207,214,213;,
3;215,216,217;,
3;215,218,219;,
3;220,221,222;,
3;149,148,223;,
3;224,225,226;,
3;227,228,229;,
3;230,231,232;,
3;232,233,230;,
3;234,235,236;,
3;236,237,234;,
3;238,239,240;,
3;240,241,238;,
3;239,242,243;,
3;243,240,239;,
3;29,28,47;,
3;47,46,29;,
3;244,245,101;,
3;101,100,244;,
3;246,247,248;,
3;248,249,246;,
3;250,251,252;,
3;252,253,250;,
3;254,255,256;,
3;256,257,254;,
3;258,259,260;,
3;260,261,258;,
3;262,263,264;,
3;264,265,262;,
3;266,267,268;,
3;268,269,266;,
3;113,270,271;,
3;271,112,113;,
3;245,244,272;,
3;272,273,245;,
3;272,253,252;,
3;252,273,272;,
3;46,256,255;,
3;255,29,46;,
3;274,275,276;,
3;276,277,274;,
3;97,278,279;,
3;279,95,97;,
3;280,281,282;,
3;283,284,285;,
3;135,286,133;,
3;286,287,133;,
3;288,289,290;,
3;289,291,290;,
3;141,233,139;,
3;233,232,139;,
3;292,293,294;,
3;293,295,294;,
3;144,296,297;,
3;296,298,297;,
3;150,299,300;,
3;301,302,150;,
3;303,304,305;,
3;149,306,147;,
3;215,307,308;,
3;219,309,215;,
3;215,310,218;,
3;311,312,215;,
3;223,313,149;,
3;314,315,149;,
3;222,316,317;,
3;316,318,317;,
3;229,140,227;,
3;140,139,227;,
3;226,319,224;,
3;319,320,224;,
3;321,283,285;,
3;322,323,321;,
3;321,324,322;,
3;324,325,322;,
3;144,326,142;,
3;326,327,142;,
3;231,328,232;,
3;328,329,232;;
MeshMaterialList {
 1;
 206;
  0,
  0,
  0,
  0,
  0,
  0,
  0,
  0,
  0,
  0,
  0,
  0,
  0,
  0,
  0,
  0,
  0,
  0,
  0,
  0,
  0,
  0,
  0,
  0,
  0,
  0,
  0,
  0,
  0,
  0,
  0,
  0,
  0,
  0,
  0,
  0,
  0,
  0,
  0,
  0,
  0,
  0,
  0,
  0,
  0,
  0,
  0,
  0,
  0,
  0,
  0,
  0,
  0,
  0,
  0,
  0,
  0,
  0,
  0,
  0,
  0,
  0,
  0,
  0,
  0,
  0,
  0,
  0,
  0,
  0,
  0,
  0,
  0,
  0,
  0,
  0,
  0,
  0,
  0,
  0,
  0,
  0,
  0,
  0,
  0,
  0,
  0,
  0,
  0,
  0,
  0,
  0,
  0,
  0,
  0,
  0,
  0,
  0,
  0,
  0,
  0,
  0,
  0,
  0,
  0,
  0,
  0,
  0,
  0,
  0,
  0,
  0,
  0,
  0,
  0,
  0,
  0,
  0,
  0,
  0,
  0,
  0,
  0,
  0,
  0,
  0,
  0,
  0,
  0,
  0,
  0,
  0,
  0,
  0,
  0,
  0,
  0,
  0,
  0,
  0,
  0,
  0,
  0,
  0,
  0,
  0,
  0,
  0,
  0,
  0,
  0,
  0,
  0,
  0,
  0,
  0,
  0,
  0,
  0,
  0,
  0,
  0,
  0,
  0,
  0,
  0,
  0,
  0,
  0,
  0,
  0,
  0,
  0,
  0,
  0,
  0,
  0,
  0,
  0,
  0,
  0,
  0,
  0,
  0,
  0,
  0,
  0,
  0,
  0,
  0,
  0,
  0,
  0,
  0,
  0,
  0,
  0,
  0,
  0,
  0,
  0,
  0,
  0,
  0,
  0,
  0;;
Material {
 0.752941;0.752941;0.752941;1.0;;
 50.000000;
 0.752941;0.752941;0.752941;;
 0.117647;0.117647;0.117647;;
 }
}

 MeshNormals {
 330;
0.720365;0.0490317;-0.69186;,
0.720365;0.0490317;-0.69186;,
0.720365;0.0490317;-0.69186;,
-1.0;8.82885e-08;-2.36696e-07;,
-1.0;3.334e-08;-1.03284e-07;,
-1.0;1.50239e-08;-6.28584e-08;,
-1.0;-2.16084e-08;2.40165e-08;,
-1.0;-2.16084e-08;1.79629e-08;,
-1.0;-4.75158e-08;8.93546e-08;,
-1.0;-2.16151e-08;2.43657e-08;,
-1.0;-2.16151e-08;1.7992e-08;,
-1.0;-6.04661e-08;1.25036e-07;,
-1.0;-9.93171e-08;2.19361e-07;,
0.198991;0.628666;0.751786;,
0.148368;0.252254;0.956219;,
0.208413;0.533105;0.819978;,
0.0417288;0.319391;0.946704;,
-0.277298;0.673525;0.685179;,
0.133654;0.991028;-4.7603e-08;,
0.0729724;0.997334;1.38165e-07;,
0.273734;0.961805;-6.45024e-07;,
0.181082;0.983468;-6.50256e-07;,
0.273733;0.961806;-1.84687e-06;,
0.208413;0.533097;-0.819983;,
0.217367;0.564355;-0.796401;,
0.198891;0.628563;-0.751898;,
-0.0141237;0.708397;-0.705673;,
-0.139307;0.746833;-0.650257;,
-0.960553;-0.275209;0.0399627;,
-0.947132;-0.320219;0.0200372;,
-0.960164;-0.267784;0.0798595;,
-0.339029;-0.155968;-0.927757;,
-0.29529;-0.256646;-0.920292;,
-0.352836;-0.158407;-0.922179;,
0.0433457;0.452342;0.890791;,
0.091128;0.385444;0.918221;,
0.0066428;0.588398;0.808544;,
0.248411;0.936045;-0.249222;,
0.411173;0.895871;-0.16838;,
0.072391;0.968947;-0.236433;,
0.0066419;0.588391;-0.80855;,
0.0951009;0.412182;-0.906125;,
0.0066419;0.588391;-0.80855;,
-0.302363;-0.106003;0.94728;,
0.0352512;-0.242067;0.969619;,
-0.960164;-0.267783;-0.0798607;,
-0.932255;-0.361245;-0.0200595;,
-0.960331;-0.277586;-0.0266397;,
0.430268;0.440433;0.787965;,
0.345601;0.407788;0.845144;,
0.255012;0.124565;0.958881;,
0.345604;0.407792;-0.845141;,
0.255015;0.124568;-0.95888;,
-0.148547;-0.125303;0.980935;,
0.396329;-0.225352;0.890022;,
-0.215235;-0.126491;0.968336;,
-0.148548;-0.125302;-0.980935;,
-4.20029e-08;2.54462e-06;-1.0;,
-0.287608;-0.0048699;-0.957736;,
0.332553;-0.189064;-0.923939;,
0.517099;-0.193415;-0.833786;,
0.54999;0.529568;0.645809;,
0.508544;0.861036;-1.81363e-07;,
0.524274;0.85155;-1.85306e-07;,
0.545829;0.833665;-0.0841019;,
0.517096;-0.193415;0.833788;,
0.332551;-0.189063;0.92394;,
-0.339025;-0.155969;0.927758;,
-0.370568;-0.0959542;0.923836;,
-0.287605;-0.00487146;0.957737;,
0.430269;0.440437;-0.787962;,
0.0788907;0.304246;-0.949321;,
0.0788907;0.304246;-0.949321;,
0.0788907;0.304246;-0.949321;,
-0.341663;-0.11633;-0.932595;,
-0.370572;-0.0959559;-0.923834;,
0.0928576;0.303398;0.948329;,
0.106803;0.302495;-0.947148;,
0.604097;-0.796911;-1.32071e-08;,
0.604096;-0.796911;2.92346e-08;,
0.604096;-0.796911;2.92346e-08;,
0.604096;-0.796911;7.16701e-08;,
0.604096;-0.796911;7.18156e-08;,
0.604096;-0.796911;7.18156e-08;,
0.604096;-0.796911;7.18156e-08;,
0.133971;-0.176732;0.975099;,
0.133972;-0.176733;-0.975099;,
1.24838e-06;-0.426491;-0.904492;,
4.20026e-08;-4.24868e-09;1.0;,
0.720367;0.0490302;0.691858;,
0.720367;0.0490302;0.691858;,
0.720367;0.0490302;0.691858;,
-0.196752;-4.26643e-08;-0.980453;,
-0.196752;-4.26643e-08;-0.980453;,
0.00494226;-4.61013e-08;-0.999988;,
0.999313;0.037059;-2.50382e-07;,
0.999313;0.037059;2.78048e-07;,
0.999313;0.0370589;-2.11601e-08;,
-0.286095;-0.197002;0.937731;,
-0.286099;-0.197001;-0.93773;,
0.439888;0.898053;1.17051e-06;,
0.506479;0.862252;1.0105e-06;,
0.229898;0.973215;1.15472e-06;,
0.11539;0.171295;0.978439;,
0.0810049;0.168343;0.982394;,
0.135599;0.149691;0.97939;,
0.135608;0.149691;-0.979389;,
0.099617;0.187989;-0.977106;,
0.0848161;0.173434;-0.981186;,
0.072391;0.968947;0.236434;,
0.301438;0.919722;0.251488;,
0.331544;0.924296;0.18909;,
0.999313;0.0370589;3.42571e-07;,
0.999313;0.0370588;9.50504e-10;,
0.54999;0.529571;-0.645806;,
0.508543;0.861036;-1.76012e-07;,
0.562267;0.826956;-1.8886e-07;,
0.550186;0.830703;0.0850115;,
-0.0296921;0.99315;-0.113013;,
-0.0296921;0.99315;0.113014;,
-0.0498276;0.973192;-0.22453;,
0.0723997;0.968915;0.236562;,
-0.0498277;0.973192;0.224531;,
0.0723996;0.968916;-0.23656;,
-0.0876537;0.324543;-0.941801;,
-0.0876537;0.324543;-0.941801;,
-0.0876537;0.324543;-0.941801;,
-0.0876535;0.324544;0.9418;,
-0.0876535;0.324544;0.9418;,
-0.0876535;0.324544;0.9418;,
-0.0429602;0.639962;-0.767204;,
-0.0429602;0.639962;-0.767204;,
-0.0429602;0.639962;-0.767204;,
0.729896;0.449436;-0.515033;,
0.754517;0.492421;-0.433849;,
0.744293;0.463598;-0.480733;,
0.0418495;0.635237;0.771183;,
0.0418495;0.635237;0.771183;,
0.0418495;0.635237;0.771183;,
0.755474;0.532737;0.38138;,
0.705459;0.691125;0.157079;,
0.732889;0.477468;0.484662;,
0.206111;-0.714138;0.668974;,
0.0921803;-0.63399;0.767828;,
0.366666;-0.633645;0.681212;,
-0.014026;-0.70506;0.709009;,
-0.014026;-0.70506;0.709009;,
0.716509;-0.467362;-0.517869;,
0.789272;-0.26614;-0.553371;,
0.782192;-0.192008;-0.592714;,
0.0733956;-0.699752;-0.710606;,
0.0350691;-0.639821;-0.767723;,
0.0350691;-0.639821;-0.767723;,
-0.14223;-0.610754;0.778942;,
-0.0964004;-0.644741;0.758298;,
-0.14223;-0.610754;0.778942;,
-0.187535;-0.574518;0.796718;,
-0.203139;0.0321058;0.978623;,
0.147717;-0.0757014;0.986128;,
-0.143754;5.18814e-08;0.989614;,
-0.477084;0.587903;0.65327;,
-0.567504;0.620974;0.540676;,
-0.376193;0.54193;0.751526;,
-0.424407;0.682895;-0.594587;,
-0.500792;0.506267;-0.702069;,
-0.500792;0.506267;-0.702069;,
-0.500792;0.506267;-0.702069;,
-0.193478;0.0648218;-0.978961;,
0.0823502;0.0433177;-0.995662;,
0.0183151;0.0651835;-0.997705;,
-0.25957;-1.06427e-09;-0.965724;,
-0.25957;-1.06427e-09;-0.965724;,
-0.25957;-1.06427e-09;-0.965724;,
-0.131833;-0.625157;-0.769284;,
-0.165057;-0.665462;-0.727953;,
0.0350548;-0.572852;-0.818909;,
-0.0980243;-0.582079;-0.807202;,
0.367555;-0.423121;0.828174;,
0.375663;-0.431875;0.819977;,
0.206433;-4.76453e-08;-0.978461;,
0.229281;0.0625984;-0.971345;,
0.363516;-0.436514;-0.822989;,
0.363516;-0.436514;-0.822989;,
0.364079;-0.423745;-0.829389;,
0.364567;-0.41089;-0.83562;,
0.66616;-0.071374;0.742385;,
0.566819;-0.107252;0.816831;,
-0.287764;-0.952827;-0.0965006;,
-0.308749;-0.951144;1.37647e-07;,
-0.287764;-0.952827;-0.0965006;,
-0.263971;-0.945215;-0.19206;,
0.56874;-0.102703;-0.81608;,
0.579698;-0.145554;-0.801726;,
0.56874;-0.102703;-0.81608;,
0.556553;-0.0596304;-0.828669;,
-0.275894;-0.959205;0.0617061;,
-0.220637;-0.975356;1.11548e-07;,
-0.275894;-0.959205;0.0617061;,
-0.329185;-0.936224;0.122973;,
0.161024;-0.150743;-0.975371;,
0.208115;-0.188083;-0.95985;,
0.161024;-0.150743;-0.975371;,
0.113313;-0.112822;-0.987133;,
-0.00615667;0.201261;-0.979518;,
-0.0123551;0.235611;-0.971769;,
0.014296;0.182354;-0.983129;,
0.0395539;0.179032;-0.983048;,
0.0237186;0.189465;0.981601;,
0.0060109;0.164246;0.986401;,
0.15957;-0.153063;0.975248;,
0.22795;-0.109256;0.967524;,
0.15957;-0.153063;0.975248;,
0.0901282;-0.195852;0.976483;,
-0.00615603;0.201262;0.979518;,
-0.0123546;0.235612;0.971769;,
0.367647;-0.929965;2.53981e-05;,
0.082649;-0.996575;0.00274477;,
0.082649;-0.996575;0.00274477;,
0.365569;-0.930784;6.25243e-05;,
0.623196;-0.782065;-0.00134289;,
-0.00222974;2.3596e-05;-0.999998;,
-0.00222974;2.3596e-05;-0.999998;,
-0.00224325;1.17748e-05;-0.999997;,
0.788935;7.3171e-06;-0.614477;,
-0.0395335;0.999215;0.00252782;,
-0.0365416;0.999325;0.00379059;,
-0.0365404;0.999325;0.00379171;,
0.670946;0.741503;-0.00216138;,
0.670055;0.742304;-0.00325084;,
0.670058;0.742302;-0.00324205;,
0.780999;7.81751e-07;0.624532;,
0.781;1.06344e-07;0.624532;,
0.790568;0.0737741;0.607915;,
0.786685;0.267559;0.556362;,
-0.445995;0.895036;-9.10675e-07;,
-0.445995;0.895035;-1.78236e-06;,
-0.445995;0.895036;-9.10675e-07;,
-0.445994;0.895036;-3.89797e-08;,
-0.0432251;-0.999065;-9.51044e-07;,
0.347914;-0.937526;-1.2123e-06;,
0.151472;-0.988462;-1.21766e-06;,
-0.0432257;-0.999065;-5.23013e-08;,
0.523233;-0.852189;-3.68668e-08;,
0.523234;-0.852189;-8.23015e-07;,
0.74928;0.662253;9.78893e-07;,
0.85209;0.523396;4.66537e-07;,
-0.992859;-0.119296;-6.52379e-08;,
-0.992859;-0.119296;-5.29851e-08;,
-0.992859;-0.119296;-6.52379e-08;,
-0.992859;-0.119296;-7.74906e-08;,
0.99994;0.0109538;-6.14438e-07;,
0.99994;0.0109536;-1.11499e-06;,
0.999539;0.0303547;-4.23638e-07;,
0.999539;0.0303547;-1.01284e-07;,
-0.981206;-0.192964;3.60217e-08;,
-0.931695;-0.363243;1.21259e-07;,
-0.96033;-0.278866;7.77856e-08;,
-0.981206;-0.192964;-8.91538e-08;,
0.994309;-0.106533;5.68899e-08;,
0.994309;-0.106533;6.25652e-08;,
0.994309;-0.106533;5.68899e-08;,
0.994309;-0.106533;5.12147e-08;,
-1.0084e-08;-1.0;4.6079e-08;,
-1.0084e-08;-1.0;4.6079e-08;,
-1.0084e-08;-1.0;4.6079e-08;,
-1.0084e-08;-1.0;4.6079e-08;,
-9.93173e-08;1.0;1.67098e-07;,
-9.93173e-08;1.0;1.67098e-07;,
-9.93173e-08;1.0;1.67098e-07;,
-9.93173e-08;1.0;1.67098e-07;,
0.999313;0.0370588;-3.03359e-07;,
0.999313;0.0370588;-2.67854e-08;,
0.976699;0.214616;5.38689e-08;,
0.976699;0.214616;-3.76053e-07;,
-0.251519;-0.967852;-6.79664e-08;,
-0.251519;-0.967852;-2.03444e-07;,
-0.251519;-0.967852;-6.79664e-08;,
-0.251519;-0.967852;6.75181e-08;,
0.999313;0.0370587;-3.05367e-07;,
0.999313;0.0370588;-4.31154e-07;,
0.723507;-0.521048;0.452821;,
0.723507;-0.521048;0.452821;,
0.723507;-0.521048;0.452821;,
0.569629;9.44461e-08;0.821902;,
0.569629;9.44461e-08;0.821902;,
0.569629;9.44461e-08;0.821902;,
0.715102;0.426407;-0.553901;,
0.697683;0.419023;-0.581084;,
0.127648;0.748562;-0.650662;,
0.0428575;0.729653;-0.682474;,
0.0428575;0.729653;-0.682474;,
-0.0422998;0.704498;-0.708444;,
-0.143396;0.742303;0.654541;,
-0.066566;0.726252;0.684198;,
-0.066566;0.726252;0.684198;,
0.0107322;0.705088;0.709039;,
0.679059;-0.449495;0.580373;,
0.679059;-0.449495;0.580373;,
0.657336;-0.440776;0.61125;,
0.0482647;-0.75421;-0.654857;,
0.0482647;-0.75421;-0.654857;,
0.136154;-0.698564;-0.702475;,
0.136154;-0.698564;-0.702475;,
0.681262;-0.465846;-0.564685;,
0.681262;-0.465846;-0.564685;,
0.681262;-0.465846;-0.564685;,
0.697454;-0.419154;-0.581264;,
0.624332;-0.781155;-0.00271859;,
0.624332;-0.781155;-0.00271859;,
0.623692;-0.78167;-4.4261e-08;,
0.076225;-0.997087;0.00280527;,
0.0798117;-0.99681;4.44976e-08;,
0.0798117;-0.99681;4.44976e-08;,
0.788937;1.45842e-05;-0.614475;,
0.788927;9.41042e-08;-0.614487;,
0.788927;9.41042e-08;-0.614487;,
-0.00225665;8.51096e-10;-0.999997;,
-0.00225665;8.51096e-10;-0.999997;,
-0.00225653;4.80049e-08;-0.999997;,
-0.0410293;0.999156;0.00189641;,
-0.0455184;0.998964;-4.52133e-08;,
0.206224;0.0454964;0.977446;,
0.0386311;0.0437573;0.998295;,
-0.070329;0.13063;0.988934;,
0.0928289;1.13233e-06;0.995682;,
0.0928314;5.50995e-08;0.995682;,
0.366708;-0.732269;0.573853;,
0.468116;-0.727489;0.501625;,
0.781;5.03482e-08;0.624531;,
0.781;-5.64786e-09;0.624531;;

 206;
3;0,1,2;,
3;3,4,5;,
3;6,5,4;,
3;5,6,7;,
3;8,9,10;,
3;9,8,11;,
3;11,8,12;,
3;13,14,15;,
3;14,13,16;,
3;13,17,16;,
3;18,19,20;,
3;19,21,20;,
3;22,20,21;,
3;23,24,25;,
3;26,25,24;,
3;26,27,25;,
3;28,29,30;,
3;31,32,33;,
3;34,35,36;,
3;37,38,39;,
3;40,41,42;,
3;43,14,44;,
3;45,46,47;,
3;48,49,50;,
3;41,51,52;,
3;53,54,55;,
3;50,49,35;,
3;56,57,58;,
3;59,60,52;,
3;49,48,61;,
3;62,63,64;,
3;50,65,66;,
3;43,67,55;,
3;67,68,55;,
3;68,69,55;,
3;52,51,70;,
3;71,72,73;,
3;43,44,67;,
3;74,31,33;,
3;74,75,31;,
3;75,74,58;,
3;35,76,50;,
3;52,77,41;,
3;78,79,80;,
3;80,79,81;,
3;82,83,84;,
3;50,66,85;,
3;86,59,52;,
3;74,87,56;,
3;69,88,53;,
3;53,55,69;,
3;58,74,56;,
3;89,90,91;,
3;92,93,94;,
3;76,35,34;,
3;95,96,97;,
3;67,98,68;,
3;99,31,75;,
3;100,101,102;,
3;103,104,105;,
3;106,107,108;,
3;109,110,111;,
3;97,96,112;,
3;112,96,113;,
3;114,70,51;,
3;115,116,117;,
3;118,21,19;,
3;19,18,119;,
3;118,19,120;,
3;109,111,121;,
3;122,19,119;,
3;123,37,39;,
3;67,44,98;,
3;99,32,31;,
3;124,125,126;,
3;127,128,129;,
3;130,131,132;,
3;133,134,135;,
3;136,137,138;,
3;139,140,141;,
3;142,143,144;,
3;145,146,142;,
3;147,148,149;,
3;150,151,152;,
3;153,154,155;,
3;155,156,153;,
3;157,158,16;,
3;16,159,157;,
3;160,161,17;,
3;17,162,160;,
3;163,27,26;,
3;164,165,166;,
3;167,168,169;,
3;170,171,172;,
3;173,174,175;,
3;175,176,173;,
3;177,178,44;,
3;44,158,177;,
3;158,44,14;,
3;14,16,158;,
3;168,94,179;,
3;180,169,168;,
3;181,182,183;,
3;183,175,184;,
3;54,185,186;,
3;186,55,54;,
3;187,188,189;,
3;189,190,187;,
3;191,192,193;,
3;193,194,191;,
3;195,196,197;,
3;197,198,195;,
3;199,200,201;,
3;201,202,199;,
3;111,110,117;,
3;117,116,111;,
3;64,63,38;,
3;38,37,64;,
3;203,204,205;,
3;205,206,203;,
3;108,107,206;,
3;206,205,108;,
3;207,208,104;,
3;104,103,207;,
3;209,210,211;,
3;211,212,209;,
3;213,208,207;,
3;207,214,213;,
3;215,216,217;,
3;215,218,219;,
3;220,221,222;,
3;149,148,223;,
3;224,225,226;,
3;227,228,229;,
3;230,231,232;,
3;232,233,230;,
3;234,235,236;,
3;236,237,234;,
3;238,239,240;,
3;240,241,238;,
3;239,242,243;,
3;243,240,239;,
3;29,28,47;,
3;47,46,29;,
3;244,245,101;,
3;101,100,244;,
3;246,247,248;,
3;248,249,246;,
3;250,251,252;,
3;252,253,250;,
3;254,255,256;,
3;256,257,254;,
3;258,259,260;,
3;260,261,258;,
3;262,263,264;,
3;264,265,262;,
3;266,267,268;,
3;268,269,266;,
3;113,270,271;,
3;271,112,113;,
3;245,244,272;,
3;272,273,245;,
3;272,253,252;,
3;252,273,272;,
3;46,256,255;,
3;255,29,46;,
3;274,275,276;,
3;276,277,274;,
3;97,278,279;,
3;279,95,97;,
3;280,281,282;,
3;283,284,285;,
3;135,286,133;,
3;286,287,133;,
3;288,289,290;,
3;289,291,290;,
3;141,233,139;,
3;233,232,139;,
3;292,293,294;,
3;293,295,294;,
3;144,296,297;,
3;296,298,297;,
3;150,299,300;,
3;301,302,150;,
3;303,304,305;,
3;149,306,147;,
3;215,307,308;,
3;219,309,215;,
3;215,310,218;,
3;311,312,215;,
3;223,313,149;,
3;314,315,149;,
3;222,316,317;,
3;316,318,317;,
3;229,140,227;,
3;140,139,227;,
3;226,319,224;,
3;319,320,224;,
3;321,283,285;,
3;322,323,321;,
3;321,324,322;,
3;324,325,322;,
3;144,326,142;,
3;326,327,142;,
3;231,328,232;,
3;328,329,232;;
 }
MeshTextureCoords {
 330;
0.480942;0.836675;,
0.438977;0.796149;,
0.475873;0.814545;,
0.970557;0.990794;,
0.910841;1.12813;,
1.03299;0.96757;,
0.859049;1.29914;,
1.09422;1.07208;,
0.86354;0.403654;,
1.09422;0.0720823;,
0.859049;0.299141;,
1.15017;0.243088;,
1.18887;0.380429;,
0.163772;0.458609;,
0.254016;0.261329;,
0.20163;0.182511;,
0.158744;0.707434;,
0.118526;0.631932;,
0.163772;0.458609;,
0.10824;0.418734;,
0.118526;0.631932;,
0.0525192;0.37886;,
0.0549286;0.564478;,
0.138489;0.149662;,
0.0719106;0.189021;,
0.0525192;0.37886;,
0.0104375;0.569351;,
0.0549286;0.564478;,
0.459471;0.320294;,
0.512442;0.344428;,
0.346355;0.318905;,
0.603536;0.224826;,
0.904084;0.246596;,
0.615228;0.00924319;,
0.254016;1.26133;,
0.32166;0.937728;,
0.20163;1.18251;,
0.296556;0.899147;,
0.285406;0.894392;,
0.138489;1.14966;,
0.138489;1.14966;,
0.285406;0.894392;,
0.0719106;1.18902;,
0.46102;0.120893;,
0.346355;0.318905;,
0.904084;0.246596;,
0.605685;0.298181;,
0.573791;0.28726;,
0.475873;0.814545;,
0.382757;0.878497;,
0.443645;0.943986;,
0.407056;0.832251;,
0.542188;0.865038;,
0.568662;0.446987;,
0.55572;0.195509;,
0.52268;0.237837;,
0.609325;0.40074;,
0.608411;0.353604;,
0.603091;0.31571;,
0.572628;1.03824;,
0.615228;1.00924;,
0.438977;0.796149;,
0.458216;0.775257;,
0.407056;0.832251;,
0.3979;0.843265;,
0.46102;1.12089;,
0.530992;1.08449;,
0.508157;0.284878;,
0.537443;0.342068;,
0.550696;0.361957;,
0.531015;0.756287;,
1.07191;1.18902;,
1.28541;0.894392;,
0.615228;1.00924;,
0.610923;0.143191;,
0.601865;0.295821;,
0.46102;1.12089;,
0.615228;1.00924;,
0.530992;0.0844886;,
0.572628;0.0382419;,
0.525216;0.0332391;,
0.54484;0.0101157;,
0.566688;0.986992;,
0.54484;1.01012;,
0.572628;1.03824;,
0.525216;1.03324;,
0.566688;0.986992;,
0.587601;0.149262;,
0.553053;0.399851;,
0.501049;0.817123;,
0.531015;0.756287;,
0.458216;0.775257;,
0.615228;0.00924319;,
0.904084;0.246596;,
1.07191;0.189021;,
0.525216;1.03324;,
0.54484;1.01012;,
0.511605;0.966263;,
0.512442;0.344428;,
0.605685;0.298181;,
0.273607;0.849349;,
0.264112;0.840576;,
0.188028;1.00052;,
0.369489;0.785475;,
0.386127;0.867483;,
0.438977;0.796149;,
0.458216;0.775257;,
0.3979;0.843265;,
0.371812;0.771978;,
0.20163;1.18251;,
0.32166;0.937728;,
0.310805;0.916544;,
0.530993;0.948364;,
0.566688;0.986992;,
0.458216;0.775257;,
0.438977;0.796149;,
0.386127;0.867483;,
0.382757;0.878497;,
0.138489;0.149662;,
0.20163;0.182511;,
0.157591;0.153188;,
0.18584;1.16812;,
0.18584;0.168118;,
0.157591;1.15319;,
0.157591;0.153188;,
0.10824;0.418734;,
0.188028;0.000519395;,
0.188028;0.000519395;,
0.10824;0.418734;,
0.18584;0.168118;,
0.0329918;0.96757;,
0.035587;0.840214;,
0.00516219;0.858574;,
0.98726;0.814584;,
0.968088;0.865252;,
1.00516;0.858574;,
0.15017;0.243088;,
0.164887;0.10781;,
0.132138;0.0275465;,
0.088251;0.836063;,
0.101848;0.941153;,
0.132138;1.02755;,
0.86354;0.403654;,
0.768452;0.269999;,
1.17245;0.250886;,
1.22828;0.279237;,
1.18887;0.380429;,
0.878428;1.0911;,
0.901968;1.00213;,
0.921472;0.904467;,
0.878428;0.0910972;,
0.838325;0.169995;,
0.859049;0.299141;,
0.8608;1.05306;,
1.57602;0.797071;,
1.28223;0.866081;,
1.13264;1.02457;,
0.132643;1.02457;,
0.282229;0.866081;,
0.124345;0.934686;,
0.124345;0.934686;,
0.158744;0.707434;,
0.088251;0.836063;,
0.0428174;0.786094;,
1.01044;0.569351;,
0.98726;0.814584;,
1.04282;0.786094;,
0.98726;0.814584;,
1.01044;0.569351;,
0.890198;0.713;,
0.890198;0.713;,
0.921472;0.904467;,
0.98726;0.814584;,
0.921472;0.904467;,
0.890198;0.713;,
0.748273;0.729617;,
0.858715;1.00309;,
0.576016;0.797071;,
0.459471;0.320294;,
0.904084;0.246596;,
0.904084;0.246596;,
0.890198;0.713;,
0.904084;0.246596;,
0.573791;0.28726;,
0.890198;0.713;,
0.530992;0.0844886;,
0.46102;0.120893;,
0.475873;0.814545;,
0.443645;0.943986;,
0.460242;0.922411;,
0.480942;0.836675;,
0.610923;0.143191;,
0.615228;0.00924319;,
0.572628;0.0382419;,
0.587601;0.149262;,
0.501049;0.817123;,
0.503002;0.886612;,
0.542188;0.865038;,
0.531015;0.756287;,
0.530993;0.948364;,
0.503002;0.886612;,
0.501049;0.817123;,
0.528508;0.879238;,
0.157591;1.15319;,
0.188028;1.00052;,
0.264112;0.840576;,
0.296556;0.899147;,
0.273607;0.849349;,
0.310805;0.916544;,
0.519943;0.888479;,
0.480942;0.836675;,
0.460242;0.922411;,
0.511605;0.966263;,
0.18584;1.16812;,
0.188028;1.00052;,
0.822453;0.226885;,
0.768452;0.269999;,
0.86354;0.403654;,
0.838325;0.169995;,
0.858715;0.00309002;,
0.970557;0.990794;,
0.968088;0.865252;,
0.938063;0.933923;,
0.938063;0.933923;,
0.0942154;1.07208;,
0.101848;0.941153;,
0.0715512;0.897635;,
0.0428174;0.786094;,
0.035587;0.840214;,
0.0715512;0.897635;,
0.183311;1.17331;,
0.212052;1.22619;,
0.124345;0.934686;,
0.164887;1.10781;,
0.088251;0.836063;,
0.118526;0.631932;,
0.0549286;0.564478;,
0.0428174;0.786094;,
0.858715;1.00309;,
0.748273;0.729617;,
0.576016;0.797071;,
0.8608;1.05306;,
0.573791;0.28726;,
0.459471;0.320294;,
0.369489;0.785475;,
0.371812;0.771978;,
0.608411;0.353604;,
0.609325;0.40074;,
0.568662;0.446987;,
0.553053;0.399851;,
0.519943;0.888479;,
0.528508;0.879238;,
0.501049;0.817123;,
0.480942;0.836675;,
0.550696;0.361957;,
0.537443;0.342068;,
0.601865;0.295821;,
0.603091;0.31571;,
0.530992;0.0844886;,
0.55572;0.195509;,
0.587601;0.149262;,
0.572628;0.0382419;,
0.55572;0.195509;,
0.568662;0.446987;,
0.609325;0.40074;,
0.587601;0.149262;,
0.603091;0.31571;,
0.608411;0.353604;,
0.553053;0.399851;,
0.550696;0.361957;,
0.542188;0.865038;,
0.503002;0.886612;,
0.438977;0.796149;,
0.458216;0.775257;,
0.511605;0.966263;,
0.530993;0.948364;,
0.528508;0.879238;,
0.519943;0.888479;,
0.460242;0.922411;,
0.443645;0.943986;,
0.132643;0.0245686;,
0.227182;0.243752;,
0.172452;0.250886;,
0.228281;0.279237;,
0.227182;0.243752;,
0.212052;0.226192;,
1.03559;0.840214;,
1.04282;0.786094;,
1.00516;0.858574;,
0.968088;0.865252;,
1.03299;0.96757;,
0.970557;0.990794;,
0.132138;1.02755;,
0.101848;0.941153;,
0.15017;1.24309;,
0.0942154;1.07208;,
0.768452;0.269999;,
1.13264;0.0245686;,
0.8608;0.053059;,
0.910841;0.128135;,
0.901968;0.00212759;,
0.859049;0.299141;,
0.910841;0.128135;,
0.878428;0.0910972;,
0.858715;0.00309002;,
0.838325;0.169995;,
0.858715;1.00309;,
0.8608;0.053059;,
0.768452;0.269999;,
0.8608;0.053059;,
0.859049;0.299141;,
0.86354;0.403654;,
0.859049;0.299141;,
0.968088;0.865252;,
0.968088;0.865252;,
0.98726;0.814584;,
0.901968;1.00213;,
0.970557;0.990794;,
0.910841;1.12813;,
0.035587;0.840214;,
0.0329918;0.96757;,
0.183311;0.173313;,
0.188868;0.380429;,
0.228281;0.279237;,
0.164887;0.10781;,
0.15017;0.243088;,
1.22718;0.243752;,
1.22828;0.279237;,
0.227182;1.24375;,
0.132643;1.02457;;
}
}
 }
 }
 }
 }
 }
 }
 }
 }
 }
 }
