xof 0302txt 0032
Header {
 1;
 0;
 1;
}
template Header {
 <3D82AB43-62DA-11cf-AB39-0020AF71E433>
 WORD major;
 WORD minor;
 DWORD flags;
}

template Vector {
 <3D82AB5E-62DA-11cf-AB39-0020AF71E433>
 FLOAT x;
 FLOAT y;
 FLOAT z;
}

template Coords2d {
 <F6F23F44-7686-11cf-8F52-0040333594A3>
 FLOAT u;
 FLOAT v;
}

template Matrix4x4 {
 <F6F23F45-7686-11cf-8F52-0040333594A3>
 array FLOAT matrix[16];
}

template ColorRGBA {
 <35FF44E0-6C7C-11cf-8F52-0040333594A3>
 FLOAT red;
 FLOAT green;
 FLOAT blue;
 FLOAT alpha;
}

template ColorRGB {
 <D3E16E81-7835-11cf-8F52-0040333594A3>
 FLOAT red;
 FLOAT green;
 FLOAT blue;
}

template TextureFilename {
 <A42790E1-7810-11cf-8F52-0040333594A3>
 STRING filename;
}

template Material {
 <3D82AB4D-62DA-11cf-AB39-0020AF71E433>
 ColorRGBA faceColor;
 FLOAT power;
 ColorRGB specularColor;
 ColorRGB emissiveColor;
 [...]
}

template MeshFace {
 <3D82AB5F-62DA-11cf-AB39-0020AF71E433>
 DWORD nFaceVertexIndices;
 array DWORD faceVertexIndices[nFaceVertexIndices];
}

template MeshTextureCoords {
 <F6F23F40-7686-11cf-8F52-0040333594A3>
 DWORD nTextureCoords;
 array Coords2d textureCoords[nTextureCoords];
}

template MeshMaterialList {
 <F6F23F42-7686-11cf-8F52-0040333594A3>
 DWORD nMaterials;
 DWORD nFaceIndexes;
 array DWORD faceIndexes[nFaceIndexes];
 [Material]
}

template MeshNormals {
 <F6F23F43-7686-11cf-8F52-0040333594A3>
 DWORD nNormals;
 array Vector normals[nNormals];
 DWORD nFaceNormals;
 array MeshFace faceNormals[nFaceNormals];
}

template Mesh {
 <3D82AB44-62DA-11cf-AB39-0020AF71E433>
 DWORD nVertices;
 array Vector vertices[nVertices];
 DWORD nFaces;
 array MeshFace faces[nFaces];
 [...]
}

template FrameTransformMatrix {
 <F6F23F41-7686-11cf-8F52-0040333594A3>
 Matrix4x4 frameMatrix;
}

template Frame {
 <3D82AB46-62DA-11cf-AB39-0020AF71E433>
 [...]
}
template FloatKeys {
 <10DD46A9-775B-11cf-8F52-0040333594A3>
 DWORD nValues;
 array FLOAT values[nValues];
}

template TimedFloatKeys {
 <F406B180-7B3B-11cf-8F52-0040333594A3>
 DWORD time;
 FloatKeys tfkeys;
}

template AnimationKey {
 <10DD46A8-775B-11cf-8F52-0040333594A3>
 DWORD keyType;
 DWORD nKeys;
 array TimedFloatKeys keys[nKeys];
}

template AnimationOptions {
 <E2BF56C0-840F-11cf-8F52-0040333594A3>
 DWORD openclosed;
 DWORD positionquality;
}

template Animation {
 <3D82AB4F-62DA-11cf-AB39-0020AF71E433>
 [...]
}

template AnimationSet {
 <3D82AB50-62DA-11cf-AB39-0020AF71E433>
 [Animation]
}
Frame Line02 {
   FrameTransformMatrix {
-5.15863e-08,0.0,1.18016,0.0,
-6.56595e-08,1.18016,-2.87007e-15,0.0,
-1.18016,-6.56595e-08,-5.15863e-08,0.0,
89.3744,-12.2838,106.865,1.0;;
 }
Mesh Line02 {
 220;
-90.6907;-39.4797;75.83;,
-107.268;-39.3353;92.5881;,
-114.292;-39.3353;75.83;,
-90.5799;-39.4797;75.8995;,
-110.294;-36.2895;95.6137;,
-118.571;-36.2895;75.83;,
-109.259;-34.603;94.5789;,
-117.107;-34.603;75.83;,
-110.113;-30.2383;95.4322;,
-118.314;-30.2383;75.83;,
-104.917;-27.2023;90.2363;,
-110.966;-27.2023;75.83;,
-100.436;-17.7341;85.7561;,
-104.63;-17.7341;75.83;,
-98.0054;-8.6715;83.325;,
-101.192;-8.67149;75.83;,
-96.122;-5.95222;81.4416;,
-98.5284;-5.95222;75.83;,
-94.7971;20.86;80.1167;,
-96.6547;20.86;75.83;,
-100.921;25.6102;86.2409;,
-105.316;25.6102;75.83;,
-95.5888;28.6685;80.9084;,
-97.7744;28.6685;75.83;,
-100.979;33.0209;86.2989;,
-105.398;33.0209;75.83;,
-105.398;33.0209;75.83;,
-103.006;41.5926;88.3253;,
-108.263;41.5926;75.83;,
-100.979;33.0209;86.2989;,
-100.786;52.0349;86.1057;,
-105.125;52.0349;75.83;,
-96.2354;58.0816;81.555;,
-98.6889;58.0816;75.83;,
-92.3375;60.0102;77.6571;,
-93.1763;60.0102;75.83;,
-90.2891;60.297;75.6087;,
-90.2795;60.297;75.83;,
-90.4524;-39.3353;99.4715;,
-90.4524;-39.4797;75.8702;,
-90.4524;-36.2895;103.75;,
-90.4524;-34.603;102.287;,
-90.4524;-30.2383;103.494;,
-90.4524;-27.2023;96.1455;,
-90.4524;-17.7341;89.8096;,
-90.4524;-8.6715;86.3715;,
-90.4524;-5.95222;83.7079;,
-96.122;-5.95222;81.4416;,
-90.4524;20.86;81.8342;,
-94.7971;20.86;80.1167;,
-90.4524;20.86;81.8342;,
-90.4524;25.6102;90.4952;,
-100.921;25.6102;86.2409;,
-90.4524;28.6685;82.9539;,
-90.4524;28.6685;82.9539;,
-95.5888;28.6685;80.9084;,
-90.4524;33.0209;90.5772;,
-100.979;33.0209;86.2989;,
-100.979;33.0209;86.2989;,
-90.4524;41.5926;93.443;,
-103.006;41.5926;88.3253;,
-90.4524;33.0209;90.5772;,
-90.4524;52.0349;90.304;,
-90.4524;52.0349;90.304;,
-90.4524;58.0816;83.8684;,
-90.4524;60.0102;78.3558;,
-90.4524;60.297;75.459;,
-73.6943;-39.3353;92.448;,
-90.4524;-39.4797;75.8702;,
-90.3829;-39.4797;75.7594;,
-73.6943;-39.3353;92.448;,
-70.6687;-36.2895;95.4736;,
-71.7035;-34.603;94.4388;,
-70.8502;-30.2383;95.2921;,
-76.0461;-27.2023;90.0962;,
-80.5263;-17.7341;85.616;,
-82.9574;-8.6715;83.1849;,
-84.8408;-5.95222;81.3015;,
-86.1657;20.86;79.9766;,
-90.4524;20.86;81.8342;,
-90.4524;20.86;81.8342;,
-80.0415;25.6102;86.1008;,
-90.4524;25.6102;90.4952;,
-90.4524;20.86;81.8342;,
-85.374;28.6685;80.7683;,
-80.0415;25.6102;86.1008;,
-79.9835;33.0209;86.1588;,
-90.4524;33.0209;90.5772;,
-77.9571;41.5926;88.1852;,
-90.4524;41.5926;93.443;,
-90.4524;33.0209;90.5772;,
-79.9835;33.0209;86.1588;,
-77.9571;41.5926;88.1852;,
-80.1767;52.0349;85.9656;,
-77.9571;41.5926;88.1852;,
-84.7274;58.0816;81.4149;,
-80.1767;52.0349;85.9656;,
-88.6253;60.0102;77.517;,
-90.6737;60.297;75.4686;,
-66.8109;-39.3353;75.6319;,
-90.4121;-39.4797;75.6319;,
-62.5321;-36.2895;75.6319;,
-70.6687;-36.2895;95.4736;,
-63.9955;-34.603;75.6319;,
-71.7035;-34.603;94.4388;,
-62.7887;-30.2383;75.6319;,
-62.7887;-30.2383;75.6319;,
-70.1368;-27.2023;75.6319;,
-76.4728;-17.7341;75.6319;,
-79.9109;-8.67149;75.6319;,
-82.5744;-5.95222;75.6319;,
-84.8408;-5.95222;81.3015;,
-84.4481;20.86;75.6319;,
-86.1657;20.86;79.9766;,
-84.8408;-5.95222;81.3015;,
-82.5744;-5.95222;75.6319;,
-75.7872;25.6102;75.6319;,
-86.1657;20.86;79.9766;,
-75.7872;25.6102;75.6319;,
-80.0415;25.6102;86.1008;,
-83.3285;28.6685;75.6319;,
-80.0415;25.6102;86.1008;,
-75.7872;25.6102;75.6319;,
-75.7051;33.0209;75.6319;,
-85.374;28.6685;80.7683;,
-83.3285;28.6685;75.6319;,
-75.7051;33.0209;75.6319;,
-72.8394;41.5926;75.6319;,
-77.9571;41.5926;88.1852;,
-77.9571;41.5926;88.1852;,
-75.9783;52.0349;75.6319;,
-77.9571;41.5926;88.1852;,
-75.9783;52.0349;75.6319;,
-82.414;58.0816;75.6319;,
-75.9783;52.0349;75.6319;,
-87.9265;60.0102;75.6319;,
-90.8233;60.297;75.6319;,
-73.8344;-39.3353;58.8738;,
-90.523;-39.4797;75.5624;,
-70.8088;-36.2895;55.8482;,
-71.8436;-34.603;56.883;,
-70.9903;-30.2383;56.0297;,
-76.1862;-27.2023;61.2256;,
-70.1368;-27.2023;75.6319;,
-80.6664;-17.7341;65.7058;,
-80.6664;-17.7341;65.7058;,
-83.0975;-8.67149;68.1369;,
-84.9809;-5.95221;70.0203;,
-82.5744;-5.95222;75.6319;,
-86.3058;20.86;71.3452;,
-82.5744;-5.95222;75.6319;,
-84.9809;-5.95221;70.0203;,
-80.1816;25.6102;65.221;,
-75.7872;25.6102;75.6319;,
-84.4481;20.86;75.6319;,
-86.3058;20.86;71.3452;,
-80.1816;25.6102;65.221;,
-75.7872;25.6102;75.6319;,
-85.5141;28.6685;70.5535;,
-75.7872;25.6102;75.6319;,
-80.1236;33.0209;65.163;,
-85.5141;28.6685;70.5535;,
-78.0972;41.5926;63.1366;,
-72.8394;41.5926;75.6319;,
-80.3167;52.0349;65.3562;,
-75.9783;52.0349;75.6319;,
-84.8674;58.0816;69.9069;,
-82.414;58.0816;75.6319;,
-88.7654;60.0102;73.8048;,
-84.8674;58.0816;69.9069;,
-90.8138;60.297;75.8532;,
-90.6505;-39.3353;51.9904;,
-90.6505;-39.4797;75.5916;,
-90.6505;-36.2895;47.7116;,
-90.6505;-34.603;49.175;,
-90.6505;-30.2383;47.9682;,
-90.6505;-27.2023;55.3163;,
-76.1862;-27.2023;61.2256;,
-90.6505;-17.7341;61.6523;,
-90.6505;-27.2023;55.3163;,
-90.6505;-8.67149;65.0904;,
-90.6505;-5.95221;67.754;,
-90.6505;20.86;69.6277;,
-90.6505;25.6102;60.9667;,
-90.6505;28.6685;68.508;,
-90.6505;33.0209;60.8846;,
-90.6505;41.5926;58.0189;,
-90.6505;52.0349;61.1578;,
-90.6505;58.0816;67.5935;,
-90.6505;60.0102;73.106;,
-90.6505;58.0816;67.5935;,
-90.6505;60.297;76.0029;,
-107.409;-39.3353;59.0139;,
-90.72;-39.4797;75.7025;,
-110.434;-36.2895;55.9883;,
-109.399;-34.603;57.0231;,
-110.253;-30.2383;56.1698;,
-90.6505;-30.2383;47.9682;,
-105.057;-27.2023;61.3657;,
-110.253;-30.2383;56.1698;,
-100.577;-17.7341;65.8459;,
-98.1455;-8.67149;68.277;,
-96.2621;-5.95221;70.1604;,
-94.9371;20.86;71.4853;,
-101.061;25.6102;65.3611;,
-95.7289;28.6685;70.6936;,
-101.119;33.0209;65.3031;,
-103.146;41.5926;63.2767;,
-100.926;52.0349;65.4963;,
-90.6505;52.0349;61.1578;,
-96.3755;58.0816;70.047;,
-100.926;52.0349;65.4963;,
-92.4776;60.0102;73.9449;,
-90.4292;60.297;75.9933;,
-90.72;-39.4797;75.7025;,
-107.409;-39.3353;59.0139;,
-110.434;-36.2895;55.9883;,
-109.399;-34.603;57.0231;,
-101.119;33.0209;65.3031;,
-103.146;41.5926;63.2767;;

 272;
3;0,1,2;,
3;0,3,1;,
3;2,4,5;,
3;2,1,4;,
3;5,6,7;,
3;5,4,6;,
3;7,8,9;,
3;7,6,8;,
3;9,10,11;,
3;9,8,10;,
3;11,12,13;,
3;11,10,12;,
3;13,14,15;,
3;13,12,14;,
3;15,16,17;,
3;15,14,16;,
3;17,18,19;,
3;17,16,18;,
3;19,20,21;,
3;19,18,20;,
3;21,22,23;,
3;21,20,22;,
3;23,24,25;,
3;23,22,24;,
3;26,27,28;,
3;26,29,27;,
3;28,30,31;,
3;28,27,30;,
3;31,32,33;,
3;31,30,32;,
3;33,34,35;,
3;33,32,34;,
3;35,36,37;,
3;35,34,36;,
3;3,38,1;,
3;3,39,38;,
3;1,40,4;,
3;1,38,40;,
3;4,41,6;,
3;4,40,41;,
3;6,42,8;,
3;6,41,42;,
3;8,43,10;,
3;8,42,43;,
3;10,44,12;,
3;10,43,44;,
3;12,45,14;,
3;12,44,45;,
3;14,46,16;,
3;14,45,46;,
3;47,48,49;,
3;16,46,50;,
3;49,51,52;,
3;49,48,51;,
3;20,53,22;,
3;52,51,54;,
3;55,56,57;,
3;55,54,56;,
3;58,59,60;,
3;58,61,59;,
3;27,62,30;,
3;60,59,63;,
3;30,64,32;,
3;30,62,64;,
3;32,65,34;,
3;32,64,65;,
3;34,66,36;,
3;34,65,66;,
3;39,67,38;,
3;68,69,70;,
3;38,71,40;,
3;38,67,71;,
3;40,72,41;,
3;40,71,72;,
3;41,73,42;,
3;41,72,73;,
3;42,74,43;,
3;42,73,74;,
3;43,75,44;,
3;43,74,75;,
3;44,76,45;,
3;44,75,76;,
3;45,77,46;,
3;45,76,77;,
3;46,78,79;,
3;46,77,78;,
3;80,81,82;,
3;83,78,81;,
3;51,84,54;,
3;51,85,84;,
3;54,86,56;,
3;54,84,86;,
3;87,88,89;,
3;90,91,92;,
3;59,93,63;,
3;59,94,93;,
3;62,95,64;,
3;62,96,95;,
3;64,97,65;,
3;64,95,97;,
3;65,98,66;,
3;65,97,98;,
3;69,99,70;,
3;69,100,99;,
3;70,101,102;,
3;70,99,101;,
3;102,103,104;,
3;102,101,103;,
3;72,105,73;,
3;104,103,106;,
3;73,107,74;,
3;73,105,107;,
3;74,108,75;,
3;74,107,108;,
3;75,109,76;,
3;75,108,109;,
3;76,110,77;,
3;76,109,110;,
3;111,112,113;,
3;114,115,112;,
3;78,116,81;,
3;117,112,118;,
3;119,120,84;,
3;121,122,120;,
3;84,123,86;,
3;124,125,126;,
3;86,127,128;,
3;86,123,127;,
3;129,130,93;,
3;131,127,132;,
3;96,133,95;,
3;96,134,133;,
3;95,135,97;,
3;95,133,135;,
3;97,136,98;,
3;97,135,136;,
3;100,137,99;,
3;100,138,137;,
3;99,139,101;,
3;99,137,139;,
3;101,140,103;,
3;101,139,140;,
3;103,141,106;,
3;103,140,141;,
3;106,142,143;,
3;106,141,142;,
3;107,144,108;,
3;143,142,145;,
3;108,146,109;,
3;108,144,146;,
3;109,147,110;,
3;109,146,147;,
3;148,149,112;,
3;150,151,149;,
3;112,152,153;,
3;154,155,156;,
3;157,158,120;,
3;159,152,158;,
3;125,160,126;,
3;125,161,160;,
3;126,162,163;,
3;126,160,162;,
3;163,164,165;,
3;163,162,164;,
3;165,166,167;,
3;165,164,166;,
3;133,168,135;,
3;133,169,168;,
3;135,170,136;,
3;135,168,170;,
3;138,171,137;,
3;138,172,171;,
3;137,173,139;,
3;137,171,173;,
3;139,174,140;,
3;139,173,174;,
3;140,175,141;,
3;140,174,175;,
3;141,176,142;,
3;141,175,176;,
3;177,178,144;,
3;177,179,178;,
3;144,180,146;,
3;144,178,180;,
3;146,181,147;,
3;146,180,181;,
3;147,182,155;,
3;147,181,182;,
3;155,183,156;,
3;155,182,183;,
3;156,184,161;,
3;156,183,184;,
3;161,185,160;,
3;161,184,185;,
3;160,186,162;,
3;160,185,186;,
3;162,187,164;,
3;162,186,187;,
3;164,188,166;,
3;164,187,188;,
3;169,189,168;,
3;169,190,189;,
3;168,191,170;,
3;168,189,191;,
3;172,192,171;,
3;172,193,192;,
3;171,194,173;,
3;171,192,194;,
3;173,195,174;,
3;173,194,195;,
3;174,196,175;,
3;174,195,196;,
3;197,198,179;,
3;197,199,198;,
3;179,200,178;,
3;179,198,200;,
3;178,201,180;,
3;178,200,201;,
3;180,202,181;,
3;180,201,202;,
3;181,203,182;,
3;181,202,203;,
3;182,204,183;,
3;182,203,204;,
3;183,205,184;,
3;183,204,205;,
3;184,206,185;,
3;184,205,206;,
3;185,207,186;,
3;185,206,207;,
3;186,208,187;,
3;186,207,208;,
3;209,210,190;,
3;209,211,210;,
3;190,212,189;,
3;190,210,212;,
3;189,213,191;,
3;189,212,213;,
3;214,2,215;,
3;214,0,2;,
3;215,5,216;,
3;215,2,5;,
3;216,7,217;,
3;216,5,7;,
3;217,9,199;,
3;217,7,9;,
3;199,11,198;,
3;199,9,11;,
3;198,13,200;,
3;198,11,13;,
3;200,15,201;,
3;200,13,15;,
3;201,17,202;,
3;201,15,17;,
3;202,19,203;,
3;202,17,19;,
3;203,21,204;,
3;203,19,21;,
3;204,23,205;,
3;204,21,23;,
3;205,25,206;,
3;205,23,25;,
3;218,28,219;,
3;218,26,28;,
3;219,31,211;,
3;219,28,31;,
3;211,33,210;,
3;211,31,33;,
3;210,35,212;,
3;210,33,35;,
3;212,37,213;,
3;212,35,37;;
MeshMaterialList {
 1;
 272;
  0,
  0,
  0,
  0,
  0,
  0,
  0,
  0,
  0,
  0,
  0,
  0,
  0,
  0,
  0,
  0,
  0,
  0,
  0,
  0,
  0,
  0,
  0,
  0,
  0,
  0,
  0,
  0,
  0,
  0,
  0,
  0,
  0,
  0,
  0,
  0,
  0,
  0,
  0,
  0,
  0,
  0,
  0,
  0,
  0,
  0,
  0,
  0,
  0,
  0,
  0,
  0,
  0,
  0,
  0,
  0,
  0,
  0,
  0,
  0,
  0,
  0,
  0,
  0,
  0,
  0,
  0,
  0,
  0,
  0,
  0,
  0,
  0,
  0,
  0,
  0,
  0,
  0,
  0,
  0,
  0,
  0,
  0,
  0,
  0,
  0,
  0,
  0,
  0,
  0,
  0,
  0,
  0,
  0,
  0,
  0,
  0,
  0,
  0,
  0,
  0,
  0,
  0,
  0,
  0,
  0,
  0,
  0,
  0,
  0,
  0,
  0,
  0,
  0,
  0,
  0,
  0,
  0,
  0,
  0,
  0,
  0,
  0,
  0,
  0,
  0,
  0,
  0,
  0,
  0,
  0,
  0,
  0,
  0,
  0,
  0,
  0,
  0,
  0,
  0,
  0,
  0,
  0,
  0,
  0,
  0,
  0,
  0,
  0,
  0,
  0,
  0,
  0,
  0,
  0,
  0,
  0,
  0,
  0,
  0,
  0,
  0,
  0,
  0,
  0,
  0,
  0,
  0,
  0,
  0,
  0,
  0,
  0,
  0,
  0,
  0,
  0,
  0,
  0,
  0,
  0,
  0,
  0,
  0,
  0,
  0,
  0,
  0,
  0,
  0,
  0,
  0,
  0,
  0,
  0,
  0,
  0,
  0,
  0,
  0,
  0,
  0,
  0,
  0,
  0,
  0,
  0,
  0,
  0,
  0,
  0,
  0,
  0,
  0,
  0,
  0,
  0,
  0,
  0,
  0,
  0,
  0,
  0,
  0,
  0,
  0,
  0,
  0,
  0,
  0,
  0,
  0,
  0,
  0,
  0,
  0,
  0,
  0,
  0,
  0,
  0,
  0,
  0,
  0,
  0,
  0,
  0,
  0,
  0,
  0,
  0,
  0,
  0,
  0,
  0,
  0,
  0,
  0,
  0,
  0,
  0,
  0,
  0,
  0,
  0,
  0,
  0,
  0,
  0,
  0,
  0,
  0;;
Material {
 0.101961;0.988235;0.0588235;1.0;;
 50.000000;
 0.898039;0.898039;0.898039;;
 0.101961;0.988235;0.0588235;;
TextureFilename {
"BPAWN.JPG";
}
 }
}

 MeshNormals {
 220;
-0.999982;-0.00309547;0.00519017;,
-0.952172;-0.244226;0.183638;,
-0.952172;-0.0428424;0.302546;,
-0.999982;-0.00585867;0.00148124;,
-0.128388;-0.715581;0.68663;,
-0.128387;-0.0204713;0.991513;,
0.22754;-0.701249;0.67563;,
0.227541;-0.0181149;0.9736;,
0.462975;-0.593108;0.658694;,
0.462975;0.0463762;0.885157;,
0.777354;-0.468099;0.420244;,
0.777354;-0.0338386;0.628153;,
0.459006;-0.637152;0.619153;,
0.459006;-0.0127271;0.888342;,
0.541135;-0.590415;0.598818;,
0.541135;0.00594223;0.840915;,
0.415729;-0.664076;0.621428;,
0.415729;-0.0301573;0.908988;,
-0.496062;-0.595146;0.632237;,
-0.496062;0.0262273;0.867891;,
0.0659004;-0.701154;0.709958;,
0.0659005;0.00622478;0.997807;,
0.0743394;-0.726041;0.683621;,
0.0743394;-0.0299957;0.996782;,
-0.641624;-0.567511;0.515994;,
-0.641624;-0.0364281;0.766154;,
-0.641624;-0.0364281;0.766154;,
-0.0153457;-0.711664;0.702353;,
-0.0153457;-0.00658398;0.999861;,
-0.641624;-0.567511;0.515994;,
0.530235;-0.591589;0.607349;,
0.530236;0.0111438;0.847777;,
0.856213;-0.353509;0.376737;,
0.856213;0.0164244;0.516362;,
0.961095;-0.176025;0.212863;,
0.961096;0.026049;0.274985;,
-0.997006;0.033196;-0.0698308;,
-0.997006;-0.0259044;-0.0728503;,
-0.952172;-0.302546;-0.0428423;,
-0.999982;-0.00519004;-0.00309543;,
-0.128388;-0.991513;-0.0204711;,
0.227539;-0.9736;-0.0181148;,
0.462975;-0.885157;0.0463764;,
0.777354;-0.628153;-0.0338384;,
0.459006;-0.888342;-0.0127271;,
0.541135;-0.840915;0.00594235;,
0.415729;-0.908988;-0.0301571;,
0.415729;-0.664076;0.621428;,
-0.467936;-0.82187;0.324908;,
-0.496062;-0.595146;0.632237;,
0.0647538;-0.926611;0.370403;,
0.444306;-0.89104;0.0929468;,
0.0659004;-0.701154;0.709958;,
0.0743393;-0.996782;-0.0299955;,
0.0743393;-0.996782;-0.0299955;,
0.0743394;-0.726041;0.683621;,
-0.763675;-0.628725;0.146646;,
-0.641624;-0.567511;0.515994;,
-0.641624;-0.567511;0.515994;,
0.0477748;-0.996014;0.0753274;,
-0.0153457;-0.711664;0.702353;,
-0.763675;-0.628725;0.146646;,
0.530235;-0.847777;0.0111442;,
0.530235;-0.847777;0.0111442;,
0.856213;-0.516362;0.0164248;,
0.961095;-0.274985;0.0260494;,
-0.997006;0.0728504;-0.0259043;,
-0.952172;-0.183638;-0.244226;,
-0.999982;-0.00519004;-0.00309543;,
-0.999982;-0.00148143;-0.00585872;,
-0.952172;-0.183638;-0.244226;,
-0.128388;-0.68663;-0.71558;,
0.227539;-0.675631;-0.701248;,
0.462975;-0.658694;-0.593108;,
0.777354;-0.420244;-0.468098;,
0.459006;-0.619154;-0.637152;,
0.541134;-0.598819;-0.590414;,
0.562289;-0.692879;-0.451387;,
-0.482372;-0.75497;-0.444227;,
0.0639891;-0.915667;-0.396812;,
-0.859264;-0.47127;-0.198921;,
-0.874769;-0.383138;-0.296623;,
-0.859264;-0.47127;-0.198921;,
-0.86136;-0.466109;-0.201992;,
0.0743394;-0.683622;-0.726041;,
0.916073;-0.369448;-0.155943;,
-0.693111;-0.415765;-0.588844;,
-0.294491;-0.88085;-0.370645;,
-0.295175;-0.880456;-0.371038;,
-0.294491;-0.88085;-0.370645;,
-0.295858;-0.880061;-0.371431;,
-0.295858;-0.880061;-0.371431;,
-0.295175;-0.880456;-0.371038;,
0.530235;-0.60735;-0.591588;,
0.268163;-0.887965;-0.373639;,
0.856213;-0.376738;-0.353509;,
0.530235;-0.60735;-0.591588;,
0.961095;-0.212865;-0.176023;,
-0.997006;0.0698272;0.0331998;,
-0.952172;0.0428423;-0.302546;,
-0.999982;0.00309527;-0.00519008;,
-0.128388;0.0204709;-0.991513;,
-0.128388;-0.68663;-0.71558;,
0.227539;0.0181146;-0.973601;,
0.227539;-0.675631;-0.701248;,
0.462975;-0.0463767;-0.885157;,
0.462975;-0.0463767;-0.885157;,
0.777354;0.0338383;-0.628153;,
0.459006;0.0127267;-0.888342;,
0.541135;-0.00594294;-0.840915;,
0.695693;-0.0899095;-0.712691;,
0.0639896;-0.36689;-0.928061;,
-0.496062;-0.0262292;-0.867891;,
0.0639896;-0.36689;-0.928061;,
0.0647539;-0.370404;-0.926611;,
0.0647539;-0.370404;-0.926611;,
-0.859265;-0.19258;-0.473896;,
-0.86136;-0.186761;-0.472419;,
-0.86136;-0.186761;-0.472419;,
0.914807;-0.149432;-0.375232;,
0.0743397;0.0299949;-0.996782;,
0.916073;-0.150972;-0.371507;,
0.916073;-0.150972;-0.371507;,
-0.641624;0.0364282;-0.766154;,
0.0743394;-0.683622;-0.726041;,
0.0743397;0.0299949;-0.996782;,
-0.641624;0.0364282;-0.766154;,
-0.0153457;0.0065836;-0.999861;,
-0.294491;-0.36077;-0.88494;,
0.266886;-0.362743;-0.892854;,
0.530236;-0.0111446;-0.847777;,
0.268163;-0.363685;-0.892089;,
0.530236;-0.0111446;-0.847777;,
0.856213;-0.0164249;-0.516362;,
0.530236;-0.0111446;-0.847777;,
0.961096;-0.0260489;-0.274985;,
-0.997006;0.0259034;0.0728537;,
-0.952171;0.244227;-0.183638;,
-0.999982;0.00585887;-0.00148095;,
-0.128387;0.715581;-0.68663;,
0.227539;0.701249;-0.67563;,
0.462974;0.593108;-0.658694;,
0.777354;0.468098;-0.420243;,
0.777354;0.0338383;-0.628153;,
0.459006;0.637152;-0.619153;,
0.459006;0.637152;-0.619153;,
0.541135;0.590415;-0.598818;,
0.415729;0.664077;-0.621427;,
0.0639894;0.396812;-0.915667;,
-0.496062;0.595146;-0.632237;,
0.0647542;0.393299;-0.917127;,
0.415729;0.664077;-0.621427;,
0.0659001;0.701155;-0.709957;,
-0.859264;0.198921;-0.47127;,
-0.496062;-0.0262292;-0.867891;,
-0.496062;0.595146;-0.632237;,
0.0659001;0.701155;-0.709957;,
0.914806;0.159665;-0.370994;,
0.074339;0.726042;-0.68362;,
0.916073;0.155943;-0.369449;,
-0.641624;0.567512;-0.515993;,
0.074339;0.726042;-0.68362;,
-0.0153456;0.711664;-0.702352;,
-0.0153457;0.0065836;-0.999861;,
0.530236;0.591589;-0.607349;,
0.530236;-0.0111446;-0.847777;,
0.856213;0.353509;-0.376737;,
0.856213;-0.0164249;-0.516362;,
0.961095;0.176026;-0.212863;,
0.856213;0.353509;-0.376737;,
-0.997006;-0.0331911;0.0698327;,
-0.952171;0.302546;0.0428426;,
-0.999982;0.00519029;0.00309555;,
-0.128387;0.991513;0.0204712;,
0.227539;0.9736;0.0181152;,
0.462975;0.885157;-0.046376;,
0.777354;0.628152;0.0338386;,
0.777354;0.468098;-0.420243;,
0.459006;0.888342;0.0127273;,
0.777354;0.628152;0.0338386;,
0.541135;0.840915;-0.00594204;,
0.415729;0.908988;0.0301575;,
-0.496062;0.867891;-0.0262269;,
0.0659001;0.997807;-0.00622416;,
0.0743388;0.996782;0.0299964;,
-0.641624;0.766154;0.0364287;,
-0.0153455;0.999861;0.00658428;,
0.530236;0.847777;-0.0111438;,
0.856213;0.516362;-0.016424;,
0.961095;0.274986;-0.0260475;,
0.856213;0.516362;-0.016424;,
-0.997006;-0.0728486;0.0259096;,
-0.952172;0.183638;0.244226;,
-0.999982;0.00148127;0.00585875;,
-0.128386;0.68663;0.715581;,
0.22754;0.67563;0.701249;,
0.462975;0.658694;0.593108;,
0.462975;0.885157;-0.046376;,
0.777354;0.420243;0.468098;,
0.462975;0.658694;0.593108;,
0.459006;0.619153;0.637152;,
0.541135;0.598818;0.590415;,
0.415729;0.621427;0.664076;,
-0.496062;0.632237;0.595146;,
0.0659002;0.709957;0.701155;,
0.0743389;0.683621;0.726042;,
-0.641624;0.515994;0.567511;,
-0.0153456;0.702352;0.711664;,
0.530236;0.607349;0.591589;,
0.530236;0.847777;-0.0111438;,
0.856213;0.376737;0.353509;,
0.530236;0.607349;0.591589;,
0.961095;0.212863;0.176025;,
-0.997006;-0.0698312;-0.0331922;,
-0.999982;0.00148127;0.00585875;,
-0.952172;0.183638;0.244226;,
-0.128386;0.68663;0.715581;,
0.22754;0.67563;0.701249;,
-0.641624;0.515994;0.567511;,
-0.0153456;0.702352;0.711664;;

 272;
3;0,1,2;,
3;0,3,1;,
3;2,4,5;,
3;2,1,4;,
3;5,6,7;,
3;5,4,6;,
3;7,8,9;,
3;7,6,8;,
3;9,10,11;,
3;9,8,10;,
3;11,12,13;,
3;11,10,12;,
3;13,14,15;,
3;13,12,14;,
3;15,16,17;,
3;15,14,16;,
3;17,18,19;,
3;17,16,18;,
3;19,20,21;,
3;19,18,20;,
3;21,22,23;,
3;21,20,22;,
3;23,24,25;,
3;23,22,24;,
3;26,27,28;,
3;26,29,27;,
3;28,30,31;,
3;28,27,30;,
3;31,32,33;,
3;31,30,32;,
3;33,34,35;,
3;33,32,34;,
3;35,36,37;,
3;35,34,36;,
3;3,38,1;,
3;3,39,38;,
3;1,40,4;,
3;1,38,40;,
3;4,41,6;,
3;4,40,41;,
3;6,42,8;,
3;6,41,42;,
3;8,43,10;,
3;8,42,43;,
3;10,44,12;,
3;10,43,44;,
3;12,45,14;,
3;12,44,45;,
3;14,46,16;,
3;14,45,46;,
3;47,48,49;,
3;16,46,50;,
3;49,51,52;,
3;49,48,51;,
3;20,53,22;,
3;52,51,54;,
3;55,56,57;,
3;55,54,56;,
3;58,59,60;,
3;58,61,59;,
3;27,62,30;,
3;60,59,63;,
3;30,64,32;,
3;30,62,64;,
3;32,65,34;,
3;32,64,65;,
3;34,66,36;,
3;34,65,66;,
3;39,67,38;,
3;68,69,70;,
3;38,71,40;,
3;38,67,71;,
3;40,72,41;,
3;40,71,72;,
3;41,73,42;,
3;41,72,73;,
3;42,74,43;,
3;42,73,74;,
3;43,75,44;,
3;43,74,75;,
3;44,76,45;,
3;44,75,76;,
3;45,77,46;,
3;45,76,77;,
3;46,78,79;,
3;46,77,78;,
3;80,81,82;,
3;83,78,81;,
3;51,84,54;,
3;51,85,84;,
3;54,86,56;,
3;54,84,86;,
3;87,88,89;,
3;90,91,92;,
3;59,93,63;,
3;59,94,93;,
3;62,95,64;,
3;62,96,95;,
3;64,97,65;,
3;64,95,97;,
3;65,98,66;,
3;65,97,98;,
3;69,99,70;,
3;69,100,99;,
3;70,101,102;,
3;70,99,101;,
3;102,103,104;,
3;102,101,103;,
3;72,105,73;,
3;104,103,106;,
3;73,107,74;,
3;73,105,107;,
3;74,108,75;,
3;74,107,108;,
3;75,109,76;,
3;75,108,109;,
3;76,110,77;,
3;76,109,110;,
3;111,112,113;,
3;114,115,112;,
3;78,116,81;,
3;117,112,118;,
3;119,120,84;,
3;121,122,120;,
3;84,123,86;,
3;124,125,126;,
3;86,127,128;,
3;86,123,127;,
3;129,130,93;,
3;131,127,132;,
3;96,133,95;,
3;96,134,133;,
3;95,135,97;,
3;95,133,135;,
3;97,136,98;,
3;97,135,136;,
3;100,137,99;,
3;100,138,137;,
3;99,139,101;,
3;99,137,139;,
3;101,140,103;,
3;101,139,140;,
3;103,141,106;,
3;103,140,141;,
3;106,142,143;,
3;106,141,142;,
3;107,144,108;,
3;143,142,145;,
3;108,146,109;,
3;108,144,146;,
3;109,147,110;,
3;109,146,147;,
3;148,149,112;,
3;150,151,149;,
3;112,152,153;,
3;154,155,156;,
3;157,158,120;,
3;159,152,158;,
3;125,160,126;,
3;125,161,160;,
3;126,162,163;,
3;126,160,162;,
3;163,164,165;,
3;163,162,164;,
3;165,166,167;,
3;165,164,166;,
3;133,168,135;,
3;133,169,168;,
3;135,170,136;,
3;135,168,170;,
3;138,171,137;,
3;138,172,171;,
3;137,173,139;,
3;137,171,173;,
3;139,174,140;,
3;139,173,174;,
3;140,175,141;,
3;140,174,175;,
3;141,176,142;,
3;141,175,176;,
3;177,178,144;,
3;177,179,178;,
3;144,180,146;,
3;144,178,180;,
3;146,181,147;,
3;146,180,181;,
3;147,182,155;,
3;147,181,182;,
3;155,183,156;,
3;155,182,183;,
3;156,184,161;,
3;156,183,184;,
3;161,185,160;,
3;161,184,185;,
3;160,186,162;,
3;160,185,186;,
3;162,187,164;,
3;162,186,187;,
3;164,188,166;,
3;164,187,188;,
3;169,189,168;,
3;169,190,189;,
3;168,191,170;,
3;168,189,191;,
3;172,192,171;,
3;172,193,192;,
3;171,194,173;,
3;171,192,194;,
3;173,195,174;,
3;173,194,195;,
3;174,196,175;,
3;174,195,196;,
3;197,198,179;,
3;197,199,198;,
3;179,200,178;,
3;179,198,200;,
3;178,201,180;,
3;178,200,201;,
3;180,202,181;,
3;180,201,202;,
3;181,203,182;,
3;181,202,203;,
3;182,204,183;,
3;182,203,204;,
3;183,205,184;,
3;183,204,205;,
3;184,206,185;,
3;184,205,206;,
3;185,207,186;,
3;185,206,207;,
3;186,208,187;,
3;186,207,208;,
3;209,210,190;,
3;209,211,210;,
3;190,212,189;,
3;190,210,212;,
3;189,213,191;,
3;189,212,213;,
3;214,2,215;,
3;214,0,2;,
3;215,5,216;,
3;215,2,5;,
3;216,7,217;,
3;216,5,7;,
3;217,9,199;,
3;217,7,9;,
3;199,11,198;,
3;199,9,11;,
3;198,13,200;,
3;198,11,13;,
3;200,15,201;,
3;200,13,15;,
3;201,17,202;,
3;201,15,17;,
3;202,19,203;,
3;202,17,19;,
3;203,21,204;,
3;203,19,21;,
3;204,23,205;,
3;204,21,23;,
3;205,25,206;,
3;205,23,25;,
3;218,28,219;,
3;218,26,28;,
3;219,31,211;,
3;219,28,31;,
3;211,33,210;,
3;211,31,33;,
3;210,35,212;,
3;210,33,35;,
3;212,37,213;,
3;212,35,37;;
 }
MeshTextureCoords {
 220;
0.548154;1.10475;,
0.5458;0.793288;,
0.513582;0.897664;,
0.54853;1.10503;,
0.545311;0.700422;,
0.508099;0.823771;,
0.545321;0.699343;,
0.508481;0.816203;,
0.544953;0.630951;,
0.504805;0.753163;,
0.545351;0.690923;,
0.510327;0.780551;,
0.545219;0.660173;,
0.511913;0.721706;,
0.544502;0.596243;,
0.508748;0.64253;,
0.544437;0.598495;,
0.51154;0.632972;,
0.0697316;0.300357;,
0.170014;0.326525;,
0.149494;0.129415;,
0.281996;0.193988;,
0.0589871;0.191656;,
0.117967;0.222788;,
0.0697992;0.0391322;,
0.191404;0.104069;,
0.191404;1.10407;,
0.0635342;0.898309;,
0.163746;0.975953;,
0.0697992;1.03913;,
0.0558345;0.813841;,
0.106141;0.877566;,
0.052454;0.825587;,
0.0727831;0.860775;,
0.050937;0.874779;,
0.0565983;0.885522;,
0.0503213;0.909376;,
0.0498785;0.907274;,
0.587232;0.871627;,
0.548752;1.10643;,
0.59495;0.792709;,
0.594325;0.78686;,
0.599693;0.722402;,
0.591294;0.758419;,
0.588309;0.707014;,
0.59154;0.631875;,
0.586725;0.625445;,
1.54444;0.598495;,
0.98946;0.321198;,
1.06973;0.300357;,
0.98946;0.321198;,
0.93706;0.178491;,
1.14949;0.129415;,
0.00976122;0.216147;,
1.00976;0.216147;,
1.05899;0.191656;,
0.976188;0.0884755;,
1.0698;0.0391322;,
1.0698;1.03913;,
0.986692;0.956995;,
1.06353;0.898309;,
0.976188;1.08848;,
0.0131126;0.862293;,
1.01311;0.862293;,
0.0332072;0.853059;,
0.0453099;0.88428;,
0.050964;0.909433;,
0.628464;1.08679;,
0.548752;0.106426;,
0.548688;0.108125;,
0.628464;0.0867903;,
0.649933;1.04657;,
0.648194;1.02749;,
0.663862;0.973945;,
0.639886;0.943501;,
0.632129;0.834789;,
0.641943;0.728554;,
0.629126;0.698033;,
0.99039;0.376839;,
0.98946;0.321198;,
0.98946;0.321198;,
0.963206;0.312468;,
0.93706;0.178491;,
0.98946;0.321198;,
1.0049;0.281915;,
0.963206;0.312468;,
0.981992;0.223194;,
0.976188;1.08848;,
0.988188;1.11763;,
0.986692;0.956995;,
0.976188;0.0884755;,
0.981992;0.223194;,
0.988188;0.117633;,
1.00766;0.994541;,
0.988188;1.11763;,
0.0277561;0.927099;,
0.00765704;0.994541;,
0.0431517;0.90846;,
0.0514347;0.907413;,
0.635269;0.312739;,
0.548375;0.10913;,
0.672209;0.313304;,
0.649933;0.0465733;,
0.668973;0.280271;,
0.648194;0.0274878;,
0.699413;1.23823;,
0.699413;0.23823;,
0.654055;1.13775;,
0.640924;0.96865;,
0.657512;0.829647;,
0.635756;0.773739;,
0.629126;0.698033;,
1.01412;0.434687;,
0.99039;0.376839;,
0.629126;0.698033;,
0.635756;0.773739;,
0.999279;0.452863;,
0.99039;0.376839;,
0.999279;0.452863;,
0.963206;0.312468;,
1.02154;0.350434;,
0.963206;0.312468;,
0.999279;0.452863;,
1.00867;0.364372;,
0.00489653;0.281915;,
0.0215408;0.350434;,
0.00866726;0.364372;,
1.01176;0.286124;,
0.988188;0.117633;,
0.988188;1.11763;,
1.02252;1.13312;,
0.988188;0.117633;,
1.02252;0.133115;,
0.0348179;1.00433;,
0.0225158;1.13312;,
0.0453207;0.933156;,
0.0514555;0.904499;,
0.55477;0.417115;,
0.547997;0.108852;,
0.558594;0.436653;,
0.558056;0.397131;,
0.562134;0.360442;,
0.555713;0.227378;,
0.654055;0.13775;,
0.553231;1.03018;,
0.553231;0.030183;,
0.552133;0.875934;,
0.549361;0.808215;,
0.635756;0.773739;,
1.05058;0.460854;,
0.635756;0.773739;,
1.54936;0.808215;,
1.04737;0.517436;,
0.999279;0.452863;,
0.0141185;0.434687;,
0.050576;0.460854;,
0.0473749;0.517436;,
0.999279;0.452863;,
1.04978;0.381567;,
0.999279;0.452863;,
0.0477804;0.429309;,
0.0497809;0.381567;,
0.0476288;0.363769;,
0.0117613;0.286124;,
0.0483956;0.19684;,
0.0225158;0.133115;,
0.04946;0.0395215;,
0.0348179;0.00433385;,
0.0504285;0.943899;,
0.04946;1.03952;,
0.0510097;0.902397;,
0.494118;0.338777;,
0.547777;0.107453;,
0.478219;0.344365;,
0.479455;0.309614;,
0.467071;0.26899;,
0.485191;0.159882;,
0.555713;1.22738;,
0.489875;0.983342;,
0.485191;1.15988;,
0.481048;0.840301;,
0.489302;0.781266;,
0.09905;0.440013;,
0.116928;0.46836;,
0.0852278;0.357076;,
0.100776;0.379965;,
0.0951098;0.305083;,
0.0803503;0.148388;,
0.0662207;0.0120491;,
0.0558444;0.934398;,
0.0662207;1.01205;,
0.0503606;0.902339;,
0.493047;0.123613;,
0.547843;0.105754;,
0.482841;0.0905012;,
0.48358;0.0689856;,
0.476581;0.0174472;,
0.467071;1.26899;,
0.48714;0.9748;,
0.476581;1.01745;,
0.490258;0.855567;,
0.484663;0.743622;,
0.490049;0.708678;,
0.151103;0.384372;,
0.206945;0.334384;,
0.117356;0.291307;,
0.161192;0.245246;,
0.146077;0.144444;,
0.10789;0.0161397;,
0.0803503;1.14839;,
0.0772105;0.93801;,
0.10789;1.01614;,
0.0585546;0.910217;,
0.0498928;0.904359;,
0.547843;1.10575;,
0.493047;1.12361;,
0.482841;1.0905;,
0.48358;1.06899;,
0.161192;1.24525;,
0.146077;1.14444;;
}
}
 }
