xof 0302txt 0032
Header {
 1;
 0;
 1;
}
template Header {
 <3D82AB43-62DA-11cf-AB39-0020AF71E433>
 WORD major;
 WORD minor;
 DWORD flags;
}

template Vector {
 <3D82AB5E-62DA-11cf-AB39-0020AF71E433>
 FLOAT x;
 FLOAT y;
 FLOAT z;
}

template Coords2d {
 <F6F23F44-7686-11cf-8F52-0040333594A3>
 FLOAT u;
 FLOAT v;
}

template Matrix4x4 {
 <F6F23F45-7686-11cf-8F52-0040333594A3>
 array FLOAT matrix[16];
}

template ColorRGBA {
 <35FF44E0-6C7C-11cf-8F52-0040333594A3>
 FLOAT red;
 FLOAT green;
 FLOAT blue;
 FLOAT alpha;
}

template ColorRGB {
 <D3E16E81-7835-11cf-8F52-0040333594A3>
 FLOAT red;
 FLOAT green;
 FLOAT blue;
}

template TextureFilename {
 <A42790E1-7810-11cf-8F52-0040333594A3>
 STRING filename;
}

template Material {
 <3D82AB4D-62DA-11cf-AB39-0020AF71E433>
 ColorRGBA faceColor;
 FLOAT power;
 ColorRGB specularColor;
 ColorRGB emissiveColor;
 [...]
}

template MeshFace {
 <3D82AB5F-62DA-11cf-AB39-0020AF71E433>
 DWORD nFaceVertexIndices;
 array DWORD faceVertexIndices[nFaceVertexIndices];
}

template MeshTextureCoords {
 <F6F23F40-7686-11cf-8F52-0040333594A3>
 DWORD nTextureCoords;
 array Coords2d textureCoords[nTextureCoords];
}

template MeshMaterialList {
 <F6F23F42-7686-11cf-8F52-0040333594A3>
 DWORD nMaterials;
 DWORD nFaceIndexes;
 array DWORD faceIndexes[nFaceIndexes];
 [Material]
}

template MeshNormals {
 <F6F23F43-7686-11cf-8F52-0040333594A3>
 DWORD nNormals;
 array Vector normals[nNormals];
 DWORD nFaceNormals;
 array MeshFace faceNormals[nFaceNormals];
}

template Mesh {
 <3D82AB44-62DA-11cf-AB39-0020AF71E433>
 DWORD nVertices;
 array Vector vertices[nVertices];
 DWORD nFaces;
 array MeshFace faces[nFaces];
 [...]
}

template FrameTransformMatrix {
 <F6F23F41-7686-11cf-8F52-0040333594A3>
 Matrix4x4 frameMatrix;
}

template Frame {
 <3D82AB46-62DA-11cf-AB39-0020AF71E433>
 [...]
}
template FloatKeys {
 <10DD46A9-775B-11cf-8F52-0040333594A3>
 DWORD nValues;
 array FLOAT values[nValues];
}

template TimedFloatKeys {
 <F406B180-7B3B-11cf-8F52-0040333594A3>
 DWORD time;
 FloatKeys tfkeys;
}

template AnimationKey {
 <10DD46A8-775B-11cf-8F52-0040333594A3>
 DWORD keyType;
 DWORD nKeys;
 array TimedFloatKeys keys[nKeys];
}

template AnimationOptions {
 <E2BF56C0-840F-11cf-8F52-0040333594A3>
 DWORD openclosed;
 DWORD positionquality;
}

template Animation {
 <3D82AB4F-62DA-11cf-AB39-0020AF71E433>
 [...]
}

template AnimationSet {
 <3D82AB50-62DA-11cf-AB39-0020AF71E433>
 [Animation]
}
Frame LINE02 {
   FrameTransformMatrix {
1.2,0.0,0.0,0.0,
0.0,1.43099e-08,-1.2,0.0,
0.0,1.2,1.43099e-08,0.0,
-0.00023656,-3.06085,-0.0001912,1.0;;
 }
Mesh LINE02 {
 610;
-0.0981939;0.138057;-55.8153;,
-16.7111;16.5717;-55.6449;,
-0.0981931;23.5348;-55.6449;,
-0.167087;0.0282238;-55.8153;,
-0.0981931;23.5348;-55.6449;,
-19.7105;19.5715;-52.0504;,
-0.0981931;27.7768;-52.0504;,
-16.7111;16.5717;-55.6449;,
-0.0981931;27.7768;-52.0504;,
-18.6846;18.5455;-50.06;,
-0.0981931;26.3255;-50.06;,
-19.7105;19.5715;-52.0504;,
-0.0981931;26.3255;-50.06;,
-19.5305;19.3921;-44.909;,
-0.0981931;27.522;-44.909;,
-18.6846;18.5455;-50.06;,
-0.0981931;27.522;-44.909;,
-14.3796;14.2411;-41.326;,
-0.0981939;20.2377;-41.326;,
-19.5305;19.3921;-44.909;,
-9.93828;9.7989;-30.152;,
-0.0981947;13.9566;-30.152;,
-9.56087;9.38451;-22.7743;,
-0.124707;13.3964;-22.7743;,
-0.124707;13.3964;-22.7743;,
-6.85001;6.68198;-19.5651;,
-0.118816;9.56849;-19.5651;,
-9.56087;9.38451;-22.7743;,
-0.118816;9.56849;-19.5651;,
-4.31925;4.17893;29.004;,
-0.0610656;6.02418;29.004;,
-6.85001;6.68198;-19.5651;,
-0.0610656;6.02418;29.004;,
-10.5796;10.4366;32.4239;,
-0.0627314;14.8763;32.424;,
-0.0610656;6.02418;29.004;,
-4.31925;4.17893;29.004;,
-0.0998539;14.7507;33.6241;,
-10.5171;10.3217;33.6241;,
-6.50504;6.37565;37.2144;,
0.333916;3.0275;62.9161;,
-2.12932;2.07806;71.7653;,
-0.0368078;2.97483;71.7653;,
-1.92089;2.33906;62.9161;,
-0.0368078;2.97483;71.7653;,
-2.12932;2.07806;71.7653;,
0.0124387;-0.0115319;72.8889;,
-23.5348;-0.0981727;-55.6449;,
-0.138044;-0.0981744;-55.8153;,
-27.7762;-0.0981727;-52.0504;,
-23.5348;-0.0981727;-55.6449;,
-19.7105;19.5715;-52.0504;,
-26.3259;-0.0981736;-50.06;,
-18.6846;18.5455;-50.06;,
-27.7762;-0.0981727;-52.0504;,
-18.6846;18.5455;-50.06;,
-27.5225;-0.0981736;-44.909;,
-19.5305;19.3921;-44.909;,
-26.3259;-0.0981736;-50.06;,
-20.2376;-0.0981736;-41.326;,
-27.5225;-0.0981736;-44.909;,
-13.9567;-0.0981778;-30.152;,
-9.93828;9.7989;-30.152;,
-13.3964;-0.124683;-22.7743;,
-9.56087;9.38451;-22.7743;,
-9.56847;-0.118791;-19.5651;,
-13.3964;-0.124683;-22.7743;,
-6.85001;6.68198;-19.5651;,
-6.02532;-0.136863;29.004;,
-4.31925;4.17893;29.004;,
-9.56847;-0.118791;-19.5651;,
-4.31925;4.17893;29.004;,
-14.8772;-0.138527;32.4239;,
-4.31925;4.17893;29.004;,
-6.02532;-0.136863;29.004;,
-14.7517;-0.175646;33.6241;,
-9.1243;-0.129136;37.2144;,
-1.92089;2.33906;62.9161;,
-2.97488;-0.0356453;71.7652;,
-2.12932;2.07806;71.7653;,
-3.02856;0.257986;62.9161;,
-2.97488;-0.0356453;71.7652;,
-16.5722;-16.7111;-55.6449;,
-0.0282034;-0.167075;-55.8153;,
-19.5716;-19.7104;-52.0504;,
-16.5722;-16.7111;-55.6449;,
-27.7762;-0.0981727;-52.0504;,
-18.5457;-18.6846;-50.06;,
-26.3259;-0.0981736;-50.06;,
-19.5716;-19.7104;-52.0504;,
-26.3259;-0.0981736;-50.06;,
-19.3916;-19.5305;-44.909;,
-27.5225;-0.0981736;-44.909;,
-18.5457;-18.6846;-50.06;,
-14.2408;-14.3796;-41.326;,
-19.3916;-19.5305;-44.909;,
-9.79939;-9.93826;-30.152;,
-13.9567;-0.0981778;-30.152;,
-9.38448;-9.56085;-22.7743;,
-13.3964;-0.124683;-22.7743;,
-6.68196;-6.84999;-19.5651;,
-9.38448;-9.56085;-22.7743;,
-9.56847;-0.118791;-19.5651;,
-4.18008;-4.39505;29.004;,
-6.02532;-0.136863;29.004;,
-6.68196;-6.84999;-19.5651;,
-6.02532;-0.136863;29.004;,
-10.4381;-10.6554;32.4239;,
-6.02532;-0.136863;29.004;,
-4.18008;-4.39505;29.004;,
-10.3231;-10.5929;33.6241;,
-6.37681;-6.58084;37.2144;,
-3.02856;0.257986;62.9161;,
-2.07811;-2.12816;71.7652;,
-2.97488;-0.0356453;71.7652;,
-2.34023;-1.99683;62.9161;,
-2.07811;-2.12816;71.7652;,
0.098193;-23.5348;-55.6449;,
0.0981947;-0.138123;-55.8153;,
0.098193;-27.7765;-52.0504;,
0.098193;-23.5348;-55.6449;,
-19.5716;-19.7104;-52.0504;,
0.098193;-26.3258;-50.06;,
-18.5457;-18.6846;-50.06;,
0.098193;-27.7765;-52.0504;,
-18.5457;-18.6846;-50.06;,
0.098193;-27.5222;-44.909;,
-19.3916;-19.5305;-44.909;,
0.098193;-26.3258;-50.06;,
0.098193;-20.2377;-41.326;,
0.098193;-27.5222;-44.909;,
0.0981922;-13.9566;-30.152;,
-9.79939;-9.93826;-30.152;,
0.124705;-13.3964;-22.7743;,
-9.38448;-9.56085;-22.7743;,
0.118813;-9.56857;-19.5651;,
0.124705;-13.3964;-22.7743;,
-6.68196;-6.84999;-19.5651;,
0.135721;-6.10123;29.004;,
-4.18008;-4.39505;29.004;,
0.118813;-9.56857;-19.5651;,
-4.18008;-4.39505;29.004;,
0.137388;-14.953;32.4239;,
-4.18008;-4.39505;29.004;,
0.135721;-6.10123;29.004;,
0.174512;-14.8275;33.6241;,
0.12799;-9.20012;37.2144;,
-2.34023;-1.99683;62.9161;,
0.0356002;-2.97371;71.7652;,
-2.07811;-2.12816;71.7652;,
-0.259123;-3.10451;62.9161;,
0.0356002;-2.97371;71.7652;,
16.7111;-16.5722;-55.6449;,
0.167088;-0.0281831;-55.8153;,
19.7105;-19.5716;-52.0504;,
16.7111;-16.5722;-55.6449;,
0.098193;-27.7765;-52.0504;,
18.6846;-18.5457;-50.06;,
0.098193;-26.3258;-50.06;,
19.7105;-19.5716;-52.0504;,
0.098193;-26.3258;-50.06;,
19.5305;-19.3916;-44.909;,
0.098193;-27.5222;-44.909;,
18.6846;-18.5457;-50.06;,
14.3797;-14.2407;-41.326;,
19.5305;-19.3916;-44.909;,
9.93827;-9.79938;-30.152;,
0.0981922;-13.9566;-30.152;,
9.56086;-9.38446;-22.7743;,
0.124705;-13.3964;-22.7743;,
6.85;-6.68193;-19.5651;,
9.56086;-9.38446;-22.7743;,
0.118813;-9.56857;-19.5651;,
4.3939;-4.25588;29.004;,
0.135721;-6.10123;29.004;,
6.85;-6.68193;-19.5651;,
10.6542;-10.5139;32.4239;,
4.3939;-4.25588;29.004;,
10.5917;-10.3988;33.6241;,
6.57969;-6.45261;37.2144;,
-0.259123;-3.10451;62.9161;,
2.12811;-2.07699;71.7652;,
0.0356002;-2.97371;71.7652;,
1.99568;-2.41618;62.9161;,
2.12811;-2.07699;71.7652;,
23.5348;0.0982058;-55.6449;,
0.138143;0.0982067;-55.8153;,
27.7765;0.098205;-52.0504;,
23.5348;0.0982058;-55.6449;,
19.7105;-19.5716;-52.0504;,
26.3258;0.098205;-50.06;,
18.6846;-18.5457;-50.06;,
27.7765;0.098205;-52.0504;,
18.6846;-18.5457;-50.06;,
27.5222;0.098205;-44.909;,
19.5305;-19.3916;-44.909;,
26.3258;0.098205;-50.06;,
20.2377;0.098205;-41.326;,
27.5222;0.098205;-44.909;,
13.9566;0.0982016;-30.152;,
9.93827;-9.79938;-30.152;,
13.3964;0.12472;-22.7743;,
9.56086;-9.38446;-22.7743;,
9.56847;0.118829;-19.5651;,
13.3964;0.12472;-22.7743;,
6.85;-6.68193;-19.5651;,
6.09998;0.059915;29.004;,
4.3939;-4.25588;29.004;,
9.56847;0.118829;-19.5651;,
14.9518;0.0615853;32.4239;,
6.09998;0.059915;29.004;,
14.8263;0.0987096;33.6241;,
9.19896;0.0521792;37.2144;,
1.99568;-2.41618;62.9161;,
2.97367;0.0367596;71.7653;,
2.12811;-2.07699;71.7652;,
3.10336;-0.335062;62.9161;,
2.97367;0.0367596;71.7653;,
16.5722;16.7115;-55.6449;,
0.0282034;0.167108;-55.8153;,
19.5716;19.7103;-52.0504;,
16.5722;16.7115;-55.6449;,
27.7765;0.098205;-52.0504;,
18.5457;18.6842;-50.06;,
26.3258;0.098205;-50.06;,
19.5716;19.7103;-52.0504;,
26.3258;0.098205;-50.06;,
19.3916;19.5308;-44.909;,
27.5222;0.098205;-44.909;,
18.5457;18.6842;-50.06;,
14.2408;14.3799;-41.326;,
19.3916;19.5308;-44.909;,
9.79939;9.93869;-30.152;,
13.9566;0.0982016;-30.152;,
9.38448;9.56089;-22.7743;,
13.3964;0.12472;-22.7743;,
6.68195;6.85003;-19.5651;,
9.38448;9.56089;-22.7743;,
9.56847;0.118829;-19.5651;,
4.25474;4.31801;29.004;,
6.09998;0.059915;29.004;,
9.56847;0.118829;-19.5651;,
6.68195;6.85003;-19.5651;,
4.25474;4.31801;29.004;,
10.5127;10.578;32.424;,
4.25474;4.31801;29.004;,
10.3977;10.5157;33.6241;,
6.45146;6.50385;37.2144;,
3.10336;-0.335062;62.9161;,
2.07691;2.12927;71.7653;,
2.97367;0.0367596;71.7653;,
2.41502;1.91971;62.9161;,
2.07691;2.12927;71.7653;,
19.5716;19.7103;-52.0504;,
-0.0981931;26.3255;-50.06;,
18.5457;18.6842;-50.06;,
-0.0981931;27.7768;-52.0504;,
18.5457;18.6842;-50.06;,
-0.0981931;27.522;-44.909;,
19.3916;19.5308;-44.909;,
-0.0981931;26.3255;-50.06;,
-0.0981947;13.9566;-30.152;,
9.79939;9.93869;-30.152;,
-0.124707;13.3964;-22.7743;,
9.38448;9.56089;-22.7743;,
6.68195;6.85003;-19.5651;,
-0.0610656;6.02418;29.004;,
4.25474;4.31801;29.004;,
-0.118816;9.56849;-19.5651;,
-0.0610656;6.02418;29.004;,
-0.0533326;9.12313;37.2144;,
2.41502;1.91971;62.9161;,
-0.0368078;2.97483;71.7653;,
2.07691;2.12927;71.7653;,
0.333916;3.0275;62.9161;,
-0.0125867;8.56767;40.3021;,
-0.0533326;9.12313;37.2144;,
-6.50504;6.37565;37.2144;,
-6.08354;6.0119;40.3021;,
-13.097;13.3608;65.3523;,
-13.5316;13.4007;65.3273;,
-13.4687;13.3033;65.3412;,
-1.92089;2.33906;62.9161;,
-11.1259;12.1173;65.5847;,
-13.097;13.3608;65.3523;,
-1.92089;2.33906;62.9161;,
-6.55724;12.6042;65.7457;,
-11.1259;12.1173;65.5847;,
-6.08354;6.0119;40.3021;,
-6.50504;6.37565;37.2144;,
-9.1243;-0.129136;37.2144;,
-8.56897;-0.0883916;40.3021;,
-8.56897;-0.0883916;40.3021;,
-9.1243;-0.129136;37.2144;,
-6.37681;-6.58084;37.2144;,
-6.01294;-6.15935;40.3021;,
-13.362;-13.1731;65.3523;,
-13.4019;-13.6077;65.3273;,
-13.3058;-13.5458;65.341;,
-2.34023;-1.99683;62.9161;,
-12.1184;-11.202;65.5847;,
-13.362;-13.1731;65.3523;,
-2.34023;-1.99683;62.9161;,
-12.6058;-6.63292;65.7457;,
-12.1184;-11.202;65.5847;,
-6.01294;-6.15935;40.3021;,
-6.37681;-6.58084;37.2144;,
0.12799;-9.20012;37.2144;,
0.087242;-8.64479;40.3021;,
0.087242;-8.64479;40.3021;,
0.12799;-9.20012;37.2144;,
6.57969;-6.45261;37.2144;,
6.1582;-6.08876;40.3021;,
13.1719;-13.4381;65.3522;,
13.6066;-13.478;65.3272;,
13.5439;-13.3808;65.3411;,
1.99568;-2.41618;62.9161;,
11.2009;-12.1946;65.5846;,
13.1719;-13.4381;65.3522;,
1.99568;-2.41618;62.9161;,
6.63193;-12.6818;65.7456;,
11.2009;-12.1946;65.5846;,
6.1582;-6.08876;40.3021;,
6.57969;-6.45261;37.2144;,
9.19896;0.0521792;37.2144;,
8.64364;0.0114336;40.3021;,
8.64364;0.0114336;40.3021;,
9.19896;0.0521792;37.2144;,
6.45146;6.50385;37.2144;,
6.0876;6.08245;40.3021;,
13.4369;13.0958;65.3522;,
13.4769;13.5305;65.3272;,
13.3781;13.4668;65.3413;,
2.41502;1.91971;62.9161;,
12.1934;11.1248;65.5847;,
13.4369;13.0958;65.3522;,
2.41502;1.91971;62.9161;,
12.6804;6.5561;65.7456;,
12.1934;11.1248;65.5847;,
6.0876;6.08245;40.3021;,
6.45146;6.50385;37.2144;,
-0.0533326;9.12313;37.2144;,
-0.0125867;8.56767;40.3021;,
-13.5914;5.62873;65.6826;,
-15.6412;5.02264;65.4758;,
-3.02856;0.257986;62.9161;,
-13.4687;13.3033;65.3412;,
-12.1121;11.1394;65.5829;,
-11.625;8.9143;65.7428;,
-12.1387;7.00047;65.7774;,
-5.6299;-13.6676;65.6825;,
-5.02384;-15.7172;65.4758;,
-0.259123;-3.10451;62.9161;,
-13.3058;-13.5458;65.341;,
-11.1405;-12.1882;65.5828;,
-8.91547;-11.7011;65.7427;,
-7.00164;-12.2149;65.7773;,
13.6665;-5.70601;65.6825;,
15.7169;-5.09973;65.4757;,
3.10336;-0.335062;62.9161;,
13.5439;-13.3808;65.3411;,
12.1871;-11.2167;65.5828;,
11.7;-8.99159;65.7427;,
12.2138;-7.07776;65.7773;,
5.70485;13.5903;65.6826;,
5.09838;15.6413;65.4757;,
0.333916;3.0275;62.9161;,
13.3781;13.4668;65.3413;,
11.2155;12.111;65.5828;,
8.99043;11.6239;65.7427;,
7.0766;12.1376;65.7774;,
-10.1027;13.712;63.3407;,
-5.35098;16.5058;64.6716;,
-9.14511;9.03362;54.7907;,
-13.5658;13.4326;65.3221;,
-16.49;5.35843;64.6819;,
-16.3864;5.47585;64.5876;,
-10.5552;5.56292;54.7907;,
-17.0044;5.02583;65.3221;,
-17.3527;4.17139;65.3221;,
-17.3621;-0.0306923;62.4423;,
-12.8705;-0.116557;54.7907;,
-13.7131;-10.1788;63.3408;,
-16.5069;-5.42707;64.6717;,
-9.03467;-9.22091;54.7907;,
-13.4335;-13.6417;65.3221;,
-5.3594;-16.5659;64.6823;,
-5.47688;-16.4622;64.5879;,
-5.56394;-10.631;54.7907;,
-5.02697;-17.0799;65.3221;,
-4.17226;-17.4284;65.3221;,
0.0295634;-17.4379;62.4426;,
0.115408;-12.9463;54.7907;,
16.5646;-5.43542;64.6824;,
16.4613;-5.55241;64.5885;,
10.6299;-5.63975;54.7907;,
17.0785;-5.10307;65.3221;,
17.427;-4.24824;65.3221;,
17.4366;-0.0465444;62.4427;,
12.9452;0.0395985;54.7907;,
13.7879;10.1015;63.341;,
16.5816;5.34971;64.6719;,
9.10932;9.14398;54.7907;,
13.5082;13.5642;65.3221;,
5.43458;16.489;64.6819;,
5.55124;16.386;64.5882;,
5.6386;10.5543;54.7907;,
5.10194;17.0034;65.3221;,
4.24754;17.3516;65.3221;,
0.0454085;17.3609;62.4424;,
-0.0407538;12.8693;54.7907;,
-5.01272;17.0356;65.3221;,
-4.17803;17.3881;65.3221;,
-3.5523;17.1602;64.4949;,
0.0454085;17.3609;62.4424;,
-0.0407538;12.8693;54.7907;,
-9.14511;9.03362;54.7907;,
-17.0367;-5.08882;65.3221;,
-17.3891;-4.25406;65.3221;,
-17.1612;-3.62841;64.495;,
-17.3621;-0.0306923;62.4423;,
-12.8705;-0.116557;54.7907;,
-9.03467;-9.22091;54.7907;,
5.42578;-16.5827;64.672;,
5.08769;-17.1122;65.3221;,
4.25268;-17.4648;65.3221;,
3.62727;-17.237;64.4954;,
0.0295634;-17.4379;62.4426;,
0.115408;-12.9463;54.7907;,
9.21976;-9.1105;54.7907;,
9.21976;-9.1105;54.7907;,
17.1112;5.01158;65.3221;,
17.4638;4.17665;65.3221;,
17.2359;3.55116;64.4953;,
17.4366;-0.0465444;62.4427;,
12.9452;0.0395985;54.7907;,
9.10932;9.14398;54.7907;,
-0.0998539;14.7507;33.6241;,
-0.0627314;14.8763;32.424;,
-10.5796;10.4366;32.4239;,
-10.5171;10.3217;33.6241;,
-10.5171;10.3217;33.6241;,
-10.5796;10.4366;32.4239;,
-14.8772;-0.138527;32.4239;,
-14.7517;-0.175646;33.6241;,
-14.7517;-0.175646;33.6241;,
-14.8772;-0.138527;32.4239;,
-10.4381;-10.6554;32.4239;,
-10.3231;-10.5929;33.6241;,
-10.3231;-10.5929;33.6241;,
-10.4381;-10.6554;32.4239;,
0.137388;-14.953;32.4239;,
0.174512;-14.8275;33.6241;,
0.174512;-14.8275;33.6241;,
0.137388;-14.953;32.4239;,
10.6542;-10.5139;32.4239;,
10.5917;-10.3988;33.6241;,
10.5917;-10.3988;33.6241;,
10.6542;-10.5139;32.4239;,
14.9518;0.0615853;32.4239;,
14.8263;0.0987096;33.6241;,
14.8263;0.0987096;33.6241;,
14.9518;0.0615853;32.4239;,
10.5127;10.578;32.424;,
10.3977;10.5157;33.6241;,
10.3977;10.5157;33.6241;,
10.5127;10.578;32.424;,
-0.0627314;14.8763;32.424;,
-0.0998539;14.7507;33.6241;,
13.9768;-0.0497694;65.9033;,
17.0785;-5.10307;65.3221;,
17.427;-4.24824;65.3221;,
14.6134;1.86776;65.7433;,
16.2447;3.55117;65.4865;,
17.4638;4.17665;65.3221;,
17.1112;5.01158;65.3221;,
15.8963;4.95402;65.4633;,
0.0486259;13.9006;65.9034;,
5.10194;17.0034;65.3221;,
4.24754;17.3516;65.3221;,
-1.86889;14.5373;65.7433;,
-3.55231;16.1686;65.4865;,
-4.17803;17.3881;65.3221;,
-5.01272;17.0356;65.3221;,
-4.95513;15.8201;65.4633;,
-13.9019;-0.027252;65.9034;,
-17.0044;5.02583;65.3221;,
-17.3527;4.17139;65.3221;,
-14.5384;-1.945;65.7433;,
-16.1697;-3.62841;65.4865;,
-17.3891;-4.25406;65.3221;,
-17.0367;-5.08882;65.3221;,
-15.8213;-5.03124;65.4633;,
0.0261203;-13.978;65.9033;,
-5.02697;-17.0799;65.3221;,
-4.17226;-17.4284;65.3221;,
1.94387;-14.6146;65.7433;,
3.62728;-16.2459;65.4864;,
4.25268;-17.4648;65.3221;,
5.08769;-17.1122;65.3221;,
5.03014;-15.8974;65.4632;,
10.1775;-13.7889;63.341;,
13.6402;-13.5092;65.3221;,
12.1871;-11.2167;65.5828;,
13.5439;-13.3808;65.3411;,
13.6066;-13.478;65.3272;,
5.03014;-15.8974;65.4632;,
5.08769;-17.1122;65.3221;,
5.42578;-16.5827;64.672;,
6.63193;-12.6818;65.7456;,
5.42578;-16.5827;64.672;,
13.219;-13.6865;65.3221;,
5.42578;-16.5827;64.672;,
13.219;-13.6865;65.3221;,
13.6402;-13.5092;65.3221;,
13.6402;-13.5092;65.3221;,
16.4613;-5.55241;64.5885;,
15.7169;-5.09973;65.4757;,
12.2138;-7.07776;65.7773;,
16.4613;-5.55241;64.5885;,
16.5646;-5.43542;64.6824;,
17.0785;-5.10307;65.3221;,
14.6134;1.86776;65.7433;,
17.427;-4.24824;65.3221;,
17.4366;-0.0465444;62.4427;,
14.6134;1.86776;65.7433;,
17.4366;-0.0465444;62.4427;,
17.2359;3.55116;64.4953;,
17.4638;4.17665;65.3221;,
15.8963;4.95402;65.4633;,
17.1112;5.01158;65.3221;,
16.5816;5.34971;64.6719;,
12.6804;6.5561;65.7456;,
13.6854;13.143;65.3221;,
13.5082;13.5642;65.3221;,
5.55124;16.386;64.5882;,
5.10194;17.0034;65.3221;,
5.09838;15.6413;65.4757;,
5.55124;16.386;64.5882;,
5.09838;15.6413;65.4757;,
11.2155;12.111;65.5828;,
13.5082;13.5642;65.3221;,
5.55124;16.386;64.5882;,
11.2155;12.111;65.5828;,
13.3781;13.4668;65.3413;,
13.4769;13.5305;65.3272;,
13.6854;13.143;65.3221;,
16.5816;5.34971;64.6719;,
16.5816;5.34971;64.6719;,
-1.86889;14.5373;65.7433;,
4.24754;17.3516;65.3221;,
0.0454085;17.3609;62.4424;,
-1.86889;14.5373;65.7433;,
0.0454085;17.3609;62.4424;,
-3.5523;17.1602;64.4949;,
-4.17803;17.3881;65.3221;,
-4.95513;15.8201;65.4633;,
-5.01272;17.0356;65.3221;,
-5.35098;16.5058;64.6716;,
-6.55724;12.6042;65.7457;,
-13.1447;13.6098;65.3221;,
-13.5658;13.4326;65.3221;,
-16.3864;5.47585;64.5876;,
-17.0044;5.02583;65.3221;,
-15.6412;5.02264;65.4758;,
-16.3864;5.47585;64.5876;,
-15.6412;5.02264;65.4758;,
-12.1121;11.1394;65.5829;,
-13.5658;13.4326;65.3221;,
-16.3864;5.47585;64.5876;,
-12.1121;11.1394;65.5829;,
-13.4687;13.3033;65.3412;,
-13.5316;13.4007;65.3273;,
-13.1447;13.6098;65.3221;,
-5.35098;16.5058;64.6716;,
-5.35098;16.5058;64.6716;,
-14.5384;-1.945;65.7433;,
-17.3527;4.17139;65.3221;,
-17.3621;-0.0306923;62.4423;,
-14.5384;-1.945;65.7433;,
-17.3621;-0.0306923;62.4423;,
-17.1612;-3.62841;64.495;,
-17.3891;-4.25406;65.3221;,
-15.8213;-5.03124;65.4633;,
-17.0367;-5.08882;65.3221;,
-16.5069;-5.42707;64.6717;,
-12.6058;-6.63292;65.7457;,
-13.6107;-13.2206;65.3221;,
-13.4335;-13.6417;65.3221;,
-5.47688;-16.4622;64.5879;,
-5.02697;-17.0799;65.3221;,
-5.02384;-15.7172;65.4758;,
-5.47688;-16.4622;64.5879;,
-5.02384;-15.7172;65.4758;,
-11.1405;-12.1882;65.5828;,
-13.4335;-13.6417;65.3221;,
-5.47688;-16.4622;64.5879;,
-11.1405;-12.1882;65.5828;,
-13.3058;-13.5458;65.341;,
-13.4019;-13.6077;65.3273;,
-13.6107;-13.2206;65.3221;,
-16.5069;-5.42707;64.6717;,
-16.5069;-5.42707;64.6717;,
1.94387;-14.6146;65.7433;,
-4.17226;-17.4284;65.3221;,
0.0295634;-17.4379;62.4426;,
1.94387;-14.6146;65.7433;,
0.0295634;-17.4379;62.4426;,
3.62727;-17.237;64.4954;,
4.25268;-17.4648;65.3221;;

 486;
3;0,1,2;,
3;0,3,1;,
3;4,5,6;,
3;4,7,5;,
3;8,9,10;,
3;8,11,9;,
3;12,13,14;,
3;12,15,13;,
3;16,17,18;,
3;16,19,17;,
3;18,20,21;,
3;18,17,20;,
3;21,22,23;,
3;21,20,22;,
3;24,25,26;,
3;24,27,25;,
3;28,29,30;,
3;28,31,29;,
3;32,33,34;,
3;35,36,33;,
3;37,38,39;,
3;40,41,42;,
3;40,43,41;,
3;44,45,46;,
3;3,47,1;,
3;3,48,47;,
3;7,49,5;,
3;7,50,49;,
3;51,52,53;,
3;51,54,52;,
3;55,56,57;,
3;55,58,56;,
3;19,59,17;,
3;19,60,59;,
3;17,61,62;,
3;17,59,61;,
3;62,63,64;,
3;62,61,63;,
3;27,65,25;,
3;27,66,65;,
3;67,68,69;,
3;67,70,68;,
3;71,72,33;,
3;73,74,72;,
3;38,75,76;,
3;77,78,79;,
3;77,80,78;,
3;45,81,46;,
3;48,82,47;,
3;48,83,82;,
3;50,84,49;,
3;50,85,84;,
3;86,87,88;,
3;86,89,87;,
3;90,91,92;,
3;90,93,91;,
3;60,94,59;,
3;60,95,94;,
3;59,96,97;,
3;59,94,96;,
3;97,98,99;,
3;97,96,98;,
3;66,100,65;,
3;66,101,100;,
3;102,103,104;,
3;102,105,103;,
3;106,107,72;,
3;108,109,107;,
3;75,110,111;,
3;112,113,114;,
3;112,115,113;,
3;81,116,46;,
3;83,117,82;,
3;83,118,117;,
3;85,119,84;,
3;85,120,119;,
3;121,122,123;,
3;121,124,122;,
3;125,126,127;,
3;125,128,126;,
3;95,129,94;,
3;95,130,129;,
3;94,131,132;,
3;94,129,131;,
3;132,133,134;,
3;132,131,133;,
3;101,135,100;,
3;101,136,135;,
3;137,138,139;,
3;137,140,138;,
3;141,142,107;,
3;143,144,142;,
3;110,145,146;,
3;147,148,149;,
3;147,150,148;,
3;116,151,46;,
3;118,152,117;,
3;118,153,152;,
3;120,154,119;,
3;120,155,154;,
3;156,157,158;,
3;156,159,157;,
3;160,161,162;,
3;160,163,161;,
3;130,164,129;,
3;130,165,164;,
3;129,166,167;,
3;129,164,166;,
3;167,168,169;,
3;167,166,168;,
3;136,170,135;,
3;136,171,170;,
3;172,173,174;,
3;172,175,173;,
3;144,176,142;,
3;144,177,176;,
3;145,178,179;,
3;180,181,182;,
3;180,183,181;,
3;151,184,46;,
3;153,185,152;,
3;153,186,185;,
3;155,187,154;,
3;155,188,187;,
3;189,190,191;,
3;189,192,190;,
3;193,194,195;,
3;193,196,194;,
3;165,197,164;,
3;165,198,197;,
3;164,199,200;,
3;164,197,199;,
3;200,201,202;,
3;200,199,201;,
3;171,203,170;,
3;171,204,203;,
3;205,206,207;,
3;205,208,206;,
3;177,209,176;,
3;177,210,209;,
3;178,211,212;,
3;213,214,215;,
3;213,216,214;,
3;184,217,46;,
3;186,218,185;,
3;186,219,218;,
3;188,220,187;,
3;188,221,220;,
3;222,223,224;,
3;222,225,223;,
3;226,227,228;,
3;226,229,227;,
3;198,230,197;,
3;198,231,230;,
3;197,232,233;,
3;197,230,232;,
3;233,234,235;,
3;233,232,234;,
3;204,236,203;,
3;204,237,236;,
3;238,239,240;,
3;241,242,243;,
3;210,244,209;,
3;210,245,244;,
3;211,246,247;,
3;248,249,250;,
3;248,251,249;,
3;217,252,46;,
3;219,2,218;,
3;219,0,2;,
3;221,6,220;,
3;221,4,6;,
3;253,254,255;,
3;253,256,254;,
3;257,258,259;,
3;257,260,258;,
3;231,18,230;,
3;231,16,18;,
3;230,261,262;,
3;230,18,261;,
3;262,263,264;,
3;262,261,263;,
3;237,26,236;,
3;237,24,26;,
3;265,266,267;,
3;265,268,266;,
3;245,34,244;,
3;245,269,34;,
3;246,37,270;,
3;271,272,273;,
3;271,274,272;,
3;252,44,46;,
3;275,276,277;,
3;277,278,275;,
3;279,280,281;,
3;279,281,282;,
3;283,284,285;,
3;282,286,287;,
3;288,289,290;,
3;290,291,288;,
3;292,293,294;,
3;294,295,292;,
3;296,297,298;,
3;296,298,299;,
3;300,301,302;,
3;299,303,304;,
3;305,306,307;,
3;307,308,305;,
3;309,310,311;,
3;311,312,309;,
3;313,314,315;,
3;313,315,316;,
3;317,318,319;,
3;316,320,321;,
3;322,323,324;,
3;324,325,322;,
3;326,327,328;,
3;328,329,326;,
3;330,331,332;,
3;330,332,333;,
3;334,335,336;,
3;333,337,338;,
3;339,340,341;,
3;341,342,339;,
3;343,344,345;,
3;343,345,282;,
3;282,346,347;,
3;282,347,348;,
3;282,348,349;,
3;343,282,349;,
3;350,351,352;,
3;350,352,299;,
3;299,353,354;,
3;299,354,355;,
3;299,355,356;,
3;350,299,356;,
3;357,358,359;,
3;357,359,316;,
3;316,360,361;,
3;316,361,362;,
3;316,362,363;,
3;357,316,363;,
3;364,365,366;,
3;364,366,333;,
3;333,367,368;,
3;333,368,369;,
3;333,369,370;,
3;364,333,370;,
3;371,372,373;,
3;371,373,374;,
3;375,376,377;,
3;378,375,377;,
3;379,378,377;,
3;380,379,377;,
3;380,377,381;,
3;382,383,384;,
3;382,384,385;,
3;386,387,388;,
3;389,386,388;,
3;390,389,388;,
3;391,390,388;,
3;391,388,392;,
3;393,394,395;,
3;396,393,395;,
3;397,396,395;,
3;398,397,395;,
3;398,395,399;,
3;400,401,402;,
3;400,402,403;,
3;404,405,406;,
3;407,404,406;,
3;408,407,406;,
3;409,408,406;,
3;409,406,410;,
3;372,411,412;,
3;413,414,415;,
3;413,415,373;,
3;412,413,373;,
3;372,412,373;,
3;416,377,376;,
3;383,417,418;,
3;419,420,421;,
3;419,421,384;,
3;418,419,384;,
3;383,418,384;,
3;422,388,387;,
3;423,424,425;,
3;426,427,428;,
3;426,428,429;,
3;425,426,429;,
3;423,425,429;,
3;430,395,394;,
3;401,431,432;,
3;433,434,435;,
3;433,435,402;,
3;432,433,402;,
3;401,432,402;,
3;436,406,405;,
3;275,278,373;,
3;288,291,381;,
3;381,377,288;,
3;292,295,384;,
3;305,308,392;,
3;392,388,305;,
3;309,312,429;,
3;322,325,399;,
3;399,395,322;,
3;326,329,402;,
3;339,342,410;,
3;410,406,339;,
3;275,373,415;,
3;288,377,416;,
3;292,384,421;,
3;305,388,422;,
3;309,429,428;,
3;322,395,430;,
3;326,402,435;,
3;339,406,436;,
3;37,39,270;,
3;437,438,439;,
3;439,440,437;,
3;38,76,39;,
3;441,442,443;,
3;443,444,441;,
3;75,111,76;,
3;445,446,447;,
3;447,448,445;,
3;110,146,111;,
3;449,450,451;,
3;451,452,449;,
3;145,179,146;,
3;453,454,455;,
3;455,456,453;,
3;178,212,179;,
3;457,458,459;,
3;459,460,457;,
3;211,247,212;,
3;461,462,463;,
3;463,464,461;,
3;246,270,247;,
3;465,466,467;,
3;467,468,465;,
3;469,359,358;,
3;358,470,471;,
3;469,358,471;,
3;337,333,359;,
3;359,469,472;,
3;359,472,473;,
3;337,359,473;,
3;474,475,476;,
3;473,474,476;,
3;337,473,476;,
3;477,366,365;,
3;365,478,479;,
3;477,365,479;,
3;286,282,366;,
3;366,477,480;,
3;366,480,481;,
3;286,366,481;,
3;482,483,484;,
3;481,482,484;,
3;286,481,484;,
3;485,345,344;,
3;344,486,487;,
3;485,344,487;,
3;303,299,345;,
3;345,485,488;,
3;345,488,489;,
3;303,345,489;,
3;490,491,492;,
3;489,490,492;,
3;303,489,492;,
3;493,352,351;,
3;351,494,495;,
3;493,351,495;,
3;320,316,352;,
3;352,493,496;,
3;352,496,497;,
3;320,352,497;,
3;498,499,500;,
3;497,498,500;,
3;320,497,500;,
3;501,423,429;,
3;502,501,429;,
3;219,186,153;,
3;153,118,83;,
3;83,48,3;,
3;153,83,3;,
3;219,153,3;,
3;0,219,3;,
3;358,357,363;,
3;363,362,361;,
3;503,504,505;,
3;363,361,314;,
3;313,321,320;,
3;506,507,508;,
3;509,506,508;,
3;313,320,510;,
3;314,313,510;,
3;501,502,511;,
3;423,501,511;,
3;314,512,513;,
3;314,513,514;,
3;515,430,394;,
3;314,514,516;,
3;363,314,516;,
3;517,518,519;,
3;517,519,520;,
3;517,520,521;,
3;472,469,471;,
3;522,523,524;,
3;525,526,527;,
3;525,527,528;,
3;473,472,474;,
3;529,530,531;,
3;532,529,531;,
3;400,403,533;,
3;401,400,533;,
3;534,436,405;,
3;405,404,407;,
3;535,536,537;,
3;365,364,370;,
3;370,369,368;,
3;365,370,368;,
3;538,539,540;,
3;541,542,368;,
3;543,544,545;,
3;541,368,331;,
3;546,541,331;,
3;547,546,331;,
3;548,331,330;,
3;337,548,330;,
3;338,337,330;,
3;480,477,479;,
3;549,550,551;,
3;552,553,554;,
3;552,554,555;,
3;481,480,482;,
3;556,557,558;,
3;559,556,558;,
3;371,374,560;,
3;372,371,560;,
3;561,416,376;,
3;376,375,378;,
3;562,563,564;,
3;344,343,349;,
3;349,348,347;,
3;344,349,347;,
3;565,566,567;,
3;568,569,347;,
3;570,571,572;,
3;568,347,280;,
3;573,568,280;,
3;574,573,280;,
3;575,280,279;,
3;286,575,279;,
3;287,286,279;,
3;488,485,487;,
3;576,577,578;,
3;579,580,581;,
3;579,581,582;,
3;489,488,490;,
3;583,584,585;,
3;586,583,585;,
3;382,385,587;,
3;383,382,587;,
3;588,422,387;,
3;387,386,389;,
3;589,590,591;,
3;351,350,356;,
3;356,355,354;,
3;351,356,354;,
3;592,593,594;,
3;595,596,354;,
3;597,598,599;,
3;595,354,297;,
3;600,595,297;,
3;601,600,297;,
3;602,297,296;,
3;303,602,296;,
3;304,303,296;,
3;496,493,495;,
3;603,604,605;,
3;606,607,608;,
3;606,608,609;,
3;497,496,498;;
MeshMaterialList {
 1;
 486;
  0,
  0,
  0,
  0,
  0,
  0,
  0,
  0,
  0,
  0,
  0,
  0,
  0,
  0,
  0,
  0,
  0,
  0,
  0,
  0,
  0,
  0,
  0,
  0,
  0,
  0,
  0,
  0,
  0,
  0,
  0,
  0,
  0,
  0,
  0,
  0,
  0,
  0,
  0,
  0,
  0,
  0,
  0,
  0,
  0,
  0,
  0,
  0,
  0,
  0,
  0,
  0,
  0,
  0,
  0,
  0,
  0,
  0,
  0,
  0,
  0,
  0,
  0,
  0,
  0,
  0,
  0,
  0,
  0,
  0,
  0,
  0,
  0,
  0,
  0,
  0,
  0,
  0,
  0,
  0,
  0,
  0,
  0,
  0,
  0,
  0,
  0,
  0,
  0,
  0,
  0,
  0,
  0,
  0,
  0,
  0,
  0,
  0,
  0,
  0,
  0,
  0,
  0,
  0,
  0,
  0,
  0,
  0,
  0,
  0,
  0,
  0,
  0,
  0,
  0,
  0,
  0,
  0,
  0,
  0,
  0,
  0,
  0,
  0,
  0,
  0,
  0,
  0,
  0,
  0,
  0,
  0,
  0,
  0,
  0,
  0,
  0,
  0,
  0,
  0,
  0,
  0,
  0,
  0,
  0,
  0,
  0,
  0,
  0,
  0,
  0,
  0,
  0,
  0,
  0,
  0,
  0,
  0,
  0,
  0,
  0,
  0,
  0,
  0,
  0,
  0,
  0,
  0,
  0,
  0,
  0,
  0,
  0,
  0,
  0,
  0,
  0,
  0,
  0,
  0,
  0,
  0,
  0,
  0,
  0,
  0,
  0,
  0,
  0,
  0,
  0,
  0,
  0,
  0,
  0,
  0,
  0,
  0,
  0,
  0,
  0,
  0,
  0,
  0,
  0,
  0,
  0,
  0,
  0,
  0,
  0,
  0,
  0,
  0,
  0,
  0,
  0,
  0,
  0,
  0,
  0,
  0,
  0,
  0,
  0,
  0,
  0,
  0,
  0,
  0,
  0,
  0,
  0,
  0,
  0,
  0,
  0,
  0,
  0,
  0,
  0,
  0,
  0,
  0,
  0,
  0,
  0,
  0,
  0,
  0,
  0,
  0,
  0,
  0,
  0,
  0,
  0,
  0,
  0,
  0,
  0,
  0,
  0,
  0,
  0,
  0,
  0,
  0,
  0,
  0,
  0,
  0,
  0,
  0,
  0,
  0,
  0,
  0,
  0,
  0,
  0,
  0,
  0,
  0,
  0,
  0,
  0,
  0,
  0,
  0,
  0,
  0,
  0,
  0,
  0,
  0,
  0,
  0,
  0,
  0,
  0,
  0,
  0,
  0,
  0,
  0,
  0,
  0,
  0,
  0,
  0,
  0,
  0,
  0,
  0,
  0,
  0,
  0,
  0,
  0,
  0,
  0,
  0,
  0,
  0,
  0,
  0,
  0,
  0,
  0,
  0,
  0,
  0,
  0,
  0,
  0,
  0,
  0,
  0,
  0,
  0,
  0,
  0,
  0,
  0,
  0,
  0,
  0,
  0,
  0,
  0,
  0,
  0,
  0,
  0,
  0,
  0,
  0,
  0,
  0,
  0,
  0,
  0,
  0,
  0,
  0,
  0,
  0,
  0,
  0,
  0,
  0,
  0,
  0,
  0,
  0,
  0,
  0,
  0,
  0,
  0,
  0,
  0,
  0,
  0,
  0,
  0,
  0,
  0,
  0,
  0,
  0,
  0,
  0,
  0,
  0,
  0,
  0,
  0,
  0,
  0,
  0,
  0,
  0,
  0,
  0,
  0,
  0,
  0,
  0,
  0,
  0,
  0,
  0,
  0,
  0,
  0,
  0,
  0,
  0,
  0,
  0,
  0,
  0,
  0,
  0,
  0,
  0,
  0,
  0,
  0,
  0,
  0,
  0,
  0,
  0,
  0,
  0,
  0,
  0,
  0,
  0,
  0,
  0,
  0,
  0,
  0,
  0,
  0,
  0,
  0,
  0,
  0,
  0,
  0,
  0,
  0,
  0,
  0,
  0,
  0,
  0,
  0,
  0,
  0,
  0,
  0,
  0,
  0,
  0,
  0,
  0,
  0,
  0,
  0,
  0,
  0,
  0,
  0,
  0,
  0,
  0,
  0,
  0,
  0,
  0;;
Material {
 0.752941;0.752941;0.752941;1.0;;
 50.000000;
 0.752941;0.752941;0.752941;;
 0.117647;0.117647;0.117647;;
 }
}

 MeshNormals {
 610;
-0.00276402;0.999985;0.0046345;,
-0.00556348;0.999973;0.00474861;,
-0.000578193;0.999973;0.00729218;,
-0.0029888;0.999995;0.000755505;,
-0.0915317;0.760095;0.643333;,
-0.39459;0.759766;0.516773;,
0.0864148;0.759743;0.644456;,
-0.519645;0.760078;0.390192;,
-0.320183;-0.558649;0.76511;,
-0.320183;-0.558649;0.76511;,
-0.320389;-0.558119;0.765411;,
-0.319977;-0.559179;0.76481;,
-0.377441;0.209874;0.901937;,
-0.377441;0.209874;0.901937;,
-0.377387;0.209535;0.902039;,
-0.377495;0.210213;0.901836;,
-0.0626794;-0.895733;0.440152;,
-0.505185;-0.730748;0.459125;,
-0.0325801;-0.730744;0.681874;,
-0.355546;-0.895739;0.266906;,
-0.365796;-0.337162;0.867476;,
-0.381753;-0.203607;0.901559;,
-0.389284;-0.0698858;0.918463;,
-0.390354;-0.0683045;0.918127;,
-0.0951985;-0.763588;0.638647;,
-0.396428;-0.762795;0.51087;,
0.0809245;-0.762796;0.641555;,
-0.518913;-0.763584;0.384277;,
-0.394963;-0.0675114;0.916213;,
-0.394963;-0.0675114;0.916213;,
-0.396713;-0.067278;0.915474;,
-0.393211;-0.0677446;0.916949;,
-0.150396;0.922204;0.356261;,
-0.222551;0.931594;0.287408;,
0.0458651;0.9316;0.360581;,
-0.152564;0.923458;0.352065;,
-0.152564;0.923458;0.352065;,
-0.0791732;-0.84076;0.535588;,
-0.434716;-0.84075;0.322741;,
-0.331158;-0.840669;0.428498;,
-0.343468;-0.00515491;0.93915;,
-0.343468;-0.00515491;0.93915;,
-0.393887;0.0110317;0.919093;,
-0.291947;-0.021325;0.956197;,
-0.0040628;-0.935951;0.352106;,
-0.251594;-0.936165;0.245552;,
0.000830022;-0.999999;-0.000771609;,
-0.00729165;0.999973;-0.000578108;,
-0.00463425;0.999985;-0.00276393;,
-0.644467;0.759733;0.086414;,
-0.643378;0.760058;-0.0915186;,
-0.767509;-0.558503;0.314649;,
-0.767509;-0.558503;0.314649;,
-0.767855;-0.557992;0.314714;,
-0.767163;-0.559015;0.314585;,
-0.904666;0.209839;0.370873;,
-0.904666;0.209839;0.370873;,
-0.904696;0.209539;0.37097;,
-0.904636;0.210139;0.370776;,
-0.681875;-0.730743;-0.032577;,
-0.440134;-0.895742;-0.0626831;,
-0.872042;-0.337173;0.354764;,
-0.907421;-0.203632;0.36759;,
-0.924704;-0.0699108;0.374211;,
-0.925236;-0.068293;0.373194;,
-0.641557;-0.762795;0.080925;,
-0.638649;-0.763587;-0.0951984;,
-0.927151;-0.0674865;0.368559;,
-0.927151;-0.0674865;0.368559;,
-0.927868;-0.0672509;0.366795;,
-0.926432;-0.0677217;0.370322;,
-0.358261;0.922199;0.145593;,
-0.360589;0.931596;0.0458633;,
-0.356814;0.923465;0.141052;,
-0.356814;0.923465;0.141052;,
-0.535598;-0.840754;-0.0791729;,
-0.537159;-0.840667;0.0688386;,
-0.906933;-0.00502138;0.421245;,
-0.906933;-0.00502138;0.421245;,
-0.92841;0.0109139;0.371396;,
-0.882553;-0.0209406;0.469746;,
-0.352036;-0.935976;-0.0044992;,
-0.00474843;0.999973;-0.00556354;,
-0.000882301;0.999994;-0.00348693;,
-0.516809;0.75974;-0.394594;,
-0.390206;0.760073;-0.519642;,
-0.765211;-0.558491;-0.320218;,
-0.765211;-0.558491;-0.320218;,
-0.765572;-0.557855;-0.320465;,
-0.76485;-0.559127;-0.319971;,
-0.90194;0.209816;-0.377468;,
-0.90194;0.209816;-0.377468;,
-0.902025;0.209532;-0.377423;,
-0.901855;0.210099;-0.377512;,
-0.459124;-0.730742;-0.505195;,
-0.266907;-0.895734;-0.355557;,
-0.867482;-0.337165;-0.36578;,
-0.901563;-0.203631;-0.38173;,
-0.918467;-0.069924;-0.389267;,
-0.918127;-0.068319;-0.390354;,
-0.510873;-0.762794;-0.396426;,
-0.384281;-0.763581;-0.518914;,
-0.916253;-0.0668758;-0.394979;,
-0.916253;-0.0668758;-0.394979;,
-0.915514;-0.0666398;-0.396729;,
-0.916988;-0.0671116;-0.393229;,
-0.356272;0.922202;-0.150381;,
-0.287407;0.931596;-0.222544;,
-0.352055;0.923463;-0.15256;,
-0.352055;0.923463;-0.15256;,
-0.322741;-0.840753;-0.43471;,
-0.428503;-0.840668;-0.331153;,
-0.939138;-0.00826055;-0.34344;,
-0.939138;-0.00826055;-0.34344;,
-0.919123;0.0074949;-0.393898;,
-0.956152;-0.0239896;-0.291885;,
-0.246579;-0.935489;-0.2531;,
0.000576645;0.999973;-0.00729168;,
0.00276354;0.999985;-0.00463374;,
-0.0864126;0.759745;-0.644454;,
0.091524;0.760073;-0.64336;,
-0.314639;-0.558545;-0.767483;,
-0.314639;-0.558545;-0.767483;,
-0.314712;-0.557971;-0.76787;,
-0.314567;-0.559119;-0.767094;,
-0.370868;0.2098;-0.904677;,
-0.370868;0.2098;-0.904677;,
-0.370968;0.209492;-0.904708;,
-0.370769;0.210107;-0.904647;,
0.032576;-0.73074;-0.681879;,
0.0626835;-0.895735;-0.440148;,
-0.354757;-0.337167;-0.872047;,
-0.367579;-0.203633;-0.907425;,
-0.374203;-0.0699235;-0.924707;,
-0.373194;-0.0683184;-0.925235;,
-0.0809251;-0.762791;-0.641561;,
0.0952015;-0.763581;-0.638655;,
-0.368611;-0.066037;-0.927235;,
-0.368611;-0.066037;-0.927235;,
-0.36685;-0.0658008;-0.92795;,
-0.37037;-0.0662729;-0.926517;,
-0.145587;0.922201;-0.35826;,
-0.0458642;0.931596;-0.360592;,
-0.141062;0.923462;-0.356818;,
0.0544829;0.931949;-0.358474;,
0.079175;-0.840752;-0.535599;,
-0.0688364;-0.840667;-0.537159;,
-0.421209;-0.0129738;-0.906871;,
-0.421209;-0.0129738;-0.906871;,
-0.371417;0.00277786;-0.928462;,
-0.469656;-0.0286841;-0.882384;,
0.00454097;-0.934988;-0.35465;,
0.00556495;0.999973;-0.0047478;,
0.00298936;0.999995;-0.000756019;,
0.394593;0.759747;-0.516799;,
0.519641;0.760074;-0.390205;,
0.320207;-0.558544;-0.765177;,
0.320207;-0.558544;-0.765177;,
0.320433;-0.557962;-0.765507;,
0.319981;-0.559125;-0.764847;,
0.377461;0.209798;-0.901947;,
0.377461;0.209798;-0.901947;,
0.377414;0.2095;-0.902036;,
0.377508;0.210096;-0.901857;,
0.505196;-0.730739;-0.459127;,
0.355555;-0.895735;-0.266908;,
0.365781;-0.337168;-0.86748;,
0.38173;-0.203634;-0.901563;,
0.389267;-0.0699243;-0.918467;,
0.390355;-0.0683179;-0.918126;,
0.396433;-0.762791;-0.510873;,
0.518913;-0.763584;-0.384277;,
0.395033;-0.065461;-0.916332;,
0.395033;-0.065461;-0.916332;,
0.396785;-0.0652258;-0.915591;,
0.39328;-0.065696;-0.917069;,
0.222547;0.931596;-0.287406;,
0.292004;0.931949;-0.214951;,
0.43471;-0.840753;-0.32274;,
0.331154;-0.840667;-0.428504;,
0.343406;-0.0163969;-0.939044;,
0.343406;-0.0163969;-0.939044;,
0.393896;-0.000466819;-0.919155;,
0.291818;-0.0322745;-0.955929;,
0.254248;-0.934769;-0.248125;,
0.00729221;0.999973;0.00057629;,
0.00463405;0.999985;0.00276324;,
0.644453;0.759746;-0.0864116;,
0.643368;0.760067;0.0915258;,
0.767484;-0.558543;-0.31464;,
0.767484;-0.558543;-0.31464;,
0.767872;-0.557969;-0.314712;,
0.767095;-0.559118;-0.314567;,
0.904677;0.209799;-0.370869;,
0.904677;0.209799;-0.370869;,
0.904708;0.209491;-0.370968;,
0.904647;0.210106;-0.370769;,
0.681879;-0.730739;0.0325725;,
0.440147;-0.895735;0.0626817;,
0.872047;-0.337167;-0.354758;,
0.907424;-0.203633;-0.367579;,
0.924707;-0.0699238;-0.374203;,
0.925235;-0.0683184;-0.373194;,
0.641557;-0.762795;-0.0809252;,
0.638649;-0.763587;0.0951982;,
0.927275;-0.0654858;-0.368608;,
0.927275;-0.0654858;-0.368608;,
0.927991;-0.0652519;-0.366844;,
0.926556;-0.0657194;-0.370371;,
0.360589;0.931597;-0.0458595;,
0.358474;0.931948;0.054487;,
0.535599;-0.840752;0.0791771;,
0.537158;-0.840668;-0.0688361;,
0.906827;-0.0165284;-0.421179;,
0.906827;-0.0165284;-0.421179;,
0.928468;-0.000341672;-0.371413;,
0.882277;-0.0326621;-0.469595;,
0.354721;-0.934963;0.00410241;,
0.00474799;0.999973;0.00556462;,
0.000881017;0.999994;0.00348751;,
0.516817;0.759726;0.394609;,
0.390217;0.760061;0.519653;,
0.765169;-0.558554;0.320209;,
0.765169;-0.558554;0.320209;,
0.765506;-0.55796;0.32044;,
0.764832;-0.559148;0.319978;,
0.901941;0.209824;0.37746;,
0.901941;0.209824;0.37746;,
0.902038;0.209501;0.377409;,
0.901845;0.210147;0.377511;,
0.45912;-0.730739;0.505202;,
0.266903;-0.895736;0.355556;,
0.867483;-0.337172;0.365771;,
0.901565;-0.203641;0.381721;,
0.918469;-0.0699335;0.38926;,
0.918127;-0.068318;0.390354;,
0.510871;-0.762795;0.396429;,
0.384276;-0.763585;0.518912;,
0.916299;-0.0660971;0.395003;,
0.915558;-0.0658645;0.396756;,
0.915558;-0.0658645;0.396756;,
0.916299;-0.0660971;0.395003;,
0.917036;-0.0663295;0.393249;,
0.917036;-0.0663295;0.393249;,
0.287415;0.931593;0.222546;,
0.214962;0.931949;0.291998;,
0.322748;-0.840751;0.43471;,
0.428506;-0.840664;0.33116;,
0.939084;-0.0132895;0.343431;,
0.939084;-0.0132895;0.343431;,
0.919145;0.00307993;0.393907;,
0.956005;-0.0296162;0.291852;,
0.247088;-0.935453;0.252733;,
0.31462;-0.558647;0.767416;,
0.31462;-0.558647;0.767416;,
0.314699;-0.558021;0.767839;,
0.314541;-0.559273;0.766993;,
0.370853;0.209873;0.904667;,
0.370853;0.209873;0.904667;,
0.370939;0.209605;0.904693;,
0.370766;0.21014;0.90464;,
0.354728;-0.337158;0.872062;,
0.367553;-0.203638;0.907434;,
0.374182;-0.0699415;0.924714;,
0.373192;-0.0683667;0.925232;,
0.368581;-0.0669369;0.927183;,
0.368581;-0.0669369;0.927183;,
0.366826;-0.0667053;0.927895;,
0.370335;-0.0671682;0.926467;,
0.141056;0.923469;0.356804;,
0.0688464;-0.840671;0.537152;,
0.421249;-0.00858111;0.906904;,
0.421249;-0.00858111;0.906904;,
0.371407;0.00779598;0.928437;,
0.469736;-0.0249306;0.882455;,
-0.388509;0.0515261;0.920003;,
-0.38622;-0.168248;0.906932;,
-0.384634;-0.163863;0.908408;,
-0.387443;0.0537096;0.920328;,
-0.0296135;-0.992975;0.114562;,
-0.0037671;-0.999369;0.0353277;,
-0.0218576;-0.998453;-0.0511165;,
0.210056;-0.975192;-0.0698377;,
-0.46072;-0.644954;-0.609731;,
-0.46072;-0.644954;-0.609731;,
-0.46072;-0.644954;-0.609731;,
0.0303205;-0.999288;-0.0224681;,
-0.0265936;-0.996455;-0.0798083;,
-0.922245;0.0952439;0.374691;,
-0.914405;-0.1682;0.368201;,
-0.914328;-0.163857;0.370346;,
-0.92475;0.0536943;0.376769;,
-0.919995;0.0515257;-0.388529;,
-0.906938;-0.16821;-0.386224;,
-0.908401;-0.163863;-0.38465;,
-0.920315;0.0536931;-0.387476;,
-0.114328;-0.992994;-0.0298632;,
-0.0348459;-0.999385;-0.00387116;,
0.0517354;-0.998408;-0.0224599;,
0.0699841;-0.975213;0.209908;,
0.60974;-0.644941;-0.460726;,
0.60974;-0.644941;-0.460726;,
0.60974;-0.644941;-0.460726;,
0.0224592;-0.999288;0.0303197;,
0.0798011;-0.996456;-0.0265879;,
-0.374696;0.0952412;-0.922243;,
-0.368201;-0.168213;-0.914403;,
-0.370349;-0.163864;-0.914325;,
-0.376776;0.0536942;-0.924747;,
0.38853;0.0515264;-0.919994;,
0.386226;-0.168212;-0.906937;,
0.384651;-0.163862;-0.908401;,
0.387476;0.053695;-0.920315;,
0.029675;-0.992982;-0.114482;,
0.0673749;-0.997485;-0.0220283;,
0.021986;-0.998443;0.051267;,
-0.210017;-0.975199;0.0698597;,
0.460717;-0.644964;0.609722;,
0.460717;-0.644964;0.609722;,
0.460717;-0.644964;0.609722;,
-0.0303167;-0.999288;0.0224694;,
0.0265918;-0.996456;0.079801;,
0.922243;0.0952413;-0.374696;,
0.914403;-0.168213;-0.3682;,
0.914325;-0.163863;-0.370349;,
0.924747;0.0536945;-0.376776;,
0.919994;0.0515287;0.388529;,
0.906936;-0.168211;0.386227;,
0.908402;-0.163857;0.384651;,
0.920315;0.0536989;0.387474;,
0.114753;-0.992959;0.029398;,
0.034284;-0.999406;0.00354494;,
-0.0505772;-0.998493;0.0213048;,
-0.0696888;-0.975174;-0.210188;,
-0.609718;-0.644968;0.460717;,
-0.609718;-0.644968;0.460717;,
-0.609718;-0.644968;0.460717;,
-0.0224729;-0.999288;-0.0303143;,
-0.0798065;-0.996455;0.0265991;,
0.374686;0.0952444;0.922247;,
0.368203;-0.168185;0.914407;,
0.370335;-0.163869;0.91433;,
0.376748;0.0536782;0.924759;,
0.0703252;-0.981323;-0.179054;,
-0.0283306;-0.999563;-0.00841264;,
0.207098;-0.973866;-0.0932491;,
0.556168;-0.712244;0.428235;,
0.0686247;-0.990026;0.123043;,
0.172783;-0.983722;0.0493629;,
0.0145117;-0.999508;-0.0277971;,
0.17905;-0.981324;0.0703211;,
0.00840967;-0.999563;-0.0283344;,
0.0932491;-0.973868;0.207091;,
-0.428232;-0.712259;0.556151;,
-0.122937;-0.990051;0.0684498;,
-0.0493652;-0.983724;0.172774;,
0.0277968;-0.999508;0.0145074;,
-0.0703172;-0.981325;0.179046;,
0.0109755;-0.999742;0.0199009;,
-0.207091;-0.973868;0.0932408;,
-0.55615;-0.712263;-0.428227;,
-0.189479;-0.9655;-0.178628;,
-0.172767;-0.983725;-0.0493652;,
0.0327743;-0.999225;0.0217969;,
-0.179046;-0.981324;-0.0703281;,
-0.00839049;-0.999564;0.0283261;,
-0.0932367;-0.973867;-0.207101;,
0.428233;-0.712246;-0.556167;,
0.123012;-0.990034;-0.0685605;,
0.0493684;-0.983721;-0.172786;,
-0.0277924;-0.999508;-0.0145169;,
-0.340307;0.480532;0.808258;,
-0.340962;0.480441;0.808035;,
-0.352275;0.421002;0.835858;,
-0.340108;0.480433;0.8084;,
-0.812133;0.480444;0.331078;,
-0.812212;0.480295;0.331103;,
-0.836724;0.428652;0.340807;,
-0.812133;0.480443;0.331082;,
-0.81213;0.480445;0.331084;,
-0.812131;0.480446;0.33108;,
-0.87138;0.338463;0.355162;,
-0.808248;0.480529;-0.340333;,
-0.808044;0.480445;-0.340937;,
-0.835853;0.421012;-0.352277;,
-0.808379;0.480438;-0.34015;,
-0.331105;0.480425;-0.812134;,
-0.331114;0.48028;-0.812216;,
-0.340817;0.42864;-0.836726;,
-0.331099;0.480426;-0.812136;,
-0.331089;0.480431;-0.812137;,
-0.33109;0.480431;-0.812137;,
-0.355169;0.338458;-0.871379;,
0.81214;0.480423;-0.331092;,
0.812249;0.480226;-0.33111;,
0.83673;0.428635;-0.340816;,
0.812139;0.480422;-0.331097;,
0.812141;0.480424;-0.331089;,
0.812141;0.480423;-0.331091;,
0.87138;0.338455;-0.35517;,
0.808255;0.480516;0.340335;,
0.808048;0.48043;0.340948;,
0.835857;0.420999;0.352283;,
0.808388;0.480424;0.34015;,
0.331041;0.480458;0.81214;,
0.331113;0.480297;0.812206;,
0.340792;0.428662;0.836726;,
0.331042;0.480458;0.81214;,
0.331045;0.480457;0.812139;,
0.331046;0.480457;0.812139;,
0.355131;0.338475;0.871388;,
-0.341121;0.480642;0.807849;,
-0.341181;0.480305;0.808024;,
-0.333088;0.479451;0.811898;,
-0.318004;0.477287;0.819189;,
-0.34639;0.409945;0.843777;,
-0.84444;0.410742;0.34382;,
-0.807872;0.480629;-0.341084;,
-0.808033;0.480319;-0.341139;,
-0.811888;0.479452;-0.333113;,
-0.819163;0.477289;-0.318068;,
-0.843766;0.409942;-0.34642;,
-0.343816;0.410736;-0.844444;,
0.340941;0.48043;-0.808051;,
0.341088;0.480614;-0.807879;,
0.341141;0.480305;-0.808041;,
0.333116;0.479438;-0.811894;,
0.318077;0.477275;-0.819167;,
0.346424;0.409932;-0.843769;,
0.352278;0.421001;-0.835858;,
0.844446;0.410728;-0.343823;,
0.807875;0.480615;0.341099;,
0.808037;0.480301;0.341155;,
0.811907;0.479434;0.333091;,
0.819209;0.477265;0.317986;,
0.843783;0.40993;0.346394;,
0.343878;0.410735;0.84442;,
-0.38829;-0.0959797;0.916525;,
-0.387541;-0.0841073;0.918008;,
-0.38829;-0.0959797;0.916525;,
-0.388984;-0.107838;0.914911;,
-0.922627;-0.0959615;0.373564;,
-0.923149;-0.0839848;0.375156;,
-0.922627;-0.0959615;0.373564;,
-0.92197;-0.107924;0.371918;,
-0.916541;-0.0959826;-0.388253;,
-0.918033;-0.0840256;-0.387498;,
-0.916541;-0.0959826;-0.388253;,
-0.914915;-0.107926;-0.388952;,
-0.373555;-0.0959827;-0.922629;,
-0.375145;-0.0840246;-0.92315;,
-0.373555;-0.0959827;-0.922629;,
-0.371911;-0.107927;-0.921973;,
0.388253;-0.0959823;-0.916541;,
0.387498;-0.0840253;-0.918033;,
0.388253;-0.0959823;-0.916541;,
0.388952;-0.107925;-0.914915;,
0.922629;-0.0959812;-0.373556;,
0.92315;-0.0840201;-0.375146;,
0.922629;-0.0959812;-0.373556;,
0.921973;-0.107928;-0.371911;,
0.916538;-0.0959588;0.388264;,
0.918028;-0.0840254;0.387511;,
0.916538;-0.0959588;0.388264;,
0.914916;-0.107878;0.388962;,
0.3736;-0.0959669;0.922612;,
0.375202;-0.0839085;0.923137;,
0.3736;-0.0959669;0.922612;,
0.371942;-0.108011;0.921951;,
-0.0570805;-0.998343;-0.00723367;,
0.111833;-0.99268;-0.0455989;,
0.137649;-0.990191;-0.0239873;,
-0.0664724;-0.983683;0.167182;,
-0.0168208;-0.997694;0.0657573;,
0.111944;-0.992694;0.0450303;,
0.113019;-0.992446;0.0477186;,
0.11103;-0.992795;0.0450691;,
0.00723688;-0.998343;-0.0570922;,
0.0455807;-0.992682;0.111822;,
0.0239759;-0.990193;0.137636;,
-0.16718;-0.983683;-0.0664771;,
-0.0657529;-0.997694;-0.0168194;,
-0.0450256;-0.992692;0.111958;,
-0.0477274;-0.992445;0.113029;,
-0.0450725;-0.992794;0.111034;,
0.0570887;-0.998343;0.00721875;,
-0.111823;-0.992683;0.045572;,
-0.137639;-0.990192;0.0239719;,
0.066477;-0.983684;-0.167173;,
0.0168189;-0.997694;-0.0657505;,
-0.111952;-0.992693;-0.0450227;,
-0.113024;-0.992446;-0.0477186;,
-0.111033;-0.992794;-0.0450675;,
-0.00721902;-0.998343;0.0570815;,
-0.0455913;-0.992681;-0.111832;,
-0.0239806;-0.990191;-0.137646;,
0.167172;-0.983685;0.0664688;,
0.0657505;-0.997694;0.0168146;,
0.0450238;-0.992692;-0.111962;,
0.0477246;-0.992444;-0.113037;,
0.0450663;-0.992794;-0.111039;,
0.340337;0.480515;-0.808255;,
0.340155;0.480424;-0.808385;,
0.77702;-0.453555;0.436495;,
0.77702;-0.453555;0.436495;,
0.77702;-0.453555;0.436495;,
0.794581;-0.57247;-0.202284;,
0.890673;-0.45452;-0.0106083;,
0.794581;-0.57247;-0.202284;,
0.650905;-0.656137;-0.381846;,
0.0278673;-0.960625;-0.276446;,
0.340281;0.480627;-0.808212;,
-0.216343;-0.89921;0.380284;,
-0.0883349;-0.986182;0.140153;,
0.111773;-0.99286;-0.0416689;,
0.81216;0.479641;-0.332176;,
0.224295;-0.97447;0.0100438;,
0.25146;-0.582314;-0.773097;,
0.410364;-0.663508;-0.625586;,
0.346741;-0.640537;-0.685189;,
0.165717;-0.529234;-0.832136;,
0.0463823;-0.430934;-0.901191;,
0.803119;-0.49234;0.335562;,
0.803119;-0.49234;0.335562;,
0.803119;-0.49234;0.335562;,
0.620078;-0.554857;-0.55465;,
0.584181;-0.71856;-0.377365;,
0.620078;-0.554857;-0.55465;,
0.61907;-0.358132;-0.698924;,
0.202289;-0.572479;0.794573;,
0.0105991;-0.45452;0.890674;,
0.202289;-0.572479;0.794573;,
0.381863;-0.65615;0.650882;,
0.808212;0.480629;0.340278;,
0.332254;0.479641;0.812128;,
0.870869;-0.488667;0.0528282;,
0.870869;-0.488667;0.0528282;,
0.870869;-0.488667;0.0528282;,
0.347522;-0.700409;0.623422;,
0.347522;-0.700409;0.623422;,
0.347522;-0.700409;0.623422;,
0.0455497;-0.991638;0.120746;,
-0.0179626;-0.978817;0.203946;,
-0.436495;-0.453557;0.777019;,
-0.436495;-0.453557;0.777019;,
-0.436495;-0.453557;0.777019;,
-0.139959;-0.986214;-0.088283;,
-0.37965;-0.899527;-0.216141;,
0.276455;-0.960623;0.0278627;,
-0.335631;-0.492323;0.8031;,
-0.335631;-0.492323;0.8031;,
-0.335631;-0.492323;0.8031;,
0.554653;-0.55486;0.620073;,
0.377359;-0.718552;0.584194;,
0.554653;-0.55486;0.620073;,
0.698937;-0.358145;0.619047;,
-0.794575;-0.572475;0.202293;,
-0.890674;-0.454518;0.0106058;,
-0.794575;-0.572475;0.202293;,
-0.650887;-0.656145;0.381865;,
-0.340245;0.480653;0.808212;,
-0.812149;0.479661;0.332174;,
-0.0530832;-0.488837;0.870759;,
-0.0530832;-0.488837;0.870759;,
-0.0530832;-0.488837;0.870759;,
-0.623474;-0.700394;0.34746;,
-0.623474;-0.700394;0.34746;,
-0.623474;-0.700394;0.34746;,
-0.120612;-0.991652;0.0456022;,
-0.20401;-0.978803;-0.0180371;,
-0.776717;-0.454337;-0.436221;,
-0.776717;-0.454337;-0.436221;,
-0.776717;-0.454337;-0.436221;,
0.0873918;-0.986662;-0.137332;,
0.214547;-0.901943;-0.37479;,
-0.0278468;-0.960612;0.276493;,
-0.803099;-0.492333;-0.33562;,
-0.803099;-0.492333;-0.33562;,
-0.803099;-0.492333;-0.33562;,
-0.620074;-0.554857;0.554655;,
-0.58419;-0.718551;0.377367;,
-0.620074;-0.554857;0.554655;,
-0.619054;-0.358141;0.698933;,
-0.202277;-0.572474;-0.79458;,
-0.0106023;-0.454524;-0.890672;,
-0.202277;-0.572474;-0.79458;,
-0.381838;-0.656141;-0.650906;,
-0.808205;0.480641;-0.340276;,
-0.332154;0.479659;-0.812158;,
-0.870742;-0.488862;-0.0531261;,
-0.870742;-0.488862;-0.0531261;,
-0.870742;-0.488862;-0.0531261;,
-0.347453;-0.700395;-0.623477;,
-0.347453;-0.700395;-0.623477;,
-0.347453;-0.700395;-0.623477;,
-0.0454542;-0.991616;-0.120962;,
0.0180153;-0.978809;-0.203981;,
0.436038;-0.454842;-0.776524;,
0.436038;-0.454842;-0.776524;,
0.436038;-0.454842;-0.776524;,
0.138235;-0.986509;0.0876947;,
0.376617;-0.901037;0.215156;,
-0.276507;-0.960608;-0.0278595;,
0.335581;-0.492336;-0.803113;,
0.335581;-0.492336;-0.803113;,
0.335581;-0.492336;-0.803113;,
-0.554652;-0.554854;-0.620079;,
-0.377375;-0.718557;-0.584178;,
-0.554652;-0.554854;-0.620079;,
-0.698919;-0.35813;-0.619076;;

 486;
3;0,1,2;,
3;0,3,1;,
3;4,5,6;,
3;4,7,5;,
3;8,9,10;,
3;8,11,9;,
3;12,13,14;,
3;12,15,13;,
3;16,17,18;,
3;16,19,17;,
3;18,20,21;,
3;18,17,20;,
3;21,22,23;,
3;21,20,22;,
3;24,25,26;,
3;24,27,25;,
3;28,29,30;,
3;28,31,29;,
3;32,33,34;,
3;35,36,33;,
3;37,38,39;,
3;40,41,42;,
3;40,43,41;,
3;44,45,46;,
3;3,47,1;,
3;3,48,47;,
3;7,49,5;,
3;7,50,49;,
3;51,52,53;,
3;51,54,52;,
3;55,56,57;,
3;55,58,56;,
3;19,59,17;,
3;19,60,59;,
3;17,61,62;,
3;17,59,61;,
3;62,63,64;,
3;62,61,63;,
3;27,65,25;,
3;27,66,65;,
3;67,68,69;,
3;67,70,68;,
3;71,72,33;,
3;73,74,72;,
3;38,75,76;,
3;77,78,79;,
3;77,80,78;,
3;45,81,46;,
3;48,82,47;,
3;48,83,82;,
3;50,84,49;,
3;50,85,84;,
3;86,87,88;,
3;86,89,87;,
3;90,91,92;,
3;90,93,91;,
3;60,94,59;,
3;60,95,94;,
3;59,96,97;,
3;59,94,96;,
3;97,98,99;,
3;97,96,98;,
3;66,100,65;,
3;66,101,100;,
3;102,103,104;,
3;102,105,103;,
3;106,107,72;,
3;108,109,107;,
3;75,110,111;,
3;112,113,114;,
3;112,115,113;,
3;81,116,46;,
3;83,117,82;,
3;83,118,117;,
3;85,119,84;,
3;85,120,119;,
3;121,122,123;,
3;121,124,122;,
3;125,126,127;,
3;125,128,126;,
3;95,129,94;,
3;95,130,129;,
3;94,131,132;,
3;94,129,131;,
3;132,133,134;,
3;132,131,133;,
3;101,135,100;,
3;101,136,135;,
3;137,138,139;,
3;137,140,138;,
3;141,142,107;,
3;143,144,142;,
3;110,145,146;,
3;147,148,149;,
3;147,150,148;,
3;116,151,46;,
3;118,152,117;,
3;118,153,152;,
3;120,154,119;,
3;120,155,154;,
3;156,157,158;,
3;156,159,157;,
3;160,161,162;,
3;160,163,161;,
3;130,164,129;,
3;130,165,164;,
3;129,166,167;,
3;129,164,166;,
3;167,168,169;,
3;167,166,168;,
3;136,170,135;,
3;136,171,170;,
3;172,173,174;,
3;172,175,173;,
3;144,176,142;,
3;144,177,176;,
3;145,178,179;,
3;180,181,182;,
3;180,183,181;,
3;151,184,46;,
3;153,185,152;,
3;153,186,185;,
3;155,187,154;,
3;155,188,187;,
3;189,190,191;,
3;189,192,190;,
3;193,194,195;,
3;193,196,194;,
3;165,197,164;,
3;165,198,197;,
3;164,199,200;,
3;164,197,199;,
3;200,201,202;,
3;200,199,201;,
3;171,203,170;,
3;171,204,203;,
3;205,206,207;,
3;205,208,206;,
3;177,209,176;,
3;177,210,209;,
3;178,211,212;,
3;213,214,215;,
3;213,216,214;,
3;184,217,46;,
3;186,218,185;,
3;186,219,218;,
3;188,220,187;,
3;188,221,220;,
3;222,223,224;,
3;222,225,223;,
3;226,227,228;,
3;226,229,227;,
3;198,230,197;,
3;198,231,230;,
3;197,232,233;,
3;197,230,232;,
3;233,234,235;,
3;233,232,234;,
3;204,236,203;,
3;204,237,236;,
3;238,239,240;,
3;241,242,243;,
3;210,244,209;,
3;210,245,244;,
3;211,246,247;,
3;248,249,250;,
3;248,251,249;,
3;217,252,46;,
3;219,2,218;,
3;219,0,2;,
3;221,6,220;,
3;221,4,6;,
3;253,254,255;,
3;253,256,254;,
3;257,258,259;,
3;257,260,258;,
3;231,18,230;,
3;231,16,18;,
3;230,261,262;,
3;230,18,261;,
3;262,263,264;,
3;262,261,263;,
3;237,26,236;,
3;237,24,26;,
3;265,266,267;,
3;265,268,266;,
3;245,34,244;,
3;245,269,34;,
3;246,37,270;,
3;271,272,273;,
3;271,274,272;,
3;252,44,46;,
3;275,276,277;,
3;277,278,275;,
3;279,280,281;,
3;279,281,282;,
3;283,284,285;,
3;282,286,287;,
3;288,289,290;,
3;290,291,288;,
3;292,293,294;,
3;294,295,292;,
3;296,297,298;,
3;296,298,299;,
3;300,301,302;,
3;299,303,304;,
3;305,306,307;,
3;307,308,305;,
3;309,310,311;,
3;311,312,309;,
3;313,314,315;,
3;313,315,316;,
3;317,318,319;,
3;316,320,321;,
3;322,323,324;,
3;324,325,322;,
3;326,327,328;,
3;328,329,326;,
3;330,331,332;,
3;330,332,333;,
3;334,335,336;,
3;333,337,338;,
3;339,340,341;,
3;341,342,339;,
3;343,344,345;,
3;343,345,282;,
3;282,346,347;,
3;282,347,348;,
3;282,348,349;,
3;343,282,349;,
3;350,351,352;,
3;350,352,299;,
3;299,353,354;,
3;299,354,355;,
3;299,355,356;,
3;350,299,356;,
3;357,358,359;,
3;357,359,316;,
3;316,360,361;,
3;316,361,362;,
3;316,362,363;,
3;357,316,363;,
3;364,365,366;,
3;364,366,333;,
3;333,367,368;,
3;333,368,369;,
3;333,369,370;,
3;364,333,370;,
3;371,372,373;,
3;371,373,374;,
3;375,376,377;,
3;378,375,377;,
3;379,378,377;,
3;380,379,377;,
3;380,377,381;,
3;382,383,384;,
3;382,384,385;,
3;386,387,388;,
3;389,386,388;,
3;390,389,388;,
3;391,390,388;,
3;391,388,392;,
3;393,394,395;,
3;396,393,395;,
3;397,396,395;,
3;398,397,395;,
3;398,395,399;,
3;400,401,402;,
3;400,402,403;,
3;404,405,406;,
3;407,404,406;,
3;408,407,406;,
3;409,408,406;,
3;409,406,410;,
3;372,411,412;,
3;413,414,415;,
3;413,415,373;,
3;412,413,373;,
3;372,412,373;,
3;416,377,376;,
3;383,417,418;,
3;419,420,421;,
3;419,421,384;,
3;418,419,384;,
3;383,418,384;,
3;422,388,387;,
3;423,424,425;,
3;426,427,428;,
3;426,428,429;,
3;425,426,429;,
3;423,425,429;,
3;430,395,394;,
3;401,431,432;,
3;433,434,435;,
3;433,435,402;,
3;432,433,402;,
3;401,432,402;,
3;436,406,405;,
3;275,278,373;,
3;288,291,381;,
3;381,377,288;,
3;292,295,384;,
3;305,308,392;,
3;392,388,305;,
3;309,312,429;,
3;322,325,399;,
3;399,395,322;,
3;326,329,402;,
3;339,342,410;,
3;410,406,339;,
3;275,373,415;,
3;288,377,416;,
3;292,384,421;,
3;305,388,422;,
3;309,429,428;,
3;322,395,430;,
3;326,402,435;,
3;339,406,436;,
3;37,39,270;,
3;437,438,439;,
3;439,440,437;,
3;38,76,39;,
3;441,442,443;,
3;443,444,441;,
3;75,111,76;,
3;445,446,447;,
3;447,448,445;,
3;110,146,111;,
3;449,450,451;,
3;451,452,449;,
3;145,179,146;,
3;453,454,455;,
3;455,456,453;,
3;178,212,179;,
3;457,458,459;,
3;459,460,457;,
3;211,247,212;,
3;461,462,463;,
3;463,464,461;,
3;246,270,247;,
3;465,466,467;,
3;467,468,465;,
3;469,359,358;,
3;358,470,471;,
3;469,358,471;,
3;337,333,359;,
3;359,469,472;,
3;359,472,473;,
3;337,359,473;,
3;474,475,476;,
3;473,474,476;,
3;337,473,476;,
3;477,366,365;,
3;365,478,479;,
3;477,365,479;,
3;286,282,366;,
3;366,477,480;,
3;366,480,481;,
3;286,366,481;,
3;482,483,484;,
3;481,482,484;,
3;286,481,484;,
3;485,345,344;,
3;344,486,487;,
3;485,344,487;,
3;303,299,345;,
3;345,485,488;,
3;345,488,489;,
3;303,345,489;,
3;490,491,492;,
3;489,490,492;,
3;303,489,492;,
3;493,352,351;,
3;351,494,495;,
3;493,351,495;,
3;320,316,352;,
3;352,493,496;,
3;352,496,497;,
3;320,352,497;,
3;498,499,500;,
3;497,498,500;,
3;320,497,500;,
3;501,423,429;,
3;502,501,429;,
3;219,186,153;,
3;153,118,83;,
3;83,48,3;,
3;153,83,3;,
3;219,153,3;,
3;0,219,3;,
3;358,357,363;,
3;363,362,361;,
3;503,504,505;,
3;363,361,314;,
3;313,321,320;,
3;506,507,508;,
3;509,506,508;,
3;313,320,510;,
3;314,313,510;,
3;501,502,511;,
3;423,501,511;,
3;314,512,513;,
3;314,513,514;,
3;515,430,394;,
3;314,514,516;,
3;363,314,516;,
3;517,518,519;,
3;517,519,520;,
3;517,520,521;,
3;472,469,471;,
3;522,523,524;,
3;525,526,527;,
3;525,527,528;,
3;473,472,474;,
3;529,530,531;,
3;532,529,531;,
3;400,403,533;,
3;401,400,533;,
3;534,436,405;,
3;405,404,407;,
3;535,536,537;,
3;365,364,370;,
3;370,369,368;,
3;365,370,368;,
3;538,539,540;,
3;541,542,368;,
3;543,544,545;,
3;541,368,331;,
3;546,541,331;,
3;547,546,331;,
3;548,331,330;,
3;337,548,330;,
3;338,337,330;,
3;480,477,479;,
3;549,550,551;,
3;552,553,554;,
3;552,554,555;,
3;481,480,482;,
3;556,557,558;,
3;559,556,558;,
3;371,374,560;,
3;372,371,560;,
3;561,416,376;,
3;376,375,378;,
3;562,563,564;,
3;344,343,349;,
3;349,348,347;,
3;344,349,347;,
3;565,566,567;,
3;568,569,347;,
3;570,571,572;,
3;568,347,280;,
3;573,568,280;,
3;574,573,280;,
3;575,280,279;,
3;286,575,279;,
3;287,286,279;,
3;488,485,487;,
3;576,577,578;,
3;579,580,581;,
3;579,581,582;,
3;489,488,490;,
3;583,584,585;,
3;586,583,585;,
3;382,385,587;,
3;383,382,587;,
3;588,422,387;,
3;387,386,389;,
3;589,590,591;,
3;351,350,356;,
3;356,355,354;,
3;351,356,354;,
3;592,593,594;,
3;595,596,354;,
3;597,598,599;,
3;595,354,297;,
3;600,595,297;,
3;601,600,297;,
3;602,297,296;,
3;303,602,296;,
3;304,303,296;,
3;496,493,495;,
3;603,604,605;,
3;606,607,608;,
3;606,608,609;,
3;497,496,498;;
 }
MeshTextureCoords {
 610;
0.219558;0.6499;,
0.162962;0.625018;,
0.169247;0.754184;,
0.219678;0.649002;,
0.169247;0.754184;,
0.150528;0.612372;,
0.156655;0.764792;,
0.162962;0.625018;,
0.156655;0.764792;,
0.151734;0.609199;,
0.157899;0.753663;,
0.150528;0.612372;,
0.157899;0.753663;,
0.143339;0.596;,
0.149053;0.747021;,
0.151734;0.609199;,
0.149053;0.747021;,
0.157555;0.594999;,
0.163806;0.706086;,
0.143339;0.596;,
0.163836;0.575305;,
0.169986;0.651961;,
0.15466;0.558496;,
0.160632;0.632117;,
0.160632;0.632117;,
0.16677;0.554925;,
0.172649;0.607552;,
0.15466;0.558496;,
1.17265;0.607552;,
0.767632;0.445549;,
0.7567;0.478927;,
1.16677;0.554925;,
0.7567;0.478927;,
0.813294;0.428648;,
0.78952;0.510559;,
0.7567;0.478927;,
0.767632;0.445549;,
0.786558;0.506983;,
0.809019;0.425707;,
0.771339;0.423361;,
0.726694;0.388875;,
0.727773;0.349487;,
0.726252;0.365845;,
0.729273;0.372492;,
0.726252;0.365845;,
0.727773;0.349487;,
0.719954;0.350157;,
0.186825;0.510176;,
0.219984;0.648608;,
0.179634;0.476781;,
0.186825;0.510176;,
0.150528;0.612372;,
0.180341;0.480703;,
0.151734;0.609199;,
0.179634;0.476781;,
0.151734;0.609199;,
0.175447;0.461648;,
0.143339;0.596;,
0.180341;0.480703;,
0.183748;0.496282;,
0.175447;0.461648;,
0.187431;0.507317;,
0.163836;0.575305;,
0.182268;0.493322;,
0.15466;0.558496;,
0.189297;0.508459;,
0.182268;0.493322;,
1.16677;0.554925;,
0.750735;0.416174;,
0.767632;0.445549;,
1.1893;0.508459;,
0.767632;0.445549;,
0.788923;0.355978;,
0.767632;0.445549;,
0.750735;0.416174;,
0.784718;0.353758;,
0.75372;0.378805;,
0.729273;0.372492;,
0.724721;0.335042;,
0.727773;0.349487;,
0.726322;0.356647;,
0.724721;0.335042;,
0.227694;0.476926;,
0.220298;0.648948;,
0.229334;0.437439;,
0.227694;0.476926;,
0.179634;0.476781;,
0.229183;0.443446;,
0.180341;0.480703;,
0.229334;0.437439;,
0.180341;0.480703;,
0.230325;0.422675;,
0.175447;0.461648;,
0.229183;0.443446;,
0.228463;0.467766;,
0.230325;0.422675;,
0.227735;0.487818;,
0.187431;0.507317;,
0.229145;0.474773;,
0.182268;0.493322;,
0.227617;0.495373;,
0.229145;0.474773;,
1.1893;0.508459;,
0.711243;0.408009;,
0.750735;0.416174;,
1.22762;0.495373;,
0.750735;0.416174;,
0.701162;0.335114;,
0.750735;0.416174;,
0.711243;0.408009;,
0.702135;0.333278;,
0.711026;0.366149;,
0.726322;0.356647;,
0.718819;0.33097;,
0.724721;0.335042;,
0.719445;0.350619;,
0.718819;0.33097;,
0.26453;0.544747;,
0.220437;0.649823;,
0.274052;0.517398;,
0.26453;0.544747;,
0.229334;0.437439;,
0.273135;0.519253;,
0.229183;0.443446;,
0.274052;0.517398;,
0.229183;0.443446;,
0.279596;0.501905;,
0.230325;0.422675;,
0.273135;0.519253;,
0.268716;0.526152;,
0.279596;0.501905;,
0.263988;0.528233;,
0.227735;0.487818;,
0.271178;0.513715;,
0.229145;0.474773;,
0.261955;0.523332;,
0.271178;0.513715;,
0.227617;0.495373;,
0.678333;0.425838;,
0.711243;0.408009;,
0.261955;0.523332;,
0.711243;0.408009;,
0.634381;0.378279;,
0.711243;0.408009;,
0.678333;0.425838;,
0.638749;0.376265;,
0.675363;0.392807;,
0.719445;0.350619;,
0.713636;0.339657;,
0.718819;0.33097;,
0.712807;0.357941;,
0.713636;0.339657;,
0.278746;0.673911;,
0.220318;0.650722;,
0.291955;0.669816;,
0.278746;0.673911;,
0.274052;0.517398;,
0.290671;0.663718;,
0.273135;0.519253;,
0.291955;0.669816;,
0.273135;0.519253;,
0.29965;0.652928;,
0.279596;0.501905;,
0.290671;0.663718;,
0.284488;0.637241;,
0.29965;0.652928;,
0.277858;0.604887;,
0.263988;0.528233;,
0.287643;0.587336;,
0.271178;0.513715;,
0.274813;0.57596;,
0.287643;0.587336;,
0.261955;0.523332;,
0.672836;0.459216;,
0.678333;0.425838;,
0.274813;0.57596;,
0.630251;0.460187;,
0.672836;0.459216;,
0.634278;0.457538;,
0.669491;0.443163;,
0.712807;0.357941;,
0.71226;0.356015;,
0.713636;0.339657;,
0.71041;0.374324;,
0.71226;0.356015;,
0.259654;0.788755;,
0.220011;0.651116;,
0.270251;0.805409;,
0.259654;0.788755;,
0.291955;0.669816;,
0.269177;0.792215;,
0.290671;0.663718;,
0.270251;0.805409;,
0.290671;0.663718;,
0.276806;0.787277;,
0.29965;0.652928;,
0.269177;0.792215;,
0.26411;0.735957;,
0.276806;0.787277;,
0.25884;0.672878;,
0.277858;0.604887;,
0.266398;0.65251;,
0.287643;0.587336;,
0.256301;0.622426;,
0.266398;0.65251;,
0.274813;0.57596;,
0.692686;0.488591;,
0.672836;0.459216;,
0.256301;0.622426;,
0.667733;0.532858;,
0.692686;0.488591;,
0.670275;0.529489;,
0.690636;0.487719;,
0.71041;0.374324;,
0.715389;0.370461;,
0.71226;0.356015;,
0.713514;0.39017;,
0.715389;0.370461;,
0.21032;0.822007;,
0.219696;0.650776;,
0.207562;0.844748;,
0.21032;0.822007;,
0.270251;0.805409;,
0.207835;0.82947;,
0.269177;0.792215;,
0.207562;0.844748;,
0.269177;0.792215;,
0.205742;0.826253;,
0.276806;0.787277;,
0.207835;0.82947;,
0.209088;0.764474;,
0.205742;0.826253;,
0.210304;0.692378;,
0.25884;0.672878;,
0.208049;0.671059;,
0.266398;0.65251;,
0.210576;0.635512;,
0.208049;0.671059;,
0.256301;0.622426;,
0.726484;0.496756;,
0.692686;0.488591;,
1.2563;0.622426;,
1.21058;0.635512;,
0.726484;0.496756;,
0.732114;0.55372;,
0.726484;0.496756;,
0.731754;0.549968;,
0.726787;0.500375;,
0.713514;0.39017;,
0.721146;0.374532;,
0.715389;0.370461;,
0.720209;0.396197;,
0.721146;0.374532;,
0.207562;0.844748;,
0.157899;0.753663;,
0.207835;0.82947;,
0.156655;0.764792;,
0.207835;0.82947;,
0.149053;0.747021;,
0.205742;0.826253;,
0.157899;0.753663;,
0.169986;0.651961;,
0.210304;0.692378;,
0.160632;0.632117;,
0.208049;0.671059;,
1.21058;0.635512;,
0.7567;0.478927;,
0.726484;0.496756;,
1.17265;0.607552;,
0.7567;0.478927;,
0.759256;0.473718;,
0.720209;0.396197;,
0.726252;0.365845;,
0.721146;0.374532;,
0.726694;0.388875;,
0.753636;0.464282;,
0.759256;0.473718;,
0.771339;0.423361;,
0.763861;0.41703;,
0.773153;0.350195;,
0.774046;0.347868;,
0.773729;0.347771;,
0.729273;0.372492;,
0.7669;0.355719;,
0.773153;0.350195;,
0.729273;0.372492;,
0.759481;0.384477;,
0.7669;0.355719;,
0.763861;0.41703;,
0.771339;0.423361;,
0.75372;0.378805;,
0.748477;0.375073;,
0.748477;0.375073;,
0.75372;0.378805;,
0.711026;0.366149;,
0.712693;0.362991;,
0.712074;0.229916;,
0.711002;0.227794;,
0.710982;0.228606;,
0.719445;0.350619;,
0.714844;0.24553;,
0.712074;0.229916;,
0.719445;0.350619;,
0.727362;0.262723;,
0.714844;0.24553;,
0.712693;0.362991;,
0.711026;0.366149;,
0.675363;0.392807;,
0.682302;0.38786;,
0.682302;0.38786;,
0.675363;0.392807;,
0.669491;0.443163;,
0.676619;0.435114;,
0.667844;0.385275;,
0.667145;0.387719;,
0.667458;0.387752;,
0.71041;0.374324;,
0.67356;0.378668;,
0.667844;0.385275;,
0.71041;0.374324;,
0.679213;0.349158;,
0.67356;0.378668;,
0.676619;0.435114;,
0.669491;0.443163;,
0.690636;0.487719;,
0.694581;0.47707;,
0.694581;0.47707;,
0.690636;0.487719;,
0.726787;0.500375;,
0.725652;0.489153;,
0.726158;0.505554;,
0.727007;0.507793;,
0.727033;0.506892;,
0.720209;0.396197;,
0.724009;0.488857;,
0.726158;0.505554;,
0.720209;0.396197;,
0.713401;0.470915;,
0.724009;0.488857;,
0.725652;0.489153;,
0.726787;0.500375;,
0.759256;0.473718;,
0.753636;0.464282;,
0.757915;0.311915;,
0.760674;0.297592;,
0.726322;0.356647;,
0.773729;0.347771;,
0.766744;0.34553;,
0.761155;0.338076;,
0.758053;0.326402;,
0.696654;0.272552;,
0.690306;0.267439;,
0.712807;0.357941;,
0.710982;0.228606;,
0.710437;0.246891;,
0.707572;0.261826;,
0.702798;0.270738;,
0.684676;0.422017;,
0.682918;0.437309;,
0.713514;0.39017;,
0.667458;0.387752;,
0.674371;0.388866;,
0.680203;0.395576;,
0.68379;0.407089;,
0.740028;0.461379;,
0.745362;0.467459;,
0.726694;0.388875;,
0.727033;0.506892;,
0.727703;0.487505;,
0.730343;0.471825;,
0.734635;0.462752;,
0.770055;0.374117;,
0.765873;0.411551;,
0.765214;0.378746;,
0.774175;0.347821;,
0.76365;0.295934;,
0.763776;0.297291;,
0.759544;0.354899;,
0.763434;0.289921;,
0.762259;0.284043;,
0.754681;0.271894;,
0.749467;0.315828;,
0.720591;0.245926;,
0.738411;0.247604;,
0.712545;0.297724;,
0.710972;0.227467;,
0.688251;0.26351;,
0.688666;0.263501;,
0.700204;0.311892;,
0.686752;0.261681;,
0.684432;0.265165;,
0.675334;0.296618;,
0.681243;0.33504;,
0.68046;0.442655;,
0.680287;0.441741;,
0.682632;0.429763;,
0.680866;0.445684;,
0.682249;0.451565;,
0.690079;0.477126;,
0.693976;0.468833;,
0.719214;0.498911;,
0.704381;0.491034;,
0.725907;0.486937;,
0.727027;0.50814;,
0.746852;0.475085;,
0.74648;0.47553;,
0.736738;0.47277;,
0.748185;0.473932;,
0.750345;0.47045;,
0.759427;0.452406;,
0.754661;0.449621;,
0.765824;0.414402;,
0.76504;0.420904;,
0.764084;0.425502;,
0.759427;0.452406;,
0.754661;0.449621;,
0.765214;0.378746;,
0.740085;0.244476;,
0.742845;0.246132;,
0.744288;0.252202;,
0.754681;0.271894;,
0.749467;0.315828;,
0.712545;0.297724;,
0.670977;0.327089;,
0.670766;0.321211;,
0.671153;0.314707;,
0.671933;0.313962;,
0.675334;0.296618;,
0.681243;0.33504;,
0.675487;0.405915;,
0.675487;0.405915;,
0.702991;0.491132;,
0.700638;0.489476;,
0.699351;0.487259;,
0.690079;0.477126;,
0.693976;0.468833;,
0.725907;0.486937;,
0.786558;0.506983;,
0.78952;0.510559;,
0.813294;0.428648;,
0.809019;0.425707;,
0.809019;0.425707;,
0.813294;0.428648;,
0.788923;0.355978;,
0.784718;0.353758;,
0.784718;0.353758;,
0.788923;0.355978;,
0.701162;0.335114;,
0.702135;0.333278;,
0.702135;0.333278;,
0.701162;0.335114;,
0.634381;0.378279;,
0.638749;0.376265;,
0.638749;0.376265;,
0.634381;0.378279;,
0.630251;0.460187;,
0.634278;0.457538;,
0.634278;0.457538;,
0.630251;0.460187;,
0.667733;0.532858;,
0.670275;0.529489;,
0.670275;0.529489;,
0.667733;0.532858;,
0.732114;0.55372;,
0.731754;0.549968;,
0.731754;0.549968;,
0.732114;0.55372;,
0.78952;0.510559;,
0.786558;0.506983;,
0.696899;0.448641;,
0.680866;0.445684;,
0.682249;0.451565;,
0.700094;0.461349;,
0.701192;0.479103;,
0.700638;0.489476;,
0.702991;0.491132;,
0.704782;0.483378;,
0.750331;0.428883;,
0.748185;0.473932;,
0.750345;0.47045;,
0.755065;0.420791;,
0.761441;0.418756;,
0.76504;0.420904;,
0.765824;0.414402;,
0.763246;0.408975;,
0.745717;0.284264;,
0.763434;0.289921;,
0.762259;0.284043;,
0.742539;0.2723;,
0.741844;0.255742;,
0.742845;0.246132;,
0.740085;0.244476;,
0.737733;0.251576;,
0.686492;0.304018;,
0.686752;0.261681;,
0.684432;0.265165;,
0.681801;0.312857;,
0.675118;0.316088;,
0.671153;0.314707;,
0.670766;0.321211;,
0.673835;0.325978;,
0.669524;0.370722;,
0.667026;0.387789;,
0.674371;0.388866;,
0.667458;0.387752;,
0.667145;0.387719;,
0.673835;0.325978;,
0.670766;0.321211;,
0.670977;0.327089;,
0.679213;0.349158;,
0.670977;0.327089;,
0.667201;0.384511;,
0.670977;0.327089;,
0.667201;0.384511;,
0.667026;0.387789;,
0.667026;0.387789;,
0.680287;0.441741;,
0.682918;0.437309;,
0.68379;0.407089;,
0.680287;0.441741;,
0.68046;0.442655;,
0.680866;0.445684;,
0.700094;0.461349;,
0.682249;0.451565;,
0.690079;0.477126;,
0.700094;0.461349;,
0.690079;0.477126;,
0.699351;0.487259;,
0.700638;0.489476;,
0.704782;0.483378;,
0.702991;0.491132;,
0.704381;0.491034;,
0.713401;0.470915;,
0.725855;0.507301;,
0.727027;0.50814;,
0.74648;0.47553;,
0.748185;0.473932;,
0.745362;0.467459;,
0.74648;0.47553;,
0.745362;0.467459;,
0.727703;0.487505;,
0.727027;0.50814;,
0.74648;0.47553;,
0.727703;0.487505;,
0.727033;0.506892;,
0.727007;0.507793;,
0.725855;0.507301;,
0.704381;0.491034;,
0.704381;0.491034;,
0.755065;0.420791;,
0.750345;0.47045;,
0.759427;0.452406;,
0.755065;0.420791;,
0.759427;0.452406;,
0.764084;0.425502;,
0.76504;0.420904;,
0.763246;0.408975;,
0.765824;0.414402;,
0.765873;0.411551;,
0.759481;0.384477;,
0.773751;0.351098;,
0.774175;0.347821;,
0.763776;0.297291;,
0.763434;0.289921;,
0.760674;0.297592;,
0.763776;0.297291;,
0.760674;0.297592;,
0.766744;0.34553;,
0.774175;0.347821;,
0.763776;0.297291;,
0.766744;0.34553;,
0.773729;0.347771;,
0.774046;0.347868;,
0.773751;0.351098;,
0.765873;0.411551;,
0.765873;0.411551;,
0.742539;0.2723;,
0.762259;0.284043;,
0.754681;0.271894;,
0.742539;0.2723;,
0.754681;0.271894;,
0.744288;0.252202;,
0.742845;0.246132;,
0.737733;0.251576;,
0.740085;0.244476;,
0.738411;0.247604;,
0.727362;0.262723;,
0.712426;0.228306;,
0.710972;0.227467;,
0.688666;0.263501;,
0.686752;0.261681;,
0.690306;0.267439;,
0.688666;0.263501;,
0.690306;0.267439;,
0.710437;0.246891;,
0.710972;0.227467;,
0.688666;0.263501;,
0.710437;0.246891;,
0.710982;0.228606;,
0.711002;0.227794;,
0.712426;0.228306;,
0.738411;0.247604;,
0.738411;0.247604;,
0.681801;0.312857;,
0.684432;0.265165;,
0.675334;0.296618;,
0.681801;0.312857;,
0.675334;0.296618;,
0.671933;0.313962;,
0.671153;0.314707;;
}
}
 }
