xof 0302txt 0032
Header {
 1;
 0;
 1;
}
template Header {
 <3D82AB43-62DA-11cf-AB39-0020AF71E433>
 WORD major;
 WORD minor;
 DWORD flags;
}

template Vector {
 <3D82AB5E-62DA-11cf-AB39-0020AF71E433>
 FLOAT x;
 FLOAT y;
 FLOAT z;
}

template Coords2d {
 <F6F23F44-7686-11cf-8F52-0040333594A3>
 FLOAT u;
 FLOAT v;
}

template Matrix4x4 {
 <F6F23F45-7686-11cf-8F52-0040333594A3>
 array FLOAT matrix[16];
}

template ColorRGBA {
 <35FF44E0-6C7C-11cf-8F52-0040333594A3>
 FLOAT red;
 FLOAT green;
 FLOAT blue;
 FLOAT alpha;
}

template ColorRGB {
 <D3E16E81-7835-11cf-8F52-0040333594A3>
 FLOAT red;
 FLOAT green;
 FLOAT blue;
}

template TextureFilename {
 <A42790E1-7810-11cf-8F52-0040333594A3>
 STRING filename;
}

template Material {
 <3D82AB4D-62DA-11cf-AB39-0020AF71E433>
 ColorRGBA faceColor;
 FLOAT power;
 ColorRGB specularColor;
 ColorRGB emissiveColor;
 [...]
}

template MeshFace {
 <3D82AB5F-62DA-11cf-AB39-0020AF71E433>
 DWORD nFaceVertexIndices;
 array DWORD faceVertexIndices[nFaceVertexIndices];
}

template MeshTextureCoords {
 <F6F23F40-7686-11cf-8F52-0040333594A3>
 DWORD nTextureCoords;
 array Coords2d textureCoords[nTextureCoords];
}

template MeshMaterialList {
 <F6F23F42-7686-11cf-8F52-0040333594A3>
 DWORD nMaterials;
 DWORD nFaceIndexes;
 array DWORD faceIndexes[nFaceIndexes];
 [Material]
}

template MeshNormals {
 <F6F23F43-7686-11cf-8F52-0040333594A3>
 DWORD nNormals;
 array Vector normals[nNormals];
 DWORD nFaceNormals;
 array MeshFace faceNormals[nFaceNormals];
}

template Mesh {
 <3D82AB44-62DA-11cf-AB39-0020AF71E433>
 DWORD nVertices;
 array Vector vertices[nVertices];
 DWORD nFaces;
 array MeshFace faces[nFaces];
 [...]
}

template FrameTransformMatrix {
 <F6F23F41-7686-11cf-8F52-0040333594A3>
 Matrix4x4 frameMatrix;
}

template Frame {
 <3D82AB46-62DA-11cf-AB39-0020AF71E433>
 [...]
}
template FloatKeys {
 <10DD46A9-775B-11cf-8F52-0040333594A3>
 DWORD nValues;
 array FLOAT values[nValues];
}

template TimedFloatKeys {
 <F406B180-7B3B-11cf-8F52-0040333594A3>
 DWORD time;
 FloatKeys tfkeys;
}

template AnimationKey {
 <10DD46A8-775B-11cf-8F52-0040333594A3>
 DWORD keyType;
 DWORD nKeys;
 array TimedFloatKeys keys[nKeys];
}

template AnimationOptions {
 <E2BF56C0-840F-11cf-8F52-0040333594A3>
 DWORD openclosed;
 DWORD positionquality;
}

template Animation {
 <3D82AB4F-62DA-11cf-AB39-0020AF71E433>
 [...]
}

template AnimationSet {
 <3D82AB50-62DA-11cf-AB39-0020AF71E433>
 [Animation]
}
Frame Cylinder01 {
   FrameTransformMatrix {
3.4364,0.0,0.0,0.0,
0.0,4.09787e-08,-3.4364,0.0,
0.0,2.42,2.88582e-08,0.0,
0.0,-250.0,-2.98122e-06,1.0;;
 }
Mesh Cylinder01 {
 462;
11.6622;-35.8925;6.30528e-06;,
-11.6622;-35.8925;6.30528e-06;,
-30.532;-22.1828;6.30528e-06;,
-37.7397;-3.27612e-06;6.30528e-06;,
-30.532;22.1828;6.30528e-06;,
-11.6622;35.8925;6.30528e-06;,
11.6622;35.8925;6.30528e-06;,
11.6622;35.8925;6.30528e-06;,
30.532;22.1828;6.30528e-06;,
37.7397;2.31862e-08;6.30528e-06;,
-30.532;22.1828;6.30528e-06;,
-30.532;-22.1828;6.30528e-06;,
11.6622;-35.8925;6.30528e-06;,
30.532;-22.1828;6.30528e-06;,
37.7397;2.31862e-08;6.30528e-06;,
30.532;22.1828;6.30528e-06;,
30.532;22.1828;6.59125;,
37.7396;3.03969e-07;6.59125;,
30.532;22.1828;6.30528e-06;,
11.6622;35.8925;6.30528e-06;,
11.6622;35.8925;6.59125;,
30.532;22.1828;6.59125;,
-11.6622;35.8925;6.30528e-06;,
-11.6622;35.8925;6.59125;,
-30.532;22.1828;6.30528e-06;,
-30.532;22.1828;6.59125;,
-37.7397;-3.27612e-06;6.30528e-06;,
-37.7397;-2.99534e-06;6.59125;,
-30.532;-22.1828;6.30528e-06;,
-30.532;-22.1828;6.59125;,
-11.6622;-35.8925;6.30528e-06;,
-11.6622;-35.8925;6.59125;,
11.6622;-35.8925;6.30528e-06;,
11.6622;-35.8925;6.59125;,
11.6622;-35.8925;6.30528e-06;,
30.532;-22.1828;6.30528e-06;,
30.532;-22.1828;6.59125;,
11.6622;-35.8925;6.59125;,
37.7396;3.03969e-07;6.59125;,
30.532;22.1828;6.59125;,
28.8038;20.9272;8.83814;,
35.6034;7.27373e-07;8.83814;,
30.532;22.1828;6.59125;,
11.6622;35.8925;6.59125;,
11.0021;33.8609;8.83814;,
11.0021;33.8609;8.83814;,
-11.6622;35.8925;6.59125;,
-11.0021;33.8609;8.83814;,
-30.532;22.1828;6.59125;,
-28.8038;20.9272;8.83814;,
-37.7397;-2.99534e-06;6.59125;,
-35.6034;-2.38518e-06;8.83814;,
-30.532;-22.1828;6.59125;,
-28.8038;-20.9272;8.83814;,
-11.6622;-35.8925;6.59125;,
-11.0021;-33.8609;8.83814;,
11.6622;-35.8925;6.59125;,
11.0021;-33.8609;8.83814;,
11.6622;-35.8925;6.59125;,
30.532;-22.1828;6.59125;,
28.8038;-20.9272;8.83814;,
11.0021;-33.8609;8.83814;,
35.6034;7.27373e-07;8.83814;,
28.8038;20.9272;8.83814;,
30.532;22.1828;14.3463;,
37.7396;1.15152e-06;14.3463;,
11.0021;33.8609;8.83814;,
11.6622;35.8925;14.3463;,
11.0021;33.8609;8.83814;,
-11.0021;33.8609;8.83814;,
-11.6622;35.8925;14.3463;,
11.6622;35.8925;14.3463;,
-28.8038;20.9272;8.83814;,
-30.532;22.1828;14.3463;,
-35.6034;-2.38518e-06;8.83814;,
-37.7397;-2.14779e-06;14.3463;,
-28.8038;-20.9272;8.83814;,
-30.532;-22.1828;14.3463;,
-11.0021;-33.8609;8.83814;,
-11.6622;-35.8925;14.3463;,
-11.0021;-33.8609;8.83814;,
11.0021;-33.8609;8.83814;,
11.6622;-35.8925;14.3463;,
-11.6622;-35.8925;14.3463;,
28.8038;-20.9272;8.83814;,
30.532;-22.1828;14.3463;,
37.7396;1.15152e-06;14.3463;,
30.532;22.1828;14.3463;,
23.1303;16.8052;35.384;,
28.5906;7.16811e-07;35.384;,
11.6622;35.8925;14.3463;,
8.83499;27.1913;35.384;,
11.6622;35.8925;14.3463;,
-11.6622;35.8925;14.3463;,
-8.835;27.1913;35.384;,
-8.835;27.1913;35.384;,
-30.532;22.1828;14.3463;,
-23.1303;16.8052;35.384;,
-37.7397;-2.14779e-06;14.3463;,
-28.5906;-1.78266e-06;35.384;,
-30.532;-22.1828;14.3463;,
-23.1303;-16.8052;35.384;,
-30.532;-22.1828;14.3463;,
-11.6622;-35.8925;14.3463;,
-8.83499;-27.1913;35.384;,
-23.1303;-16.8052;35.384;,
11.6622;-35.8925;14.3463;,
8.835;-27.1913;35.384;,
30.532;-22.1828;14.3463;,
23.1303;-16.8052;35.384;,
20.8381;15.1398;64.8725;,
25.7573;5.0655e-07;64.8725;,
7.95945;24.4967;64.8725;,
-7.95945;24.4967;64.8725;,
-23.1303;16.8052;35.384;,
-20.8381;15.1398;64.8725;,
-28.5906;-1.78266e-06;35.384;,
-25.7573;-1.74523e-06;64.8725;,
-20.8381;-15.1398;64.8725;,
-7.95945;-24.4967;64.8725;,
7.95946;-24.4967;64.8725;,
20.8381;-15.1398;64.8725;,
22.1522;16.0945;68.6654;,
27.3817;1.19964e-06;68.6654;,
8.4614;26.0415;68.6654;,
-8.4614;26.0415;68.6654;,
-22.1522;16.0945;68.6654;,
-20.8381;15.1398;64.8725;,
-25.7573;-1.74523e-06;64.8725;,
-27.3817;-1.19415e-06;68.6654;,
-22.1522;16.0945;68.6654;,
-20.8381;15.1398;64.8725;,
-22.1522;-16.0945;68.6653;,
-27.3817;-1.19415e-06;68.6654;,
-8.4614;-26.0415;68.6654;,
8.4614;-26.0415;68.6654;,
22.1522;-16.0945;68.6653;,
27.3817;1.19964e-06;68.6654;,
22.1522;16.0945;68.6654;,
16.5624;12.0333;99.7783;,
20.4723;5.75758e-07;99.7783;,
8.4614;26.0415;68.6654;,
6.32628;19.4703;99.7783;,
-8.4614;26.0415;68.6654;,
-6.32628;19.4703;99.7783;,
-22.1522;16.0945;68.6654;,
-16.5624;12.0333;99.7783;,
-22.1522;16.0945;68.6654;,
-27.3817;-1.19415e-06;68.6654;,
-20.4723;-1.21398e-06;99.7783;,
-16.5624;12.0333;99.7783;,
-22.1522;16.0945;68.6654;,
-27.3817;-1.19415e-06;68.6654;,
-22.1522;-16.0945;68.6653;,
-16.5624;-12.0333;99.7783;,
-20.4723;-1.21398e-06;99.7783;,
-8.4614;-26.0415;68.6654;,
-6.32628;-19.4703;99.7783;,
8.4614;-26.0415;68.6654;,
6.32628;-19.4703;99.7783;,
22.1522;-16.0945;68.6653;,
16.5624;-12.0333;99.7783;,
14.3541;10.4289;159.166;,
17.7426;-8.33294e-07;159.166;,
5.48278;16.8742;159.166;,
-5.48278;16.8742;159.166;,
-14.3541;10.4289;159.166;,
-16.5624;12.0333;99.7783;,
-17.7426;-2.3844e-06;159.166;,
-14.3541;10.4289;159.166;,
-16.5624;12.0333;99.7783;,
-14.3541;-10.4289;159.166;,
-17.7426;-2.3844e-06;159.166;,
-5.48278;-16.8743;159.166;,
5.48278;-16.8743;159.166;,
14.3541;-10.4289;159.166;,
16.5624;-12.0333;99.7783;,
20.4723;5.75758e-07;99.7783;,
17.7426;-8.33294e-07;159.166;,
17.7426;-8.33294e-07;159.166;,
14.3541;-10.4289;159.166;,
17.7426;-8.33294e-07;159.166;,
14.3541;10.4289;159.166;,
20.8779;15.1687;163.089;,
25.8041;-3.00082e-07;163.089;,
14.3541;10.4289;159.166;,
5.48278;16.8742;159.166;,
7.97464;24.5434;163.089;,
7.97464;24.5434;163.089;,
-5.48278;16.8742;159.166;,
-7.97464;24.5434;163.089;,
-14.3541;10.4289;159.166;,
-20.8779;15.1687;163.089;,
-14.3541;10.4289;159.166;,
-17.7426;-2.3844e-06;159.166;,
-25.8041;-2.55595e-06;163.089;,
-20.8779;15.1687;163.089;,
-14.3541;10.4289;159.166;,
-17.7426;-2.3844e-06;159.166;,
-14.3541;-10.4289;159.166;,
-20.8779;-15.1687;163.089;,
-25.8041;-2.55595e-06;163.089;,
-5.48278;-16.8743;159.166;,
-7.97463;-24.5434;163.089;,
5.48278;-16.8743;159.166;,
7.97464;-24.5434;163.089;,
5.48278;-16.8743;159.166;,
14.3541;-10.4289;159.166;,
20.8779;-15.1687;163.089;,
7.97464;-24.5434;163.089;,
14.3541;-10.4289;159.166;,
17.7426;-8.33294e-07;159.166;,
25.8041;-3.00082e-07;163.089;,
25.8041;-3.00082e-07;163.089;,
20.8779;-15.1687;163.089;,
25.8041;-3.00082e-07;163.089;,
20.8779;15.1687;163.089;,
21.7508;15.8029;182.091;,
26.8534;-6.83145e-07;182.091;,
7.97464;24.5434;163.089;,
8.30808;25.5696;182.091;,
7.97464;24.5434;163.089;,
-7.97464;24.5434;163.089;,
-8.30808;25.5696;182.091;,
-8.30808;25.5696;182.091;,
-20.8779;15.1687;163.089;,
-21.7508;15.8029;182.091;,
-20.8779;15.1687;163.089;,
-25.8041;-2.55595e-06;163.089;,
-26.8534;-3.03075e-06;182.091;,
-21.7508;15.8029;182.091;,
-20.8779;15.1687;163.089;,
-25.8041;-2.55595e-06;163.089;,
-20.8779;-15.1687;163.089;,
-21.7508;-15.8029;182.091;,
-26.8534;-3.03075e-06;182.091;,
-20.8779;-15.1687;163.089;,
-7.97463;-24.5434;163.089;,
-8.30807;-25.5696;182.091;,
-21.7508;-15.8029;182.091;,
7.97464;-24.5434;163.089;,
8.30808;-25.5696;182.091;,
20.8779;-15.1687;163.089;,
21.7508;-15.8029;182.091;,
20.8779;-15.1687;163.089;,
25.8041;-3.00082e-07;163.089;,
26.8534;-6.83145e-07;182.091;,
26.8534;-6.83145e-07;182.091;,
21.7508;-15.8029;182.091;,
8.92571;27.4705;200.644;,
23.3678;16.9777;200.644;,
-3.4476;26.128;188.066;,
-8.92572;27.4705;200.644;,
-3.62474;27.4705;200.644;,
-21.7508;15.8029;182.091;,
-23.3678;16.9777;200.644;,
-26.3525;-3.4476;188.066;,
-23.3678;-16.9777;200.644;,
-27.7065;-3.62474;200.644;,
-8.92571;-27.4705;200.644;,
23.3678;-16.9777;200.644;,
8.92572;-27.4705;200.644;,
27.4189;-1.29666e-06;188.066;,
26.3525;-3.4476;188.066;,
26.8534;-6.83145e-07;182.091;,
23.3678;16.9777;200.644;,
18.938;13.7593;200.34;,
22.2309;3.62474;200.34;,
27.7065;3.62474;200.644;,
8.92571;27.4705;200.644;,
7.23368;22.263;200.34;,
-3.62474;27.4705;200.644;,
-8.92572;27.4705;200.644;,
-7.23368;22.263;200.34;,
-3.62474;22.263;200.34;,
-23.3678;16.9777;200.644;,
-18.938;13.7593;200.34;,
-18.938;13.7593;200.34;,
-23.3678;16.9777;200.644;,
-27.7065;3.62475;200.644;,
-22.2309;3.62475;200.34;,
-18.938;13.7593;200.34;,
-18.938;-13.7593;200.34;,
-23.3678;-16.9777;200.644;,
-8.92571;-27.4705;200.644;,
-7.23367;-22.263;200.34;,
-3.62474;-27.4705;200.644;,
-3.62474;-22.263;200.34;,
7.23368;-22.263;200.34;,
8.92572;-27.4705;200.644;,
23.3678;-16.9777;200.644;,
18.938;-13.7593;200.34;,
18.938;-13.7593;200.34;,
23.3678;-16.9777;200.644;,
27.7065;-3.62474;200.644;,
22.2309;-3.62474;200.34;,
3.62475;27.4705;200.644;,
3.62475;22.263;200.34;,
3.4476;-26.128;188.066;,
3.62475;-27.4705;200.644;,
-26.3525;3.44761;188.066;,
-21.7508;15.8029;182.091;,
-27.4189;-3.44277e-06;188.066;,
-26.3525;3.44761;188.066;,
26.3525;3.4476;188.066;,
27.7065;3.62474;200.644;,
3.44761;26.128;188.066;,
-3.4476;26.128;188.066;,
-3.45161;21.1996;188.066;,
3.45161;21.1996;188.066;,
26.3525;3.4476;188.066;,
21.1691;3.45161;188.066;,
22.2457;-3.41042e-06;188.066;,
21.1691;-3.45161;188.066;,
26.3525;-3.4476;188.066;,
26.3525;-3.4476;188.066;,
27.4189;-1.29666e-06;188.066;,
26.3525;-3.4476;188.066;,
-26.3525;-3.4476;188.066;,
-21.1691;-3.4516;188.066;,
-22.2457;-5.09429e-06;188.066;,
-27.4189;-3.44277e-06;188.066;,
-21.1691;3.45161;188.066;,
-26.3525;3.44761;188.066;,
3.4476;-26.128;188.066;,
3.45161;-21.1996;188.066;,
-3.45161;-21.1996;188.066;,
-3.4476;-26.128;188.066;,
22.2309;3.62474;200.34;,
21.6437;3.52901;193.705;,
26.3525;3.4476;188.066;,
27.7065;3.62474;200.644;,
-3.62474;22.263;200.34;,
-3.529;21.6749;193.705;,
-3.4476;26.128;188.066;,
-3.62474;27.4705;200.644;,
3.52901;21.6749;193.705;,
3.44761;26.128;188.066;,
3.45161;21.1996;188.066;,
-21.6437;3.52901;193.705;,
-26.3525;3.44761;188.066;,
-21.1691;3.45161;188.066;,
-22.2309;-3.62474;200.34;,
-21.6437;-3.529;193.705;,
-26.3525;-3.4476;188.066;,
-27.7065;-3.62474;200.644;,
-3.52901;-21.6749;193.705;,
-3.4476;-26.128;188.066;,
-3.45161;-21.1996;188.066;,
3.62475;-22.263;200.34;,
3.52901;-21.6749;193.705;,
3.4476;-26.128;188.066;,
3.62475;-27.4705;200.644;,
21.6437;-3.529;193.705;,
26.3525;-3.4476;188.066;,
21.1691;-3.45161;188.066;,
3.44761;26.128;188.066;,
3.62475;27.4705;200.644;,
-26.3525;-3.4476;188.066;,
23.3678;-16.9777;200.644;,
27.7065;-3.62474;200.644;,
-3.4476;-26.128;188.066;,
-3.62474;-27.4705;200.644;,
-26.3525;3.44761;188.066;,
-27.7065;3.62475;200.644;,
-23.3678;16.9777;200.644;,
-23.3678;16.9777;200.644;,
-21.7508;15.8029;182.091;,
27.4189;-1.29666e-06;188.066;,
3.62475;22.263;200.34;,
3.62475;27.4705;200.644;,
-22.2309;3.62475;200.34;,
-27.7065;3.62475;200.644;,
-21.1691;-3.4516;188.066;,
-3.62474;-22.263;200.34;,
-3.62474;-27.4705;200.644;,
22.2309;-3.62474;200.34;,
27.7065;-3.62474;200.644;,
26.3525;-3.4476;188.066;,
26.3525;-3.4476;188.066;,
22.2309;-3.62474;200.34;,
21.1691;3.45161;188.066;,
-3.45161;21.1996;188.066;,
-22.2309;-3.62474;200.34;,
-27.7065;-3.62474;200.644;,
3.62475;-22.263;200.34;,
3.62475;-27.4705;200.644;,
3.45161;-21.1996;188.066;,
21.6124;-2.9272e-06;179.618;,
17.5023;12.7162;179.618;,
6.6853;20.5752;179.618;,
-6.6853;20.5752;179.618;,
-17.5023;12.7162;179.618;,
-17.5023;12.7162;179.618;,
-21.6124;-4.81661e-06;179.618;,
-17.5023;-12.7162;179.618;,
-17.5023;-12.7162;179.618;,
-17.5023;-12.7162;179.618;,
-6.6853;-20.5752;179.618;,
6.6853;-20.5752;179.618;,
6.6853;-20.5752;179.618;,
17.5023;-12.7162;179.618;,
6.6853;20.5752;179.618;,
17.5023;12.7162;179.618;,
18.938;13.7593;200.34;,
7.23368;22.263;200.34;,
-3.62474;22.263;200.34;,
-7.23368;22.263;200.34;,
-6.6853;20.5752;179.618;,
3.62475;22.263;200.34;,
3.52901;21.6749;193.705;,
3.45161;21.1996;188.066;,
-3.45161;21.1996;188.066;,
-3.529;21.6749;193.705;,
-17.5023;12.7162;179.618;,
-18.938;13.7593;200.34;,
-6.6853;-20.5752;179.618;,
-17.5023;-12.7162;179.618;,
-18.938;-13.7593;200.34;,
-7.23367;-22.263;200.34;,
-3.62474;-22.263;200.34;,
-3.52901;-21.6749;193.705;,
-3.45161;-21.1996;188.066;,
6.6853;-20.5752;179.618;,
3.45161;-21.1996;188.066;,
3.52901;-21.6749;193.705;,
3.62475;-22.263;200.34;,
7.23368;-22.263;200.34;,
18.938;-13.7593;200.34;,
17.5023;-12.7162;179.618;,
21.1691;-3.45161;188.066;,
22.2457;-3.41042e-06;188.066;,
21.6124;-2.9272e-06;179.618;,
21.6124;-2.9272e-06;179.618;,
17.5023;-12.7162;179.618;,
18.938;-13.7593;200.34;,
21.1691;-3.45161;188.066;,
21.6124;-2.9272e-06;179.618;,
22.2309;-3.62474;200.34;,
21.6437;-3.529;193.705;,
21.1691;-3.45161;188.066;,
21.6437;-3.529;193.705;,
-21.1691;3.45161;188.066;,
-22.2457;-5.09429e-06;188.066;,
-21.6124;-4.81661e-06;179.618;,
-21.6124;-4.81661e-06;179.618;,
-17.5023;12.7162;179.618;,
-18.938;13.7593;200.34;,
-21.1691;3.45161;188.066;,
-18.938;13.7593;200.34;,
-18.938;13.7593;200.34;,
-22.2309;3.62475;200.34;,
-21.6437;3.52901;193.705;,
-18.938;13.7593;200.34;,
21.6437;3.52901;193.705;,
22.2309;3.62474;200.34;,
21.1691;3.45161;188.066;,
-21.6437;-3.529;193.705;,
-22.2309;-3.62474;200.34;,
-21.6124;-4.81661e-06;179.618;,
-21.1691;-3.4516;188.066;,
-21.1691;-3.4516;188.066;;

 356;
3;0,1,2;,
3;2,3,4;,
3;4,5,6;,
3;7,8,9;,
3;10,7,9;,
3;11,10,9;,
3;12,11,9;,
3;13,12,9;,
3;14,15,16;,
3;16,17,14;,
3;18,19,20;,
3;20,21,18;,
3;19,22,23;,
3;23,20,19;,
3;22,24,25;,
3;25,23,22;,
3;24,26,27;,
3;27,25,24;,
3;26,28,29;,
3;29,27,26;,
3;28,30,31;,
3;31,29,28;,
3;30,32,33;,
3;33,31,30;,
3;34,35,36;,
3;36,37,34;,
3;35,14,17;,
3;17,36,35;,
3;38,39,40;,
3;40,41,38;,
3;42,43,44;,
3;45,40,39;,
3;43,46,47;,
3;47,44,43;,
3;46,48,49;,
3;49,47,46;,
3;48,50,51;,
3;51,49,48;,
3;50,52,53;,
3;53,51,50;,
3;52,54,55;,
3;55,53,52;,
3;54,56,57;,
3;57,55,54;,
3;58,59,60;,
3;60,61,58;,
3;59,38,41;,
3;41,60,59;,
3;62,63,64;,
3;64,65,62;,
3;63,66,67;,
3;67,64,63;,
3;68,69,70;,
3;70,71,68;,
3;69,72,73;,
3;73,70,69;,
3;72,74,75;,
3;75,73,72;,
3;74,76,77;,
3;77,75,74;,
3;76,78,79;,
3;79,77,76;,
3;80,81,82;,
3;82,83,80;,
3;81,84,85;,
3;85,82,81;,
3;84,62,65;,
3;65,85,84;,
3;86,87,88;,
3;88,89,86;,
3;87,90,91;,
3;91,88,87;,
3;92,93,94;,
3;95,91,90;,
3;93,96,97;,
3;97,94,93;,
3;96,98,99;,
3;99,97,96;,
3;98,100,101;,
3;101,99,98;,
3;102,103,104;,
3;104,105,102;,
3;103,106,107;,
3;107,104,103;,
3;106,108,109;,
3;109,107,106;,
3;108,86,89;,
3;89,109,108;,
3;89,88,110;,
3;110,111,89;,
3;88,91,112;,
3;112,110,88;,
3;91,95,113;,
3;113,112,91;,
3;95,114,115;,
3;115,113,95;,
3;114,116,117;,
3;117,115,114;,
3;116,105,118;,
3;118,117,116;,
3;105,104,119;,
3;119,118,105;,
3;104,107,120;,
3;120,119,104;,
3;107,109,121;,
3;121,120,107;,
3;109,89,111;,
3;111,121,109;,
3;111,110,122;,
3;122,123,111;,
3;110,112,124;,
3;124,122,110;,
3;112,113,125;,
3;125,124,112;,
3;113,115,126;,
3;126,125,113;,
3;127,128,129;,
3;129,130,131;,
3;117,118,132;,
3;132,133,117;,
3;118,119,134;,
3;134,132,118;,
3;119,120,135;,
3;135,134,119;,
3;120,121,136;,
3;136,135,120;,
3;121,111,123;,
3;123,136,121;,
3;137,138,139;,
3;139,140,137;,
3;138,141,142;,
3;142,139,138;,
3;141,143,144;,
3;144,142,141;,
3;143,145,146;,
3;146,144,143;,
3;147,148,149;,
3;149,150,151;,
3;152,153,154;,
3;154,155,152;,
3;153,156,157;,
3;157,154,153;,
3;156,158,159;,
3;159,157,156;,
3;158,160,161;,
3;161,159,158;,
3;160,137,140;,
3;140,161,160;,
3;140,139,162;,
3;162,163,140;,
3;139,142,164;,
3;164,162,139;,
3;142,144,165;,
3;165,164,142;,
3;144,146,166;,
3;166,165,144;,
3;167,149,168;,
3;168,169,170;,
3;155,154,171;,
3;171,172,155;,
3;154,157,173;,
3;173,171,154;,
3;157,159,174;,
3;174,173,157;,
3;159,161,175;,
3;175,174,159;,
3;176,177,178;,
3;179,180,176;,
3;181,182,183;,
3;183,184,181;,
3;185,186,187;,
3;188,183,182;,
3;186,189,190;,
3;190,187,186;,
3;189,191,192;,
3;192,190,189;,
3;193,194,195;,
3;195,196,197;,
3;198,199,200;,
3;200,201,198;,
3;199,202,203;,
3;203,200,199;,
3;202,204,205;,
3;205,203,202;,
3;206,207,208;,
3;208,209,206;,
3;210,211,212;,
3;213,214,210;,
3;215,216,217;,
3;217,218,215;,
3;216,219,220;,
3;220,217,216;,
3;221,222,223;,
3;224,220,219;,
3;222,225,226;,
3;226,223,222;,
3;227,228,229;,
3;229,230,231;,
3;232,233,234;,
3;234,235,232;,
3;236,237,238;,
3;238,239,236;,
3;237,240,241;,
3;241,238,237;,
3;240,242,243;,
3;243,241,240;,
3;244,245,246;,
3;247,248,244;,
3;217,220,249;,
3;249,250,217;,
3;251,224,252;,
3;252,253,251;,
3;224,254,255;,
3;255,252,224;,
3;256,239,257;,
3;257,258,256;,
3;239,238,259;,
3;259,257,239;,
3;241,243,260;,
3;260,261,241;,
3;262,263,248;,
3;248,264,262;,
3;265,266,267;,
3;267,268,265;,
3;266,265,269;,
3;269,270,266;,
3;271,272,273;,
3;273,274,271;,
3;273,272,275;,
3;275,276,273;,
3;277,278,279;,
3;279,280,281;,
3;282,283,284;,
3;284,285,282;,
3;285,284,286;,
3;286,287,285;,
3;288,289,290;,
3;290,291,288;,
3;292,293,294;,
3;294,295,292;,
3;270,269,296;,
3;296,297,270;,
3;298,241,261;,
3;261,299,298;,
3;300,301,229;,
3;235,302,303;,
3;304,217,250;,
3;250,305,304;,
3;306,307,308;,
3;308,309,306;,
3;310,311,312;,
3;312,313,314;,
3;310,312,315;,
3;316,310,317;,
3;318,319,320;,
3;321,318,320;,
3;321,320,322;,
3;323,321,322;,
3;324,325,326;,
3;326,327,324;,
3;328,329,330;,
3;330,331,328;,
3;332,333,334;,
3;334,335,332;,
3;336,337,338;,
3;339,340,341;,
3;342,343,344;,
3;344,345,342;,
3;346,347,348;,
3;349,350,351;,
3;351,352,349;,
3;353,354,355;,
3;220,224,251;,
3;251,356,220;,
3;249,220,356;,
3;356,357,249;,
3;235,234,358;,
3;358,302,235;,
3;359,248,263;,
3;263,360,359;,
3;361,238,241;,
3;241,298,361;,
3;361,362,259;,
3;259,238,361;,
3;363,364,365;,
3;366,367,363;,
3;218,217,304;,
3;304,368,218;,
3;369,370,337;,
3;337,336,369;,
3;371,372,340;,
3;340,339,371;,
3;373,344,343;,
3;374,375,347;,
3;347,346,374;,
3;376,377,378;,
3;379,353,380;,
3;381,330,329;,
3;382,334,333;,
3;282,383,384;,
3;384,283,282;,
3;288,385,386;,
3;386,289,288;,
3;387,351,350;,
3;388,389,390;,
3;390,391,392;,
3;388,390,392;,
3;393,394,395;,
3;388,392,396;,
3;397,398,399;,
3;388,396,400;,
3;401,388,400;,
3;402,403,404;,
3;404,405,402;,
3;406,407,408;,
3;405,409,410;,
3;405,410,411;,
3;402,405,411;,
3;408,402,411;,
3;408,411,412;,
3;408,412,413;,
3;406,408,413;,
3;414,408,407;,
3;407,415,414;,
3;416,417,418;,
3;418,419,416;,
3;419,420,421;,
3;419,421,422;,
3;416,419,422;,
3;423,416,422;,
3;423,422,424;,
3;423,424,425;,
3;423,425,426;,
3;423,426,427;,
3;423,427,428;,
3;428,429,423;,
3;430,431,432;,
3;433,434,435;,
3;436,437,435;,
3;435,438,439;,
3;440,435,441;,
3;442,443,444;,
3;445,446,447;,
3;448,445,449;,
3;450,451,452;,
3;448,453,452;,
3;454,455,404;,
3;432,431,456;,
3;403,432,456;,
3;404,403,456;,
3;454,404,456;,
3;457,458,418;,
3;418,417,459;,
3;444,443,460;,
3;418,459,461;,
3;457,418,461;;
MeshMaterialList {
 1;
 356;
  0,
  0,
  0,
  0,
  0,
  0,
  0,
  0,
  0,
  0,
  0,
  0,
  0,
  0,
  0,
  0,
  0,
  0,
  0,
  0,
  0,
  0,
  0,
  0,
  0,
  0,
  0,
  0,
  0,
  0,
  0,
  0,
  0,
  0,
  0,
  0,
  0,
  0,
  0,
  0,
  0,
  0,
  0,
  0,
  0,
  0,
  0,
  0,
  0,
  0,
  0,
  0,
  0,
  0,
  0,
  0,
  0,
  0,
  0,
  0,
  0,
  0,
  0,
  0,
  0,
  0,
  0,
  0,
  0,
  0,
  0,
  0,
  0,
  0,
  0,
  0,
  0,
  0,
  0,
  0,
  0,
  0,
  0,
  0,
  0,
  0,
  0,
  0,
  0,
  0,
  0,
  0,
  0,
  0,
  0,
  0,
  0,
  0,
  0,
  0,
  0,
  0,
  0,
  0,
  0,
  0,
  0,
  0,
  0,
  0,
  0,
  0,
  0,
  0,
  0,
  0,
  0,
  0,
  0,
  0,
  0,
  0,
  0,
  0,
  0,
  0,
  0,
  0,
  0,
  0,
  0,
  0,
  0,
  0,
  0,
  0,
  0,
  0,
  0,
  0,
  0,
  0,
  0,
  0,
  0,
  0,
  0,
  0,
  0,
  0,
  0,
  0,
  0,
  0,
  0,
  0,
  0,
  0,
  0,
  0,
  0,
  0,
  0,
  0,
  0,
  0,
  0,
  0,
  0,
  0,
  0,
  0,
  0,
  0,
  0,
  0,
  0,
  0,
  0,
  0,
  0,
  0,
  0,
  0,
  0,
  0,
  0,
  0,
  0,
  0,
  0,
  0,
  0,
  0,
  0,
  0,
  0,
  0,
  0,
  0,
  0,
  0,
  0,
  0,
  0,
  0,
  0,
  0,
  0,
  0,
  0,
  0,
  0,
  0,
  0,
  0,
  0,
  0,
  0,
  0,
  0,
  0,
  0,
  0,
  0,
  0,
  0,
  0,
  0,
  0,
  0,
  0,
  0,
  0,
  0,
  0,
  0,
  0,
  0,
  0,
  0,
  0,
  0,
  0,
  0,
  0,
  0,
  0,
  0,
  0,
  0,
  0,
  0,
  0,
  0,
  0,
  0,
  0,
  0,
  0,
  0,
  0,
  0,
  0,
  0,
  0,
  0,
  0,
  0,
  0,
  0,
  0,
  0,
  0,
  0,
  0,
  0,
  0,
  0,
  0,
  0,
  0,
  0,
  0,
  0,
  0,
  0,
  0,
  0,
  0,
  0,
  0,
  0,
  0,
  0,
  0,
  0,
  0,
  0,
  0,
  0,
  0,
  0,
  0,
  0,
  0,
  0,
  0,
  0,
  0,
  0,
  0,
  0,
  0,
  0,
  0,
  0,
  0,
  0,
  0,
  0,
  0,
  0,
  0,
  0,
  0,
  0,
  0,
  0,
  0,
  0,
  0,
  0,
  0,
  0,
  0,
  0,
  0,
  0,
  0,
  0,
  0,
  0,
  0,
  0,
  0,
  0,
  0,
  0,
  0,
  0,
  0,
  0,
  0,
  0,
  0;;
Material {
 0.752941;0.752941;0.752941;1.0;;
 50.000000;
 0.752941;0.752941;0.752941;;
 0.117647;0.117647;0.117647;;
 }
}

 MeshNormals {
 462;
0.0;1.0;-1.69333e-08;,
0.0;1.0;-1.69333e-08;,
0.0;1.0;-1.69333e-08;,
0.0;1.0;-1.69333e-08;,
0.0;1.0;-1.69333e-08;,
0.0;1.0;-1.69333e-08;,
0.0;1.0;-1.69333e-08;,
0.0;1.0;-1.69333e-08;,
0.0;1.0;-1.69333e-08;,
0.0;1.0;-1.69333e-08;,
0.0;1.0;-1.69333e-08;,
0.0;1.0;-1.69333e-08;,
0.0;1.0;-1.69333e-08;,
0.0;1.0;-1.69333e-08;,
0.988379;-2.20489e-06;0.152008;,
0.613636;-4.9926e-07;0.789589;,
0.7756;-1.29763e-06;0.631225;,
0.988379;-2.20744e-06;-0.152008;,
0.613636;-4.9926e-07;0.789589;,
0.145784;-6.14218e-08;0.989316;,
0.301502;-2.08309e-07;0.953466;,
0.7756;-1.29763e-06;0.631225;,
-0.301502;-3.07554e-07;0.953466;,
-0.145785;-6.14218e-08;0.989316;,
-0.7756;-8.97406e-07;0.631225;,
-0.613636;-6.53566e-07;0.789589;,
-0.988379;-7.89192e-07;-0.152008;,
-0.988379;-9.95424e-07;0.152008;,
-0.613636;-2.59576e-07;-0.789589;,
-0.7756;-5.23799e-07;-0.631225;,
-0.145784;4.31353e-07;-0.989316;,
-0.301502;-1.16165e-07;-0.953466;,
0.301502;6.63347e-07;-0.953466;,
0.145785;7.80387e-07;-0.989316;,
0.301502;6.63347e-07;-0.953466;,
0.7756;-1.31987e-06;-0.631225;,
0.613636;-6.58948e-08;-0.789589;,
0.145785;7.80387e-07;-0.989316;,
0.592734;-0.800223;0.0911599;,
0.410428;-0.743401;0.528113;,
0.496559;-0.768187;0.404126;,
0.592734;-0.800223;-0.0911596;,
0.410428;-0.743401;0.528113;,
0.105411;-0.690787;0.715334;,
0.214486;-0.702795;0.678288;,
0.214486;-0.702795;0.678288;,
-0.214486;-0.702795;0.678289;,
-0.105411;-0.690786;0.715334;,
-0.496558;-0.768188;0.404126;,
-0.410428;-0.743401;0.528113;,
-0.592733;-0.800223;-0.0911598;,
-0.592733;-0.800223;0.0911597;,
-0.410427;-0.743402;-0.528112;,
-0.496558;-0.768188;-0.404126;,
-0.10541;-0.690788;-0.715333;,
-0.214486;-0.702796;-0.678287;,
0.214486;-0.702796;-0.678288;,
0.105411;-0.690787;-0.715333;,
0.214486;-0.702796;-0.678288;,
0.496558;-0.768188;-0.404125;,
0.410427;-0.743402;-0.528112;,
0.105411;-0.690787;-0.715333;,
0.868109;0.478081;0.133511;,
0.558876;0.412933;0.719127;,
0.696632;0.439619;0.566956;,
0.868109;0.478081;-0.133511;,
0.135834;0.363115;0.92179;,
0.279648;0.373782;0.884355;,
0.135834;0.363115;0.92179;,
-0.279648;0.373781;0.884355;,
-0.135834;0.363115;0.92179;,
0.279648;0.373782;0.884355;,
-0.696632;0.439619;0.566956;,
-0.558876;0.412932;0.719127;,
-0.868109;0.478082;-0.133511;,
-0.868109;0.478081;0.133511;,
-0.558876;0.412934;-0.719127;,
-0.696631;0.43962;-0.566956;,
-0.135834;0.363116;-0.92179;,
-0.279648;0.373783;-0.884355;,
-0.135834;0.363116;-0.92179;,
0.279648;0.373782;-0.884355;,
0.135834;0.363116;-0.92179;,
-0.279648;0.373783;-0.884355;,
0.696632;0.439619;-0.566956;,
0.558877;0.412933;-0.719127;,
0.843648;-0.520983;0.129749;,
0.547001;-0.453198;0.703847;,
0.659508;-0.295253;0.691285;,
0.940781;-0.338866;0.0100992;,
0.133586;-0.400436;0.906535;,
0.210617;-0.251348;0.944703;,
0.133586;-0.400436;0.906535;,
-0.274752;-0.411796;0.86887;,
-0.221138;-0.251902;0.942148;,
-0.221138;-0.251902;0.942148;,
-0.679926;-0.481139;0.55336;,
-0.670091;-0.296713;0.680396;,
-0.843648;-0.520984;-0.129749;,
-0.94078;-0.338866;-0.0100991;,
-0.547001;-0.453198;-0.703848;,
-0.659508;-0.295253;-0.691285;,
-0.547001;-0.453198;-0.703848;,
-0.133586;-0.400436;-0.906535;,
-0.210617;-0.251348;-0.944703;,
-0.659508;-0.295253;-0.691285;,
0.274752;-0.411796;-0.86887;,
0.221138;-0.251902;-0.942148;,
0.679926;-0.481138;-0.55336;,
0.670091;-0.296713;-0.680396;,
0.690239;0.178713;0.701165;,
0.978487;0.206054;-0.0102124;,
0.225756;0.150443;0.962497;,
-0.215287;0.150106;0.964945;,
-0.670091;-0.296713;0.680396;,
-0.576538;0.0252445;0.81668;,
-0.94078;-0.338866;-0.0100991;,
-0.978487;0.206055;0.0102123;,
-0.690239;0.178713;-0.701165;,
-0.225756;0.150442;-0.962497;,
0.215287;0.150106;-0.964945;,
0.679439;0.177806;-0.711863;,
0.682317;0.475479;0.555305;,
0.847129;0.515168;-0.130284;,
0.275458;0.406569;0.871105;,
-0.133911;0.395298;0.90874;,
-0.415653;0.408994;0.812377;,
-0.794877;0.483393;0.366745;,
-0.978487;0.206055;0.0102123;,
-0.847129;0.515169;0.130284;,
-0.794878;0.483391;0.366745;,
-0.794878;0.483391;0.366745;,
-0.682316;0.47548;-0.555305;,
-0.847129;0.515169;0.130284;,
-0.275458;0.406569;-0.871105;,
0.133911;0.395297;-0.90874;,
0.548707;0.447689;-0.706042;,
0.943608;-0.297563;0.145122;,
0.593946;-0.251288;0.764253;,
0.685443;-0.159317;0.710483;,
0.982826;-0.184511;0.00310888;,
0.142285;-0.217799;0.965567;,
0.219442;-0.134236;0.966347;,
-0.293782;-0.224849;0.929051;,
-0.222623;-0.134328;0.965606;,
-0.443667;-0.226377;0.867129;,
-0.449102;-0.166903;0.877753;,
-0.872931;-0.275276;0.402758;,
-0.943608;-0.297563;-0.145123;,
-0.982826;-0.184511;-0.0031092;,
-0.872932;-0.275275;0.402758;,
-0.872932;-0.275275;0.402758;,
-0.943608;-0.297563;-0.145123;,
-0.593946;-0.251287;-0.764253;,
-0.685443;-0.159317;-0.710483;,
-0.982826;-0.184511;-0.0031092;,
-0.142285;-0.217798;-0.965567;,
-0.219441;-0.134236;-0.966347;,
0.293782;-0.224849;-0.929051;,
0.222623;-0.134328;-0.965606;,
0.746823;-0.269868;-0.607805;,
0.688734;-0.159565;-0.707237;,
0.774298;-0.0579096;0.630165;,
0.906422;-0.0591598;0.41821;,
0.301159;-0.0477058;0.95238;,
-0.145629;-0.0461375;0.988263;,
-0.454965;-0.0480466;0.889212;,
-0.906422;-0.0591599;0.41821;,
-0.986329;-0.0643752;0.151692;,
-0.906422;-0.0591598;0.41821;,
-0.906422;-0.0591598;0.41821;,
-0.774298;-0.0579096;-0.630165;,
-0.986329;-0.0643752;0.151692;,
-0.301159;-0.0477058;-0.95238;,
0.145629;-0.0461374;-0.988263;,
0.612752;-0.0536559;-0.788451;,
0.688734;-0.159565;-0.707237;,
0.982826;-0.184511;0.00310888;,
0.906422;-0.0591598;-0.41821;,
0.906422;-0.0591598;-0.41821;,
0.612752;-0.0536559;-0.788451;,
0.320563;0.935614;0.147868;,
0.235745;0.92326;0.303342;,
0.27898;0.933078;0.227016;,
0.320606;0.935602;0.147853;,
0.235745;0.92326;0.303342;,
0.0635222;0.900079;0.431072;,
0.127833;0.905668;0.404258;,
0.127833;0.905668;0.404258;,
-0.127833;0.905668;0.404258;,
-0.0635222;0.900079;0.431072;,
-0.191995;0.906823;0.375246;,
-0.191995;0.906823;0.375246;,
-0.320603;0.935593;0.147921;,
-0.323739;0.944837;-0.0497577;,
-0.323747;0.944833;0.0497846;,
-0.32055;0.935625;0.147827;,
-0.32055;0.935625;0.147827;,
-0.323739;0.944837;-0.0497577;,
-0.235745;0.92326;-0.303342;,
-0.27898;0.933078;-0.227016;,
-0.323747;0.944833;0.0497846;,
-0.0635222;0.900079;-0.431072;,
-0.127833;0.905668;-0.404258;,
0.127833;0.905668;-0.404258;,
0.0635223;0.900079;-0.431072;,
0.127833;0.905668;-0.404258;,
0.278989;0.933074;-0.22702;,
0.235755;0.923263;-0.303324;,
0.0635223;0.900079;-0.431072;,
0.278989;0.933074;-0.22702;,
0.320602;0.935593;-0.147921;,
0.320602;0.935593;-0.147921;,
0.32055;0.935625;-0.147827;,
0.235755;0.923263;-0.303324;,
0.906185;0.0720581;0.416696;,
0.612322;0.0662389;0.787828;,
0.72771;0.104744;0.67784;,
0.90587;0.108126;0.409522;,
0.145548;0.0569674;0.98771;,
0.188195;0.0841987;0.978516;,
0.145548;0.0569674;0.98771;,
-0.300979;0.0589016;0.95181;,
-0.187723;0.0855414;0.97849;,
-0.187723;0.0855414;0.97849;,
-0.454689;0.0593219;0.888672;,
-0.454143;0.0768816;0.887605;,
-0.905795;0.0710245;0.417722;,
-0.985504;0.0780018;-0.150658;,
-0.991457;0.112834;0.0654318;,
-0.90658;0.0730131;0.41567;,
-0.90658;0.0730131;0.41567;,
-0.985504;0.0780018;-0.150658;,
-0.612323;0.066239;-0.787828;,
-0.72771;0.104744;-0.67784;,
-0.991457;0.112834;0.0654318;,
-0.612323;0.066239;-0.787828;,
-0.145548;0.0569673;-0.98771;,
-0.221251;0.0822922;-0.971739;,
-0.72771;0.104744;-0.67784;,
0.300978;0.0589015;-0.95181;,
0.163199;0.0867131;-0.982775;,
0.774141;0.0708405;-0.629037;,
0.728332;0.107778;-0.676695;,
0.774141;0.0708405;-0.629037;,
0.905794;0.0710247;-0.417722;,
0.905794;0.0710247;-0.417722;,
0.90658;0.0730132;-0.415671;,
0.728332;0.107778;-0.676695;,
0.219821;0.110841;0.969223;,
0.76926;0.136603;0.624163;,
0.00186178;0.0984494;0.99514;,
-0.142391;0.109025;0.983788;,
0.0;0.106132;0.994352;,
-0.454143;0.0768816;0.887605;,
-0.452624;0.112034;0.884636;,
-0.902561;0.133515;-0.409338;,
-0.76926;0.136603;-0.624163;,
-0.898652;0.143212;-0.414625;,
-0.219821;0.110841;-0.969223;,
0.690616;0.131861;-0.7111;,
0.142391;0.109025;-0.983788;,
0.902757;0.144264;-0.405239;,
0.901052;0.149345;-0.407188;,
0.902299;0.12125;-0.413708;,
-0.0341312;-0.999031;-0.0277778;,
-0.0291469;-0.998871;-0.0375044;,
-0.0391125;-0.999072;-0.0180459;,
-0.0391125;-0.999072;-0.0180459;,
-0.0161072;-0.998572;-0.0509371;,
-0.0080528;-0.998473;-0.0546475;,
0.0;-0.998296;-0.0583526;,
0.0120799;-0.998532;-0.0527929;,
0.0120799;-0.998532;-0.0527929;,
0.0;-0.998296;-0.0583526;,
0.0241613;-0.998592;-0.0472222;,
0.0241613;-0.998592;-0.0472222;,
0.0391125;-0.999072;-0.018046;,
0.0391125;-0.999072;-0.018046;,
0.0391125;-0.999072;-0.018046;,
0.0391125;-0.999072;-0.018046;,
0.0391125;-0.999072;-0.018046;,
0.0316389;-0.998966;0.0326421;,
0.0316392;-0.998966;0.0326424;,
0.0161072;-0.998572;0.0509372;,
0.0080528;-0.998473;0.0546477;,
-8.60546e-09;-0.998296;0.0583527;,
0.0;-0.998296;0.0583528;,
-0.0120799;-0.998532;0.0527931;,
-0.0120799;-0.998532;0.0527931;,
-0.0291469;-0.998871;0.0375045;,
-0.0341313;-0.999031;0.0277779;,
-0.0341313;-0.999031;0.0277779;,
-0.0291469;-0.998871;0.0375045;,
-0.0391125;-0.999072;0.018046;,
-0.0391126;-0.999072;0.018046;,
0.0;-0.998296;-0.0583526;,
0.0;-0.998296;-0.0583526;,
-0.00248265;0.100251;-0.994959;,
0.0;0.106132;-0.994352;,
-0.902561;0.133515;0.409337;,
-0.901159;0.131113;0.413185;,
-0.991092;0.133183;-9.76049e-07;,
-0.902561;0.133515;0.409337;,
0.902561;0.133514;0.409338;,
0.898652;0.143213;0.414625;,
0.0;-1.0;1.69333e-08;,
0.0;-1.0;1.69333e-08;,
0.0;-1.0;1.69333e-08;,
0.0;-1.0;1.69333e-08;,
1.29206e-06;-1.0;2.69956e-07;,
1.71371e-06;-1.0;7.76001e-07;,
1.29272e-06;-1.0;-9.48184e-07;,
1.98828e-09;-1.0;-3.63749e-06;,
1.98828e-09;-1.0;-3.63749e-06;,
2.16246e-06;-1.0;1.69333e-08;,
0.0;-1.0;1.69333e-08;,
0.0;-1.0;1.69333e-08;,
1.49204e-09;-1.0;5.50109e-06;,
2.98284e-09;-1.0;5.49857e-06;,
9.94692e-10;-1.0;3.67304e-06;,
4.11176e-13;-1.0;1.84583e-06;,
0.0;-1.0;1.69333e-08;,
0.0;-1.0;1.69333e-08;,
9.64842e-07;-1.0;1.93486e-06;,
1.92968e-06;-1.0;3.85279e-06;,
9.64842e-07;-1.0;1.93486e-06;,
0.0;-1.0;1.69333e-08;,
-0.000279782;-0.0142982;-0.999898;,
-0.000274476;-0.0141095;-0.9999;,
-0.000367918;-0.0141287;-0.9999;,
-0.000554802;-0.0141671;-0.999899;,
0.999794;-0.020304;-0.000593088;,
0.999799;-0.0200361;-0.000581926;,
0.999798;-0.0200642;-0.000779978;,
0.999797;-0.0201204;-0.00117608;,
-0.999799;-0.0200359;-0.000581874;,
-0.999798;-0.020064;-0.000779916;,
-0.999808;-0.0195844;-0.00115376;,
0.000274354;-0.0141095;-0.9999;,
0.000367765;-0.0141287;-0.9999;,
0.000543987;-0.0137899;-0.999905;,
0.000279711;-0.0142981;0.999898;,
0.000274426;-0.0141095;0.9999;,
0.000367841;-0.0141287;0.9999;,
0.000554673;-0.014167;0.9999;,
0.999799;-0.020036;0.000581961;,
0.999798;-0.0200642;0.000780002;,
0.999808;-0.0195846;0.00115376;,
-0.999794;-0.0203039;0.000593078;,
-0.999799;-0.0200359;0.000582032;,
-0.999798;-0.0200641;0.000780024;,
-0.999797;-0.0201204;0.00117601;,
-0.000274351;-0.0141095;0.9999;,
-0.000544024;-0.0137898;0.999905;,
-0.000544024;-0.0137898;0.999905;,
-0.00248282;0.10025;0.994959;,
0.0;0.106132;0.994352;,
-0.902561;0.133515;-0.409338;,
0.690616;0.131861;-0.7111;,
0.898652;0.143212;-0.414625;,
0.001862;0.0984496;-0.99514;,
2.9328e-07;0.106132;-0.994352;,
-0.902561;0.133515;0.409337;,
-0.898652;0.143212;0.414626;,
-0.898652;0.143212;0.414626;,
-0.901532;0.137554;0.410267;,
-0.901532;0.137554;0.410267;,
0.908718;0.122112;0.399148;,
-0.999794;-0.0203038;-0.000592995;,
-0.999797;-0.0201203;-0.001176;,
0.000279654;-0.0142981;-0.999898;,
0.000554588;-0.014167;-0.9999;,
0.0005441;-0.0137898;0.999905;,
0.999794;-0.0203039;0.000593123;,
0.999797;-0.0201204;0.00117608;,
-0.000554483;-0.0141671;0.9999;,
-0.000554483;-0.0141671;0.9999;,
-0.000554483;-0.0141671;0.9999;,
-4.67428e-06;-0.0144292;0.999896;,
-4.67428e-06;-0.0144292;0.999896;,
-0.000544189;-0.0137898;-0.999905;,
0.999808;-0.0195846;-0.00115376;,
0.039111;-0.999072;0.0180453;,
0.0391116;-0.999072;0.018046;,
0.0;-0.998296;0.0583528;,
0.0;-0.998296;0.0583528;,
-0.999808;-0.0195844;0.00115392;,
0.0;-1.0;1.69333e-08;,
0.0;-1.0;1.69333e-08;,
0.0;-1.0;1.69333e-08;,
0.0;-1.0;1.69333e-08;,
0.0;-1.0;1.69333e-08;,
0.0;-1.0;1.69333e-08;,
0.0;-1.0;1.69333e-08;,
0.0;-1.0;1.69333e-08;,
0.0;-1.0;1.69333e-08;,
0.0;-1.0;1.69333e-08;,
0.0;-1.0;1.69333e-08;,
0.0;-1.0;1.69333e-08;,
0.0;-1.0;1.69333e-08;,
0.0;-1.0;1.69333e-08;,
-0.218859;-0.0853636;-0.972015;,
-0.773253;-0.105046;-0.625336;,
-0.741222;-0.108912;-0.662366;,
-0.102895;-0.0872062;-0.990862;,
-0.0155234;-0.0844029;-0.996311;,
0.300315;-0.0886373;-0.949713;,
0.0623877;-0.0826311;-0.994626;,
0.0;-0.0882831;-0.996095;,
0.00278661;-0.0860903;-0.996283;,
0.00462745;-0.0779968;-0.996943;,
-0.00920103;-0.0786699;-0.996858;,
-0.0247329;-0.0856236;-0.99602;,
0.453673;-0.0892669;-0.886686;,
0.453673;-0.0892669;-0.886686;,
0.218859;-0.0853636;0.972015;,
0.692794;-0.104079;0.713586;,
0.774466;-0.106778;0.623539;,
0.102895;-0.0872065;0.990862;,
0.0;-0.0882831;0.996095;,
-0.0027861;-0.0860907;0.996283;,
-0.00462734;-0.077997;0.996943;,
-0.116386;-0.084344;0.989616;,
0.00920139;-0.0786702;0.996858;,
0.0247328;-0.0856239;0.99602;,
0.015523;-0.084403;0.996311;,
-0.222198;-0.0874417;0.971073;,
-0.774466;-0.106778;0.623539;,
-0.692794;-0.104079;0.713586;,
-0.910021;-0.0968758;0.403083;,
-0.994381;-0.105856;-5.07753e-07;,
-0.982906;-0.106774;-0.149985;,
-0.903359;-0.109745;0.414606;,
-0.692794;-0.104079;0.713586;,
-0.774466;-0.106778;0.623539;,
-0.916258;-0.091103;0.390091;,
-0.916258;-0.091103;0.390091;,
-0.901527;-0.119299;0.415952;,
-0.901527;-0.119299;0.415952;,
-0.903572;-0.113683;0.413078;,
-0.903572;-0.113683;0.413078;,
0.910034;-0.100583;-0.402146;,
0.994381;-0.105856;6.22109e-07;,
0.994102;-0.108447;-5.54806e-09;,
0.994102;-0.108447;-5.54806e-09;,
0.903359;-0.109745;-0.414606;,
0.903359;-0.109745;-0.414606;,
0.910034;-0.100583;-0.402146;,
0.916258;-0.0911036;-0.390092;,
0.901527;-0.119298;-0.415952;,
0.901527;-0.119298;-0.415952;,
0.902554;-0.116493;-0.414518;,
0.903572;-0.113684;-0.413079;,
-0.902554;-0.116493;-0.414518;,
-0.901528;-0.119298;-0.415952;,
-0.905922;-0.105616;-0.410061;,
0.902554;-0.116493;0.414518;,
0.901527;-0.119299;0.415952;,
0.994102;-0.108447;-5.54806e-09;,
0.910034;-0.100583;0.402145;,
0.910034;-0.100583;0.402145;;

 356;
3;0,1,2;,
3;2,3,4;,
3;4,5,6;,
3;7,8,9;,
3;10,7,9;,
3;11,10,9;,
3;12,11,9;,
3;13,12,9;,
3;14,15,16;,
3;16,17,14;,
3;18,19,20;,
3;20,21,18;,
3;19,22,23;,
3;23,20,19;,
3;22,24,25;,
3;25,23,22;,
3;24,26,27;,
3;27,25,24;,
3;26,28,29;,
3;29,27,26;,
3;28,30,31;,
3;31,29,28;,
3;30,32,33;,
3;33,31,30;,
3;34,35,36;,
3;36,37,34;,
3;35,14,17;,
3;17,36,35;,
3;38,39,40;,
3;40,41,38;,
3;42,43,44;,
3;45,40,39;,
3;43,46,47;,
3;47,44,43;,
3;46,48,49;,
3;49,47,46;,
3;48,50,51;,
3;51,49,48;,
3;50,52,53;,
3;53,51,50;,
3;52,54,55;,
3;55,53,52;,
3;54,56,57;,
3;57,55,54;,
3;58,59,60;,
3;60,61,58;,
3;59,38,41;,
3;41,60,59;,
3;62,63,64;,
3;64,65,62;,
3;63,66,67;,
3;67,64,63;,
3;68,69,70;,
3;70,71,68;,
3;69,72,73;,
3;73,70,69;,
3;72,74,75;,
3;75,73,72;,
3;74,76,77;,
3;77,75,74;,
3;76,78,79;,
3;79,77,76;,
3;80,81,82;,
3;82,83,80;,
3;81,84,85;,
3;85,82,81;,
3;84,62,65;,
3;65,85,84;,
3;86,87,88;,
3;88,89,86;,
3;87,90,91;,
3;91,88,87;,
3;92,93,94;,
3;95,91,90;,
3;93,96,97;,
3;97,94,93;,
3;96,98,99;,
3;99,97,96;,
3;98,100,101;,
3;101,99,98;,
3;102,103,104;,
3;104,105,102;,
3;103,106,107;,
3;107,104,103;,
3;106,108,109;,
3;109,107,106;,
3;108,86,89;,
3;89,109,108;,
3;89,88,110;,
3;110,111,89;,
3;88,91,112;,
3;112,110,88;,
3;91,95,113;,
3;113,112,91;,
3;95,114,115;,
3;115,113,95;,
3;114,116,117;,
3;117,115,114;,
3;116,105,118;,
3;118,117,116;,
3;105,104,119;,
3;119,118,105;,
3;104,107,120;,
3;120,119,104;,
3;107,109,121;,
3;121,120,107;,
3;109,89,111;,
3;111,121,109;,
3;111,110,122;,
3;122,123,111;,
3;110,112,124;,
3;124,122,110;,
3;112,113,125;,
3;125,124,112;,
3;113,115,126;,
3;126,125,113;,
3;127,128,129;,
3;129,130,131;,
3;117,118,132;,
3;132,133,117;,
3;118,119,134;,
3;134,132,118;,
3;119,120,135;,
3;135,134,119;,
3;120,121,136;,
3;136,135,120;,
3;121,111,123;,
3;123,136,121;,
3;137,138,139;,
3;139,140,137;,
3;138,141,142;,
3;142,139,138;,
3;141,143,144;,
3;144,142,141;,
3;143,145,146;,
3;146,144,143;,
3;147,148,149;,
3;149,150,151;,
3;152,153,154;,
3;154,155,152;,
3;153,156,157;,
3;157,154,153;,
3;156,158,159;,
3;159,157,156;,
3;158,160,161;,
3;161,159,158;,
3;160,137,140;,
3;140,161,160;,
3;140,139,162;,
3;162,163,140;,
3;139,142,164;,
3;164,162,139;,
3;142,144,165;,
3;165,164,142;,
3;144,146,166;,
3;166,165,144;,
3;167,149,168;,
3;168,169,170;,
3;155,154,171;,
3;171,172,155;,
3;154,157,173;,
3;173,171,154;,
3;157,159,174;,
3;174,173,157;,
3;159,161,175;,
3;175,174,159;,
3;176,177,178;,
3;179,180,176;,
3;181,182,183;,
3;183,184,181;,
3;185,186,187;,
3;188,183,182;,
3;186,189,190;,
3;190,187,186;,
3;189,191,192;,
3;192,190,189;,
3;193,194,195;,
3;195,196,197;,
3;198,199,200;,
3;200,201,198;,
3;199,202,203;,
3;203,200,199;,
3;202,204,205;,
3;205,203,202;,
3;206,207,208;,
3;208,209,206;,
3;210,211,212;,
3;213,214,210;,
3;215,216,217;,
3;217,218,215;,
3;216,219,220;,
3;220,217,216;,
3;221,222,223;,
3;224,220,219;,
3;222,225,226;,
3;226,223,222;,
3;227,228,229;,
3;229,230,231;,
3;232,233,234;,
3;234,235,232;,
3;236,237,238;,
3;238,239,236;,
3;237,240,241;,
3;241,238,237;,
3;240,242,243;,
3;243,241,240;,
3;244,245,246;,
3;247,248,244;,
3;217,220,249;,
3;249,250,217;,
3;251,224,252;,
3;252,253,251;,
3;224,254,255;,
3;255,252,224;,
3;256,239,257;,
3;257,258,256;,
3;239,238,259;,
3;259,257,239;,
3;241,243,260;,
3;260,261,241;,
3;262,263,248;,
3;248,264,262;,
3;265,266,267;,
3;267,268,265;,
3;266,265,269;,
3;269,270,266;,
3;271,272,273;,
3;273,274,271;,
3;273,272,275;,
3;275,276,273;,
3;277,278,279;,
3;279,280,281;,
3;282,283,284;,
3;284,285,282;,
3;285,284,286;,
3;286,287,285;,
3;288,289,290;,
3;290,291,288;,
3;292,293,294;,
3;294,295,292;,
3;270,269,296;,
3;296,297,270;,
3;298,241,261;,
3;261,299,298;,
3;300,301,229;,
3;235,302,303;,
3;304,217,250;,
3;250,305,304;,
3;306,307,308;,
3;308,309,306;,
3;310,311,312;,
3;312,313,314;,
3;310,312,315;,
3;316,310,317;,
3;318,319,320;,
3;321,318,320;,
3;321,320,322;,
3;323,321,322;,
3;324,325,326;,
3;326,327,324;,
3;328,329,330;,
3;330,331,328;,
3;332,333,334;,
3;334,335,332;,
3;336,337,338;,
3;339,340,341;,
3;342,343,344;,
3;344,345,342;,
3;346,347,348;,
3;349,350,351;,
3;351,352,349;,
3;353,354,355;,
3;220,224,251;,
3;251,356,220;,
3;249,220,356;,
3;356,357,249;,
3;235,234,358;,
3;358,302,235;,
3;359,248,263;,
3;263,360,359;,
3;361,238,241;,
3;241,298,361;,
3;361,362,259;,
3;259,238,361;,
3;363,364,365;,
3;366,367,363;,
3;218,217,304;,
3;304,368,218;,
3;369,370,337;,
3;337,336,369;,
3;371,372,340;,
3;340,339,371;,
3;373,344,343;,
3;374,375,347;,
3;347,346,374;,
3;376,377,378;,
3;379,353,380;,
3;381,330,329;,
3;382,334,333;,
3;282,383,384;,
3;384,283,282;,
3;288,385,386;,
3;386,289,288;,
3;387,351,350;,
3;388,389,390;,
3;390,391,392;,
3;388,390,392;,
3;393,394,395;,
3;388,392,396;,
3;397,398,399;,
3;388,396,400;,
3;401,388,400;,
3;402,403,404;,
3;404,405,402;,
3;406,407,408;,
3;405,409,410;,
3;405,410,411;,
3;402,405,411;,
3;408,402,411;,
3;408,411,412;,
3;408,412,413;,
3;406,408,413;,
3;414,408,407;,
3;407,415,414;,
3;416,417,418;,
3;418,419,416;,
3;419,420,421;,
3;419,421,422;,
3;416,419,422;,
3;423,416,422;,
3;423,422,424;,
3;423,424,425;,
3;423,425,426;,
3;423,426,427;,
3;423,427,428;,
3;428,429,423;,
3;430,431,432;,
3;433,434,435;,
3;436,437,435;,
3;435,438,439;,
3;440,435,441;,
3;442,443,444;,
3;445,446,447;,
3;448,445,449;,
3;450,451,452;,
3;448,453,452;,
3;454,455,404;,
3;432,431,456;,
3;403,432,456;,
3;404,403,456;,
3;454,404,456;,
3;457,458,418;,
3;418,417,459;,
3;444,443,460;,
3;418,459,461;,
3;457,418,461;;
 }
MeshTextureCoords {
 462;
0.434932;0.0881674;,
0.408261;0.208027;,
0.404822;0.319329;,
0.462947;0.379559;,
0.568966;0.365713;,
0.598157;0.283078;,
0.583851;0.163219;,
0.583851;1.16322;,
0.552481;1.05192;,
0.513214;0.991686;,
0.568966;1.36571;,
0.404822;1.31933;,
0.434932;1.08817;,
0.472086;1.00553;,
0.513214;0.991686;,
0.552481;1.05192;,
0.554999;1.00687;,
0.513825;0.94664;,
0.552481;0.051917;,
0.583851;0.163219;,
0.588366;0.118173;,
0.554999;0.00687099;,
0.598157;0.283078;,
0.605054;0.238032;,
0.568966;0.365713;,
0.576933;0.320667;,
0.462947;0.379559;,
0.457817;0.334513;,
0.404822;0.319329;,
0.39703;0.274283;,
0.408261;0.208027;,
0.402944;0.162981;,
0.434932;0.0881674;,
0.431717;0.0431214;,
0.434932;1.08817;,
0.472086;1.00553;,
0.470787;0.960487;,
0.431717;1.04312;,
0.513825;0.94664;,
0.554999;1.00687;,
0.553732;0.999084;,
0.513518;0.942262;,
0.554999;0.00687099;,
0.588366;0.118173;,
0.586092;0.104085;,
0.586092;1.10409;,
0.605054;0.238032;,
0.601561;0.21716;,
0.576933;0.320667;,
0.572812;0.295117;,
0.457817;0.334513;,
0.460503;0.30818;,
0.39703;0.274283;,
0.400996;0.251359;,
0.402944;0.162981;,
0.405625;0.146357;,
0.431717;0.0431214;,
0.433335;0.033282;,
0.431717;1.04312;,
0.470787;0.960487;,
0.471441;0.955325;,
0.433335;1.03328;,
0.513518;0.942262;,
0.553732;0.999084;,
0.558274;0.953871;,
0.51462;0.893641;,
0.586092;1.10409;,
0.594264;1.06517;,
0.586092;0.104085;,
0.601561;0.21716;,
0.614288;0.185033;,
0.594264;0.0651733;,
0.572812;0.295117;,
0.588752;0.267667;,
0.460503;0.30818;,
0.449679;0.281514;,
0.400996;0.251359;,
0.386363;0.221283;,
0.405625;0.146357;,
0.395963;0.109981;,
0.405625;1.14636;,
0.433335;1.03328;,
0.427531;0.990122;,
0.395963;1.10998;,
0.471441;0.955325;,
0.469096;0.907487;,
0.51462;0.893641;,
0.558274;0.953871;,
0.558389;0.842509;,
0.514648;0.796879;,
0.594264;1.06517;,
0.594471;0.926828;,
0.594264;0.0651733;,
0.614288;0.185033;,
0.614618;0.0176307;,
0.614618;1.01763;,
0.588752;0.267667;,
0.589201;0.0802328;,
0.449679;0.281514;,
0.449357;0.0907224;,
0.386363;0.221283;,
0.385977;0.0450931;,
0.386363;1.22128;,
0.395963;1.10998;,
0.395716;0.960774;,
0.385977;1.04509;,
0.427531;0.990122;,
0.427384;0.869971;,
0.469096;0.907487;,
0.469037;0.807369;,
0.578391;0.651016;,
0.519545;0.609908;,
0.630459;0.726979;,
0.674464;0.808783;,
0.589201;1.08023;,
0.706621;0.865182;,
0.449357;1.09072;,
0.296823;0.874632;,
0.311847;0.833524;,
0.352707;0.757561;,
0.401899;0.675757;,
0.458642;0.619358;,
0.585386;0.61934;,
0.521294;0.57564;,
0.642733;0.700094;,
0.695033;0.787057;,
0.756948;0.847012;,
0.706621;0.865182;,
1.29682;0.874632;,
1.1937;0.857058;,
0.756948;0.847012;,
0.706621;0.865182;,
0.285621;0.813358;,
0.193701;0.857058;,
0.338097;0.732604;,
0.393076;0.645641;,
0.45495;0.585686;,
0.521294;0.57564;,
0.585386;0.61934;,
0.647695;0.431187;,
0.539172;0.398514;,
0.642733;0.700094;,
0.733087;0.491563;,
0.695033;0.787057;,
0.81467;0.556582;,
0.756948;0.847012;,
0.915449;0.601409;,
0.756948;0.847012;,
1.1937;0.857058;,
1.04077;0.60892;,
0.915449;0.601409;,
0.756948;0.847012;,
0.193701;0.857058;,
0.285621;0.813358;,
0.152263;0.576247;,
0.0407661;0.60892;,
0.338097;0.732604;,
0.238226;0.51587;,
0.393076;0.645641;,
0.319592;0.450851;,
0.45495;0.585686;,
0.41853;0.406025;,
0.926571;0.0349884;,
0.974659;0.00667202;,
0.924306;0.087315;,
0.944834;0.143665;,
0.976101;0.182514;,
0.915449;0.601409;,
1.01133;0.189024;,
0.976101;0.182514;,
0.915449;0.601409;,
0.0447123;0.160707;,
0.0113277;0.189024;,
0.0700774;0.108381;,
0.0781255;0.0520309;,
0.0492502;0.0131817;,
1.41853;0.406025;,
1.53917;0.398514;,
0.974659;0.00667202;,
0.974659;0.00667202;,
1.04925;0.0131817;,
0.974659;1.00667;,
0.926571;1.03499;,
0.894524;0.979611;,
0.956039;0.938437;,
0.926571;0.0349884;,
0.924306;0.087315;,
0.901275;0.0557195;,
0.901275;1.05572;,
0.944834;0.143665;,
0.930712;0.13768;,
0.976101;0.182514;,
0.970381;0.194185;,
0.976101;0.182514;,
1.01133;0.189024;,
1.01401;0.203642;,
0.970381;0.194185;,
0.976101;0.182514;,
0.0113277;0.189024;,
0.0447123;0.160707;,
0.0557847;0.162468;,
0.0140149;0.203642;,
0.0700774;0.108381;,
0.0897786;0.0863593;,
0.0781255;0.0520309;,
0.107244;0.00439918;,
0.0781255;1.05203;,
0.0492502;1.01318;,
0.0796109;0.947893;,
0.107244;1.0044;,
1.04925;1.01318;,
0.974659;1.00667;,
0.956039;0.938437;,
0.956039;0.938437;,
1.07961;0.947893;,
0.956039;0.938437;,
0.894524;0.979611;,
0.918698;0.845921;,
0.970848;0.803178;,
0.901275;1.05572;,
0.91827;0.925212;,
0.901275;0.0557195;,
0.930712;0.13768;,
0.941069;0.0105991;,
0.941069;1.0106;,
0.970381;0.194185;,
0.974571;0.0694675;,
0.970381;0.194185;,
1.01401;0.203642;,
1.01204;0.0791668;,
0.974571;0.0694675;,
0.970381;0.194185;,
0.0140149;0.203642;,
0.0557847;0.162468;,
0.0476704;0.0364236;,
0.0120367;0.0791668;,
0.0557847;1.16247;,
0.0897786;1.08636;,
0.0752885;0.957133;,
0.0476704;1.03642;,
0.107244;1.0044;,
0.0855184;0.871746;,
0.0796109;0.947893;,
0.0559991;0.812877;,
1.07961;0.947893;,
0.956039;0.938437;,
0.970848;0.803178;,
0.970848;0.803178;,
1.056;0.812877;,
0.927389;0.79723;,
0.930451;0.712045;,
0.93757;0.945369;,
0.94678;0.888965;,
0.94166;0.861724;,
0.974571;1.06947;,
0.976894;0.95221;,
0.0186426;1.03215;,
0.0431819;0.91671;,
0.0175356;0.952966;,
0.0674005;0.831524;,
0.0460673;0.676544;,
0.0744183;0.739789;,
0.973154;0.759436;,
0.990793;0.761312;,
0.970848;0.803178;,
0.930451;0.712045;,
0.945423;0.733524;,
0.971543;0.706007;,
0.96458;0.675789;,
0.927389;0.79723;,
0.940038;0.802561;,
0.94166;0.861724;,
0.94678;0.888965;,
0.954942;0.876906;,
0.951611;0.85836;,
0.976894;0.95221;,
0.98024;0.928161;,
0.98024;0.928161;,
0.976894;0.95221;,
1.00377;0.960545;,
1.00178;0.934487;,
0.98024;0.928161;,
0.0367385;0.899391;,
0.0431819;0.91671;,
0.0674005;0.831524;,
0.056295;0.830354;,
0.0691705;0.804283;,
0.0570302;0.811808;,
0.0597013;0.756009;,
0.0744183;0.739789;,
0.0460673;0.676544;,
0.0345689;0.704753;,
1.03457;0.704753;,
1.04607;0.676544;,
0.991952;0.668209;,
0.996745;0.698428;,
0.93382;0.824471;,
0.944167;0.821107;,
0.0781426;0.855303;,
0.0719909;0.76703;,
1.00401;0.0393606;,
0.974571;0.0694675;,
0.0116211;0.0412364;,
0.00400845;0.0393606;,
0.959832;0.76852;,
0.96458;0.675789;,
0.928883;0.909936;,
0.93757;0.945369;,
0.948146;0.940237;,
0.939877;0.904763;,
0.959832;0.76852;,
0.968168;0.795161;,
0.980556;0.78602;,
0.996337;0.787944;,
0.990793;0.761312;,
0.990793;0.761312;,
0.973154;0.759436;,
0.990793;0.761312;,
0.0186426;0.0321516;,
0.0173843;0.00551099;,
0.00996949;0.0146525;,
0.0116211;0.0412364;,
0.00189412;0.0127284;,
0.00400845;0.0393606;,
0.0781426;0.855303;,
0.0638168;0.860435;,
0.0615037;0.895909;,
0.074548;0.890736;,
0.971543;0.706007;,
0.969878;0.754267;,
0.959832;0.76852;,
0.96458;0.675789;,
0.951611;0.85836;,
0.949863;0.902596;,
0.93757;0.945369;,
0.94166;0.861724;,
0.942008;0.866326;,
0.928883;0.909936;,
0.939877;0.904763;,
0.0018371;0.976713;,
0.00400845;1.03936;,
0.00189412;1.01273;,
0.0163184;0.926908;,
0.0168569;0.969333;,
0.0186426;1.03215;,
0.0175356;0.952966;,
0.0592804;0.857274;,
0.074548;0.890736;,
0.0615037;0.895909;,
0.0587258;0.774555;,
0.0612777;0.821004;,
0.0781426;0.855303;,
0.0719909;0.76703;,
0.996545;0.746888;,
0.990793;0.761312;,
0.996337;0.787944;,
0.928883;0.909936;,
0.93382;0.824471;,
0.0186426;0.0321516;,
1.04607;0.676544;,
0.991952;0.668209;,
0.074548;0.890736;,
0.0691705;0.804283;,
1.00401;1.03936;,
1.00377;0.960545;,
0.976894;0.95221;,
0.976894;0.95221;,
0.974571;1.06947;,
0.973154;0.759436;,
0.944167;0.821107;,
0.93382;0.824471;,
0.00177885;0.934487;,
0.00377183;0.960545;,
0.0173843;1.00551;,
0.0570302;0.811808;,
0.0691705;0.804283;,
0.996745;0.698428;,
0.991952;0.668209;,
0.990793;0.761312;,
0.990793;0.761312;,
0.996745;0.698428;,
0.968168;0.795161;,
0.948146;0.940237;,
0.0163184;0.926908;,
0.0175356;0.952966;,
0.0587258;0.774555;,
0.0719909;0.76703;,
0.0638168;0.860435;,
0.978344;0.847012;,
0.934712;0.881427;,
0.930863;0.945231;,
0.948991;1.01394;,
0.977797;1.06131;,
0.977797;0.0613095;,
1.01052;0.0691352;,
1.04144;0.0347198;,
1.04144;1.03472;,
0.0414403;1.03472;,
0.0643713;0.970917;,
0.070298;0.902208;,
1.0703;0.902208;,
1.04267;0.854838;,
0.930863;0.945231;,
0.934712;0.881427;,
0.945423;0.733524;,
0.940038;0.802561;,
0.951611;0.85836;,
0.954942;0.876906;,
0.948991;1.01394;,
0.944167;0.821107;,
0.942008;0.866326;,
0.939877;0.904763;,
0.948146;0.940237;,
0.949863;0.902596;,
0.977797;1.06131;,
0.98024;0.928161;,
0.0643713;0.970917;,
0.0414403;1.03472;,
0.0367385;0.899391;,
0.056295;0.830354;,
0.0570302;0.811808;,
0.0592804;0.857274;,
0.0615037;0.895909;,
0.070298;0.902208;,
0.0638168;0.860435;,
0.0612777;0.821004;,
0.0587258;0.774555;,
0.0597013;0.756009;,
0.0345689;0.704753;,
0.0426736;0.854838;,
0.996337;0.787944;,
0.980556;0.78602;,
0.978344;0.847012;,
0.978344;0.847012;,
1.04267;0.854838;,
1.03457;0.704753;,
0.996337;0.787944;,
0.978344;0.847012;,
0.996745;0.698428;,
0.996545;0.746888;,
0.996337;0.787944;,
0.996545;0.746888;,
0.00189412;0.0127284;,
0.00996949;0.0146525;,
0.0105229;0.0691352;,
1.01052;1.06914;,
0.977797;1.06131;,
0.98024;0.928161;,
1.00189;1.01273;,
0.98024;0.928161;,
0.98024;0.928161;,
1.00178;0.934487;,
1.00184;0.976713;,
0.98024;0.928161;,
0.969878;0.754267;,
0.971543;0.706007;,
0.968168;0.795161;,
0.0168569;0.969333;,
0.0163184;0.926908;,
0.0105229;1.06914;,
0.0173843;0.00551099;,
0.0173843;1.00551;;
}
}
 }
