xof 0302txt 0032
Header {
 1;
 0;
 1;
}
template Header {
 <3D82AB43-62DA-11cf-AB39-0020AF71E433>
 WORD major;
 WORD minor;
 DWORD flags;
}

template Vector {
 <3D82AB5E-62DA-11cf-AB39-0020AF71E433>
 FLOAT x;
 FLOAT y;
 FLOAT z;
}

template Coords2d {
 <F6F23F44-7686-11cf-8F52-0040333594A3>
 FLOAT u;
 FLOAT v;
}

template Matrix4x4 {
 <F6F23F45-7686-11cf-8F52-0040333594A3>
 array FLOAT matrix[16];
}

template ColorRGBA {
 <35FF44E0-6C7C-11cf-8F52-0040333594A3>
 FLOAT red;
 FLOAT green;
 FLOAT blue;
 FLOAT alpha;
}

template ColorRGB {
 <D3E16E81-7835-11cf-8F52-0040333594A3>
 FLOAT red;
 FLOAT green;
 FLOAT blue;
}

template TextureFilename {
 <A42790E1-7810-11cf-8F52-0040333594A3>
 STRING filename;
}

template Material {
 <3D82AB4D-62DA-11cf-AB39-0020AF71E433>
 ColorRGBA faceColor;
 FLOAT power;
 ColorRGB specularColor;
 ColorRGB emissiveColor;
 [...]
}

template MeshFace {
 <3D82AB5F-62DA-11cf-AB39-0020AF71E433>
 DWORD nFaceVertexIndices;
 array DWORD faceVertexIndices[nFaceVertexIndices];
}

template MeshTextureCoords {
 <F6F23F40-7686-11cf-8F52-0040333594A3>
 DWORD nTextureCoords;
 array Coords2d textureCoords[nTextureCoords];
}

template MeshMaterialList {
 <F6F23F42-7686-11cf-8F52-0040333594A3>
 DWORD nMaterials;
 DWORD nFaceIndexes;
 array DWORD faceIndexes[nFaceIndexes];
 [Material]
}

template MeshNormals {
 <F6F23F43-7686-11cf-8F52-0040333594A3>
 DWORD nNormals;
 array Vector normals[nNormals];
 DWORD nFaceNormals;
 array MeshFace faceNormals[nFaceNormals];
}

template Mesh {
 <3D82AB44-62DA-11cf-AB39-0020AF71E433>
 DWORD nVertices;
 array Vector vertices[nVertices];
 DWORD nFaces;
 array MeshFace faces[nFaces];
 [...]
}

template FrameTransformMatrix {
 <F6F23F41-7686-11cf-8F52-0040333594A3>
 Matrix4x4 frameMatrix;
}

template Frame {
 <3D82AB46-62DA-11cf-AB39-0020AF71E433>
 [...]
}
template FloatKeys {
 <10DD46A9-775B-11cf-8F52-0040333594A3>
 DWORD nValues;
 array FLOAT values[nValues];
}

template TimedFloatKeys {
 <F406B180-7B3B-11cf-8F52-0040333594A3>
 DWORD time;
 FloatKeys tfkeys;
}

template AnimationKey {
 <10DD46A8-775B-11cf-8F52-0040333594A3>
 DWORD keyType;
 DWORD nKeys;
 array TimedFloatKeys keys[nKeys];
}

template AnimationOptions {
 <E2BF56C0-840F-11cf-8F52-0040333594A3>
 DWORD openclosed;
 DWORD positionquality;
}

template Animation {
 <3D82AB4F-62DA-11cf-AB39-0020AF71E433>
 [...]
}

template AnimationSet {
 <3D82AB50-62DA-11cf-AB39-0020AF71E433>
 [Animation]
}
Frame GeoSphere0 {
   FrameTransformMatrix {
1.0,0.0,0.0,0.0,
0.0,1.19249e-08,-1.0,0.0,
0.0,1.0,1.19249e-08,0.0,
0.0,0.0,0.0,1.0;;
 }
Mesh GeoSphere0 {
 219;
0.0;0.0;100.0;,
27.3267;0.0;96.1938;,
8.4444;25.9892;96.1938;,
27.3267;0.0;96.1938;,
52.5731;0.0;85.0651;,
36.1803;26.2866;89.4427;,
8.4444;25.9892;96.1938;,
16.246;50.0;85.0651;,
73.8175;0.0;67.4609;,
61.7865;26.4677;74.0398;,
44.2653;50.5835;74.0398;,
22.8109;70.2046;67.4609;,
89.4427;0.0;44.7214;,
82.2619;25.9892;50.5721;,
68.8191;50.0;52.5731;,
50.1375;70.2046;50.5721;,
27.6393;85.0651;44.7214;,
0.0;0.0;100.0;,
8.4444;25.9892;96.1938;,
-22.1077;16.0622;96.1938;,
8.4444;25.9892;96.1938;,
16.246;50.0;85.0651;,
-13.8197;42.5325;89.4427;,
8.4444;25.9892;96.1938;,
-22.1077;16.0622;96.1938;,
-22.1077;16.0622;96.1938;,
-13.8197;42.5325;89.4427;,
-42.5325;30.9017;85.0651;,
16.246;50.0;85.0651;,
22.8109;70.2046;67.4609;,
-6.07916;66.9414;74.0398;,
16.246;50.0;85.0651;,
-6.07916;66.9414;74.0398;,
-34.429;57.73;74.0398;,
-59.7196;43.3889;67.4609;,
0.703139;86.2668;50.5721;,
22.8109;70.2046;67.4609;,
0.703139;86.2668;50.5721;,
0.703139;86.2668;50.5721;,
-26.2866;80.9017;52.5731;,
-26.2866;80.9017;52.5731;,
-51.2752;69.378;50.5721;,
-72.3607;52.5731;44.7214;,
0.0;0.0;100.0;,
-22.1077;16.0622;96.1938;,
-22.1077;-16.0622;96.1938;,
-44.7214;-4.86744e-06;89.4427;,
-22.1077;-16.0622;96.1938;,
-42.5325;-30.9017;85.0651;,
-65.5436;14.9044;74.0398;,
-65.5436;-14.9044;74.0398;,
-59.7196;-43.3889;67.4609;,
-81.8274;27.3266;50.5721;,
-85.0651;-8.52987e-06;52.5731;,
-81.8274;-27.3267;50.5721;,
-72.3607;-52.5731;44.7214;,
0.0;0.0;100.0;,
8.4444;-25.9892;96.1938;,
-13.8197;-42.5325;89.4427;,
8.4444;-25.9892;96.1938;,
16.246;-50.0;85.0651;,
-34.429;-57.73;74.0398;,
-6.07915;-66.9414;74.0398;,
22.8109;-70.2046;67.4609;,
-51.2752;-69.3781;50.5721;,
-26.2865;-80.9017;52.5731;,
0.703156;-86.2668;50.5721;,
27.6393;-85.0651;44.7214;,
0.0;0.0;100.0;,
36.1803;-26.2866;89.4427;,
44.2653;-50.5835;74.0398;,
61.7865;-26.4677;74.0398;,
50.1375;-70.2046;50.5721;,
68.8191;-50.0;52.5731;,
82.2619;-25.9892;50.5721;,
95.9253;-16.0622;23.2454;,
95.9253;16.0622;23.2454;,
95.1057;-30.9017;0.0;,
100.0;8.1124e-06;0.0;,
95.1057;30.9017;0.0;,
87.0463;-43.3888;-23.2454;,
95.5352;-14.9044;-25.5124;,
95.5352;14.9044;-25.5124;,
87.0463;43.3889;-23.2454;,
72.3607;-52.5731;-44.7214;,
81.8274;-27.3266;-50.5721;,
85.0651;1.49274e-05;-52.5731;,
81.8274;27.3267;-50.5721;,
72.3607;52.5731;-44.7214;,
44.9186;86.2668;23.2454;,
14.3665;96.1938;23.2454;,
58.7785;80.9017;0.0;,
30.9017;95.1057;0.0;,
-3.00782e-06;100.0;0.0;,
68.164;69.378;-23.2454;,
43.6969;86.2537;-25.5124;,
15.3471;95.4651;-25.5124;,
-3.00782e-06;100.0;0.0;,
15.3471;95.4651;-25.5124;,
-14.3665;96.1938;-23.2454;,
51.2752;69.378;-50.5721;,
26.2866;80.9017;-52.5731;,
15.3471;95.4651;-25.5124;,
26.2866;80.9017;-52.5731;,
-0.703148;86.2668;-50.5721;,
15.3471;95.4651;-25.5124;,
-14.3665;96.1938;-23.2454;,
-0.703148;86.2668;-50.5721;,
-27.6393;85.0651;-44.7214;,
-68.164;69.378;23.2454;,
-87.0463;43.3888;23.2454;,
-58.7785;80.9017;0.0;,
-80.9017;58.7785;0.0;,
-95.1057;30.9017;0.0;,
-44.9186;86.2668;-23.2454;,
-68.529;68.2121;-25.5124;,
-86.0502;44.0963;-25.5124;,
-95.9253;16.0622;-23.2454;,
-50.1375;70.2046;-50.5721;,
-68.8191;50.0;-52.5731;,
-82.2619;25.9892;-50.5721;,
-89.4427;-7.81938e-06;-44.7214;,
-87.0463;-43.3889;23.2454;,
-68.164;-69.3781;23.2454;,
-95.1057;-30.9017;0.0;,
-80.9017;-58.7785;0.0;,
-58.7785;-80.9017;0.0;,
-95.9253;-16.0622;-23.2454;,
-86.0502;-44.0963;-25.5124;,
-68.529;-68.2121;-25.5124;,
-44.9186;-86.2668;-23.2454;,
-82.2619;-25.9892;-50.5721;,
-68.8191;-50.0;-52.5731;,
-50.1375;-70.2046;-50.5721;,
-27.6393;-85.0651;-44.7214;,
14.3665;-96.1938;23.2454;,
44.9186;-86.2668;23.2454;,
2.70747e-06;-100.0;0.0;,
30.9017;-95.1056;0.0;,
58.7786;-80.9017;0.0;,
-14.3665;-96.1938;-23.2454;,
15.3471;-95.4651;-25.5124;,
43.697;-86.2537;-25.5124;,
68.1641;-69.378;-23.2454;,
-0.703144;-86.2668;-50.5721;,
26.2866;-80.9017;-52.5731;,
51.2753;-69.378;-50.5721;,
80.9017;58.7785;0.0;,
68.529;68.2121;25.5124;,
86.0502;44.0963;25.5124;,
-30.9017;95.1057;0.0;,
-30.9017;95.1057;0.0;,
-3.00782e-06;100.0;0.0;,
-43.6969;86.2537;25.5124;,
-15.3471;95.4651;25.5124;,
-15.3471;95.4651;25.5124;,
-3.00782e-06;100.0;0.0;,
-3.00782e-06;100.0;0.0;,
14.3665;96.1938;23.2454;,
0.703139;86.2668;50.5721;,
0.703139;86.2668;50.5721;,
14.3665;96.1938;23.2454;,
-100.0;-8.1124e-06;0.0;,
-95.5352;-14.9044;25.5124;,
-95.5352;14.9044;25.5124;,
-30.9017;-95.1056;0.0;,
-15.3471;-95.4651;25.5124;,
-43.6969;-86.2537;25.5124;,
80.9017;-58.7785;0.0;,
86.0502;-44.0963;25.5124;,
68.529;-68.2121;25.5124;,
0.0;0.0;-100.0;,
-8.4444;25.9892;-96.1938;,
22.1077;16.0622;-96.1938;,
-16.246;50.0;-85.0651;,
13.8197;42.5325;-89.4427;,
22.1077;16.0622;-96.1938;,
13.8197;42.5325;-89.4427;,
42.5325;30.9017;-85.0651;,
-22.8109;70.2046;-67.4609;,
6.07916;66.9414;-74.0398;,
13.8197;42.5325;-89.4427;,
6.07916;66.9414;-74.0398;,
34.429;57.73;-74.0398;,
13.8197;42.5325;-89.4427;,
59.7196;43.3889;-67.4609;,
-22.8109;70.2046;-67.4609;,
26.2866;80.9017;-52.5731;,
6.07916;66.9414;-74.0398;,
0.0;0.0;-100.0;,
-27.3267;-2.38896e-06;-96.1938;,
-8.4444;25.9892;-96.1938;,
-52.5731;-4.59608e-06;-85.0651;,
-36.1803;26.2866;-89.4427;,
-16.246;50.0;-85.0651;,
-73.8175;-6.45337e-06;-67.4609;,
-61.7865;26.4677;-74.0398;,
-44.2653;50.5835;-74.0398;,
0.0;0.0;-100.0;,
-8.4444;-25.9892;-96.1938;,
-16.246;-50.0;-85.0651;,
-36.1803;-26.2866;-89.4427;,
-22.8109;-70.2046;-67.4609;,
-44.2653;-50.5835;-74.0398;,
-61.7865;-26.4677;-74.0398;,
0.0;0.0;-100.0;,
22.1077;-16.0622;-96.1938;,
42.5326;-30.9017;-85.0651;,
13.8197;-42.5325;-89.4427;,
59.7197;-43.3888;-67.4609;,
34.429;-57.7299;-74.0398;,
6.07916;-66.9414;-74.0398;,
0.0;0.0;-100.0;,
22.1077;16.0622;-96.1938;,
22.1077;16.0622;-96.1938;,
44.7214;6.48992e-06;-89.4427;,
22.1077;16.0622;-96.1938;,
65.5436;14.9044;-74.0398;,
65.5436;-14.9044;-74.0398;;

 320;
3;0,1,2;,
3;3,4,5;,
3;3,5,6;,
3;6,5,7;,
3;4,8,9;,
3;4,9,5;,
3;5,9,10;,
3;5,10,7;,
3;7,10,11;,
3;8,12,13;,
3;8,13,9;,
3;9,13,14;,
3;9,14,10;,
3;10,14,15;,
3;10,15,11;,
3;11,15,16;,
3;17,18,19;,
3;20,21,22;,
3;23,22,24;,
3;25,26,27;,
3;28,29,30;,
3;31,30,22;,
3;26,32,33;,
3;26,33,27;,
3;27,33,34;,
3;11,16,35;,
3;36,37,30;,
3;30,38,39;,
3;32,40,33;,
3;33,40,41;,
3;33,41,34;,
3;34,41,42;,
3;43,44,45;,
3;25,27,46;,
3;25,46,47;,
3;47,46,48;,
3;27,34,49;,
3;27,49,46;,
3;46,49,50;,
3;46,50,48;,
3;48,50,51;,
3;34,42,52;,
3;34,52,49;,
3;49,52,53;,
3;49,53,50;,
3;50,53,54;,
3;50,54,51;,
3;51,54,55;,
3;56,45,57;,
3;47,48,58;,
3;47,58,59;,
3;59,58,60;,
3;48,51,61;,
3;48,61,58;,
3;58,61,62;,
3;58,62,60;,
3;60,62,63;,
3;51,55,64;,
3;51,64,61;,
3;61,64,65;,
3;61,65,62;,
3;62,65,66;,
3;62,66,63;,
3;63,66,67;,
3;68,57,1;,
3;59,60,69;,
3;59,69,3;,
3;3,69,4;,
3;60,63,70;,
3;60,70,69;,
3;69,70,71;,
3;69,71,4;,
3;4,71,8;,
3;63,67,72;,
3;63,72,70;,
3;70,72,73;,
3;70,73,71;,
3;71,73,74;,
3;71,74,8;,
3;8,74,12;,
3;12,75,76;,
3;75,77,78;,
3;75,78,76;,
3;76,78,79;,
3;77,80,81;,
3;77,81,78;,
3;78,81,82;,
3;78,82,79;,
3;79,82,83;,
3;80,84,85;,
3;80,85,81;,
3;81,85,86;,
3;81,86,82;,
3;82,86,87;,
3;82,87,83;,
3;83,87,88;,
3;16,89,90;,
3;89,91,92;,
3;89,92,90;,
3;90,92,93;,
3;91,94,95;,
3;91,95,92;,
3;92,95,96;,
3;92,96,93;,
3;97,98,99;,
3;94,88,100;,
3;94,100,95;,
3;95,100,101;,
3;95,101,96;,
3;102,103,104;,
3;105,104,99;,
3;106,107,108;,
3;42,109,110;,
3;109,111,112;,
3;109,112,110;,
3;110,112,113;,
3;111,114,115;,
3;111,115,112;,
3;112,115,116;,
3;112,116,113;,
3;113,116,117;,
3;114,108,118;,
3;114,118,115;,
3;115,118,119;,
3;115,119,116;,
3;116,119,120;,
3;116,120,117;,
3;117,120,121;,
3;55,122,123;,
3;122,124,125;,
3;122,125,123;,
3;123,125,126;,
3;124,127,128;,
3;124,128,125;,
3;125,128,129;,
3;125,129,126;,
3;126,129,130;,
3;127,121,131;,
3;127,131,128;,
3;128,131,132;,
3;128,132,129;,
3;129,132,133;,
3;129,133,130;,
3;130,133,134;,
3;67,135,136;,
3;135,137,138;,
3;135,138,136;,
3;136,138,139;,
3;137,140,141;,
3;137,141,138;,
3;138,141,142;,
3;138,142,139;,
3;139,142,143;,
3;140,134,144;,
3;140,144,141;,
3;141,144,145;,
3;141,145,142;,
3;142,145,146;,
3;142,146,143;,
3;143,146,84;,
3;88,94,83;,
3;94,91,147;,
3;94,147,83;,
3;83,147,79;,
3;91,89,148;,
3;91,148,147;,
3;147,148,149;,
3;147,149,79;,
3;79,149,76;,
3;89,16,15;,
3;89,15,148;,
3;148,15,14;,
3;148,14,149;,
3;149,14,13;,
3;149,13,76;,
3;76,13,12;,
3;108,114,106;,
3;114,111,150;,
3;114,150,106;,
3;99,151,152;,
3;111,109,153;,
3;111,153,150;,
3;150,153,154;,
3;151,155,156;,
3;157,155,158;,
3;109,42,41;,
3;109,41,153;,
3;153,41,40;,
3;153,40,154;,
3;155,39,159;,
3;155,160,161;,
3;90,35,16;,
3;121,127,117;,
3;127,124,162;,
3;127,162,117;,
3;117,162,113;,
3;124,122,163;,
3;124,163,162;,
3;162,163,164;,
3;162,164,113;,
3;113,164,110;,
3;122,55,54;,
3;122,54,163;,
3;163,54,53;,
3;163,53,164;,
3;164,53,52;,
3;164,52,110;,
3;110,52,42;,
3;134,140,130;,
3;140,137,165;,
3;140,165,130;,
3;130,165,126;,
3;137,135,166;,
3;137,166,165;,
3;165,166,167;,
3;165,167,126;,
3;126,167,123;,
3;135,67,66;,
3;135,66,166;,
3;166,66,65;,
3;166,65,167;,
3;167,65,64;,
3;167,64,123;,
3;123,64,55;,
3;84,80,143;,
3;80,77,168;,
3;80,168,143;,
3;143,168,139;,
3;77,75,169;,
3;77,169,168;,
3;168,169,170;,
3;168,170,139;,
3;139,170,136;,
3;75,12,74;,
3;75,74,169;,
3;169,74,73;,
3;169,73,170;,
3;170,73,72;,
3;170,72,136;,
3;136,72,67;,
3;171,172,173;,
3;172,174,175;,
3;172,175,173;,
3;176,177,178;,
3;174,179,180;,
3;174,180,175;,
3;181,182,183;,
3;184,183,178;,
3;178,183,185;,
3;186,108,107;,
3;179,104,180;,
3;180,104,187;,
3;188,101,183;,
3;183,101,100;,
3;183,100,185;,
3;185,100,88;,
3;189,190,191;,
3;190,192,193;,
3;190,193,191;,
3;191,193,194;,
3;192,195,196;,
3;192,196,193;,
3;193,196,197;,
3;193,197,194;,
3;194,197,186;,
3;195,121,120;,
3;195,120,196;,
3;196,120,119;,
3;196,119,197;,
3;197,119,118;,
3;197,118,186;,
3;186,118,108;,
3;198,199,190;,
3;199,200,201;,
3;199,201,190;,
3;190,201,192;,
3;200,202,203;,
3;200,203,201;,
3;201,203,204;,
3;201,204,192;,
3;192,204,195;,
3;202,134,133;,
3;202,133,203;,
3;203,133,132;,
3;203,132,204;,
3;204,132,131;,
3;204,131,195;,
3;195,131,121;,
3;205,206,199;,
3;206,207,208;,
3;206,208,199;,
3;199,208,200;,
3;207,209,210;,
3;207,210,208;,
3;208,210,211;,
3;208,211,200;,
3;200,211,202;,
3;209,84,146;,
3;209,146,210;,
3;210,146,145;,
3;210,145,211;,
3;211,145,144;,
3;211,144,202;,
3;202,144,134;,
3;212,213,206;,
3;214,178,215;,
3;216,215,206;,
3;206,215,207;,
3;178,185,217;,
3;178,217,215;,
3;215,217,218;,
3;215,218,207;,
3;207,218,209;,
3;185,88,87;,
3;185,87,217;,
3;217,87,86;,
3;217,86,218;,
3;218,86,85;,
3;218,85,209;,
3;209,85,84;;
MeshMaterialList {
 1;
 320;
  0,
  0,
  0,
  0,
  0,
  0,
  0,
  0,
  0,
  0,
  0,
  0,
  0,
  0,
  0,
  0,
  0,
  0,
  0,
  0,
  0,
  0,
  0,
  0,
  0,
  0,
  0,
  0,
  0,
  0,
  0,
  0,
  0,
  0,
  0,
  0,
  0,
  0,
  0,
  0,
  0,
  0,
  0,
  0,
  0,
  0,
  0,
  0,
  0,
  0,
  0,
  0,
  0,
  0,
  0,
  0,
  0,
  0,
  0,
  0,
  0,
  0,
  0,
  0,
  0,
  0,
  0,
  0,
  0,
  0,
  0,
  0,
  0,
  0,
  0,
  0,
  0,
  0,
  0,
  0,
  0,
  0,
  0,
  0,
  0,
  0,
  0,
  0,
  0,
  0,
  0,
  0,
  0,
  0,
  0,
  0,
  0,
  0,
  0,
  0,
  0,
  0,
  0,
  0,
  0,
  0,
  0,
  0,
  0,
  0,
  0,
  0,
  0,
  0,
  0,
  0,
  0,
  0,
  0,
  0,
  0,
  0,
  0,
  0,
  0,
  0,
  0,
  0,
  0,
  0,
  0,
  0,
  0,
  0,
  0,
  0,
  0,
  0,
  0,
  0,
  0,
  0,
  0,
  0,
  0,
  0,
  0,
  0,
  0,
  0,
  0,
  0,
  0,
  0,
  0,
  0,
  0,
  0,
  0,
  0,
  0,
  0,
  0,
  0,
  0,
  0,
  0,
  0,
  0,
  0,
  0,
  0,
  0,
  0,
  0,
  0,
  0,
  0,
  0,
  0,
  0,
  0,
  0,
  0,
  0,
  0,
  0,
  0,
  0,
  0,
  0,
  0,
  0,
  0,
  0,
  0,
  0,
  0,
  0,
  0,
  0,
  0,
  0,
  0,
  0,
  0,
  0,
  0,
  0,
  0,
  0,
  0,
  0,
  0,
  0,
  0,
  0,
  0,
  0,
  0,
  0,
  0,
  0,
  0,
  0,
  0,
  0,
  0,
  0,
  0,
  0,
  0,
  0,
  0,
  0,
  0,
  0,
  0,
  0,
  0,
  0,
  0,
  0,
  0,
  0,
  0,
  0,
  0,
  0,
  0,
  0,
  0,
  0,
  0,
  0,
  0,
  0,
  0,
  0,
  0,
  0,
  0,
  0,
  0,
  0,
  0,
  0,
  0,
  0,
  0,
  0,
  0,
  0,
  0,
  0,
  0,
  0,
  0,
  0,
  0,
  0,
  0,
  0,
  0,
  0,
  0,
  0,
  0,
  0,
  0,
  0,
  0,
  0,
  0,
  0,
  0,
  0,
  0,
  0,
  0,
  0,
  0,
  0,
  0,
  0,
  0,
  0,
  0,
  0,
  0,
  0,
  0,
  0,
  0,
  0,
  0,
  0,
  0,
  0,
  0;;
Material {
 0.752941;0.752941;0.752941;1.0;;
 50.000000;
 0.752941;0.752941;0.752941;;
 0.117647;0.117647;0.117647;;
 }
}

 MeshNormals {
 219;
0.137264;-0.985501;0.0997284;,
0.260485;-0.965478;-5.65321e-08;,
0.196903;-0.958142;0.207831;,
0.260485;-0.965478;-5.65321e-08;,
0.522014;-0.852937;-3.26813e-08;,
0.365753;-0.89197;0.265735;,
0.196903;-0.958142;0.207831;,
0.278855;-0.846256;0.453973;,
0.743938;-0.668248;4.83097e-08;,
0.622186;-0.735618;0.267864;,
0.44702;-0.735618;0.508959;,
0.302269;-0.642028;0.704581;,
0.894427;-0.447214;9.30312e-08;,
0.825855;-0.504458;0.251964;,
0.688191;-0.525731;0.5;,
0.494835;-0.504458;0.707573;,
0.276393;-0.447214;0.850651;,
-0.0524303;-0.985501;0.161364;,
-0.0524303;-0.985501;0.161364;,
-0.210737;-0.965478;0.153109;,
0.0301954;-0.910578;0.412232;,
0.0301954;-0.910578;0.412232;,
-0.139705;-0.89197;0.429968;,
-0.0883994;-0.95821;0.272065;,
-0.210737;-0.965478;0.153109;,
-0.210737;-0.965478;0.153109;,
-0.139705;-0.89197;0.429968;,
-0.422318;-0.852937;0.306832;,
0.102859;-0.766273;0.634228;,
0.102859;-0.766273;0.634228;,
-0.062488;-0.735618;0.674508;,
-0.0101987;-0.844189;0.535949;,
-0.062488;-0.735618;0.674508;,
-0.345912;-0.735618;0.582418;,
-0.601859;-0.668248;0.437276;,
0.14308;-0.481067;0.864929;,
0.060814;-0.644928;0.76182;,
0.060814;-0.644928;0.76182;,
-0.110154;-0.612657;0.782635;,
-0.262866;-0.525731;0.809017;,
-0.262866;-0.525731;0.809017;,
-0.52003;-0.504458;0.689268;,
-0.723607;-0.447214;0.525731;,
-0.169668;-0.985501;-1.84695e-08;,
-0.210737;-0.965478;0.153109;,
-0.210737;-0.965478;-0.153109;,
-0.452095;-0.89197;-3.47463e-08;,
-0.210737;-0.965478;-0.153109;,
-0.422318;-0.852937;-0.306832;,
-0.660805;-0.735618;0.149005;,
-0.660805;-0.735618;-0.149005;,
-0.601859;-0.668248;-0.437276;,
-0.816231;-0.504458;0.281582;,
-0.850651;-0.525731;-1.149e-07;,
-0.816231;-0.504458;-0.281582;,
-0.723607;-0.447214;-0.525731;,
-0.0524303;-0.985501;-0.161364;,
0.0804943;-0.965478;-0.247736;,
-0.139705;-0.89197;-0.429968;,
0.0804943;-0.965478;-0.247736;,
0.161311;-0.852937;-0.496465;,
-0.345912;-0.735618;-0.582418;,
-0.0624879;-0.735618;-0.674508;,
0.22989;-0.668248;-0.707528;,
-0.52003;-0.504458;-0.689268;,
-0.262865;-0.525731;-0.809017;,
0.0155715;-0.504459;-0.863295;,
0.276393;-0.447214;-0.850651;,
0.137264;-0.985501;-0.0997284;,
0.365753;-0.89197;-0.265735;,
0.44702;-0.735618;-0.508959;,
0.622186;-0.735618;-0.267864;,
0.494835;-0.504458;-0.707573;,
0.688191;-0.525731;-0.5;,
0.825855;-0.504458;-0.251964;,
0.957666;-0.242172;-0.155658;,
0.957666;-0.242172;0.155658;,
0.951057;5.30321e-08;-0.309017;,
0.999985;0.0054657;1.61296e-07;,
0.951057;1.42327e-07;0.309017;,
0.866261;0.242172;-0.436972;,
0.953478;0.262064;-0.149005;,
0.953478;0.262064;0.149005;,
0.866261;0.242173;0.436972;,
0.723607;0.447214;-0.525731;,
0.816231;0.504458;-0.281582;,
0.850651;0.525731;2.5374e-07;,
0.816231;0.504458;0.281582;,
0.723607;0.447214;0.525731;,
0.443974;-0.242173;0.862693;,
0.223155;-0.232737;0.946591;,
0.587785;1.53331e-07;0.809017;,
0.309012;0.00546559;0.951042;,
0.156429;0.00816609;0.987655;,
0.683274;0.242173;0.688831;,
0.436353;0.262064;0.860766;,
0.251979;0.206841;0.945369;,
0.0113266;0.16839;0.985655;,
0.0113266;0.16839;0.985655;,
-0.147896;0.242172;0.958895;,
0.52003;0.504458;0.689268;,
0.328342;0.524459;0.785579;,
0.146526;0.422205;0.89458;,
0.146526;0.422205;0.89458;,
-0.0155714;0.504458;0.863296;,
-0.00311524;0.342814;0.939398;,
-0.147896;0.242172;0.958895;,
-0.0155714;0.504458;0.863296;,
-0.276393;0.447214;0.850651;,
-0.683274;-0.242172;0.688831;,
-0.866261;-0.242172;0.436972;,
-0.587785;-1.93413e-08;0.809017;,
-0.809005;0.00546546;0.587776;,
-0.951057;5.41002e-08;0.309017;,
-0.443974;0.242173;0.862693;,
-0.683797;0.262064;0.680988;,
-0.858963;0.262064;0.439893;,
-0.957666;0.242173;0.155658;,
-0.494835;0.504458;0.707573;,
-0.688191;0.525731;0.5;,
-0.825855;0.504458;0.251964;,
-0.894427;0.447214;7.63171e-08;,
-0.866261;-0.242172;-0.436972;,
-0.683274;-0.242172;-0.688831;,
-0.951056;-5.15794e-08;-0.309017;,
-0.809005;0.00546548;-0.587777;,
-0.587785;6.59754e-08;-0.809017;,
-0.957666;0.242172;-0.155658;,
-0.858963;0.262064;-0.439893;,
-0.683797;0.262064;-0.680988;,
-0.443974;0.242172;-0.862693;,
-0.825855;0.504458;-0.251964;,
-0.688191;0.525731;-0.5;,
-0.494835;0.504459;-0.707573;,
-0.276393;0.447214;-0.850651;,
0.147896;-0.242172;-0.958895;,
0.443974;-0.242172;-0.862693;,
5.04152e-08;1.25457e-07;-1.0;,
0.309012;0.00546563;-0.951042;,
0.587785;8.86622e-08;-0.809017;,
-0.147896;0.242172;-0.958895;,
0.152929;0.262064;-0.952856;,
0.436353;0.262064;-0.860766;,
0.683275;0.242172;-0.688831;,
-0.0155713;0.504458;-0.863296;,
0.262866;0.525731;-0.809017;,
0.52003;0.504459;-0.689268;,
0.809005;-0.00546533;0.587776;,
0.683797;-0.262064;0.680988;,
0.858963;-0.262064;0.439893;,
-0.309012;-0.00546543;0.951042;,
-0.309012;-0.00546543;0.951042;,
-0.156105;0.0649035;0.985606;,
-0.436353;-0.262064;0.860766;,
-0.152929;-0.262064;0.952856;,
-0.152929;-0.262064;0.952856;,
-0.155918;-0.0811916;0.984428;,
-0.0113264;-0.16839;0.985655;,
-0.0113264;-0.16839;0.985655;,
-0.146527;-0.422206;0.894579;,
0.00311549;-0.342814;0.939398;,
0.00311549;-0.342814;0.939398;,
-0.999985;-0.00546546;-1.23477e-07;,
-0.953478;-0.262064;-0.149005;,
-0.953478;-0.262064;0.149005;,
-0.309012;-0.00546535;-0.951042;,
-0.152929;-0.262064;-0.952856;,
-0.436353;-0.262064;-0.860766;,
0.809005;-0.00546557;-0.587776;,
0.858963;-0.262064;-0.439893;,
0.683797;-0.262064;-0.680987;,
0.0524303;0.985501;0.161364;,
-0.0804942;0.965478;0.247736;,
0.0705409;0.973597;0.217103;,
-0.161311;0.852937;0.496465;,
0.022988;0.911755;0.41009;,
0.266733;0.910578;0.315754;,
0.266733;0.910578;0.315754;,
0.422318;0.852937;0.306832;,
-0.22989;0.668248;0.707528;,
-0.0109695;0.72622;0.687374;,
0.183774;0.803945;0.565597;,
0.183774;0.803945;0.565597;,
0.345912;0.735618;0.582418;,
0.306772;0.844189;0.439586;,
0.601859;0.668248;0.437276;,
-0.22989;0.668248;0.707528;,
0.110153;0.612657;0.782635;,
0.228621;0.672791;0.703622;,
-0.137264;0.985501;0.0997284;,
-0.260485;0.965478;-1.035e-07;,
-0.0804942;0.965478;0.247736;,
-0.522014;0.852937;-2.01747e-07;,
-0.365753;0.89197;0.265735;,
-0.161311;0.852937;0.496465;,
-0.743938;0.668248;-7.35228e-08;,
-0.622186;0.735618;0.267864;,
-0.44702;0.735618;0.508959;,
-0.137264;0.985501;-0.0997284;,
-0.0804944;0.965478;-0.247736;,
-0.161311;0.852937;-0.496465;,
-0.365753;0.89197;-0.265735;,
-0.22989;0.668248;-0.707527;,
-0.44702;0.735618;-0.508959;,
-0.622186;0.735618;-0.267864;,
0.0524304;0.985501;-0.161364;,
0.210737;0.965478;-0.153109;,
0.422318;0.852937;-0.306832;,
0.139705;0.89197;-0.429968;,
0.601859;0.668248;-0.437276;,
0.345912;0.735618;-0.582418;,
0.0624881;0.735618;-0.674508;,
0.169668;0.985501;2.85434e-08;,
0.169668;0.985501;2.85434e-08;,
0.382725;0.910578;0.156105;,
0.452096;0.89197;1.25512e-07;,
0.286066;0.95821;5.65129e-08;,
0.660805;0.735618;0.149005;,
0.660806;0.735618;-0.149005;;

 320;
3;0,1,2;,
3;3,4,5;,
3;3,5,6;,
3;6,5,7;,
3;4,8,9;,
3;4,9,5;,
3;5,9,10;,
3;5,10,7;,
3;7,10,11;,
3;8,12,13;,
3;8,13,9;,
3;9,13,14;,
3;9,14,10;,
3;10,14,15;,
3;10,15,11;,
3;11,15,16;,
3;17,18,19;,
3;20,21,22;,
3;23,22,24;,
3;25,26,27;,
3;28,29,30;,
3;31,30,22;,
3;26,32,33;,
3;26,33,27;,
3;27,33,34;,
3;11,16,35;,
3;36,37,30;,
3;30,38,39;,
3;32,40,33;,
3;33,40,41;,
3;33,41,34;,
3;34,41,42;,
3;43,44,45;,
3;25,27,46;,
3;25,46,47;,
3;47,46,48;,
3;27,34,49;,
3;27,49,46;,
3;46,49,50;,
3;46,50,48;,
3;48,50,51;,
3;34,42,52;,
3;34,52,49;,
3;49,52,53;,
3;49,53,50;,
3;50,53,54;,
3;50,54,51;,
3;51,54,55;,
3;56,45,57;,
3;47,48,58;,
3;47,58,59;,
3;59,58,60;,
3;48,51,61;,
3;48,61,58;,
3;58,61,62;,
3;58,62,60;,
3;60,62,63;,
3;51,55,64;,
3;51,64,61;,
3;61,64,65;,
3;61,65,62;,
3;62,65,66;,
3;62,66,63;,
3;63,66,67;,
3;68,57,1;,
3;59,60,69;,
3;59,69,3;,
3;3,69,4;,
3;60,63,70;,
3;60,70,69;,
3;69,70,71;,
3;69,71,4;,
3;4,71,8;,
3;63,67,72;,
3;63,72,70;,
3;70,72,73;,
3;70,73,71;,
3;71,73,74;,
3;71,74,8;,
3;8,74,12;,
3;12,75,76;,
3;75,77,78;,
3;75,78,76;,
3;76,78,79;,
3;77,80,81;,
3;77,81,78;,
3;78,81,82;,
3;78,82,79;,
3;79,82,83;,
3;80,84,85;,
3;80,85,81;,
3;81,85,86;,
3;81,86,82;,
3;82,86,87;,
3;82,87,83;,
3;83,87,88;,
3;16,89,90;,
3;89,91,92;,
3;89,92,90;,
3;90,92,93;,
3;91,94,95;,
3;91,95,92;,
3;92,95,96;,
3;92,96,93;,
3;97,98,99;,
3;94,88,100;,
3;94,100,95;,
3;95,100,101;,
3;95,101,96;,
3;102,103,104;,
3;105,104,99;,
3;106,107,108;,
3;42,109,110;,
3;109,111,112;,
3;109,112,110;,
3;110,112,113;,
3;111,114,115;,
3;111,115,112;,
3;112,115,116;,
3;112,116,113;,
3;113,116,117;,
3;114,108,118;,
3;114,118,115;,
3;115,118,119;,
3;115,119,116;,
3;116,119,120;,
3;116,120,117;,
3;117,120,121;,
3;55,122,123;,
3;122,124,125;,
3;122,125,123;,
3;123,125,126;,
3;124,127,128;,
3;124,128,125;,
3;125,128,129;,
3;125,129,126;,
3;126,129,130;,
3;127,121,131;,
3;127,131,128;,
3;128,131,132;,
3;128,132,129;,
3;129,132,133;,
3;129,133,130;,
3;130,133,134;,
3;67,135,136;,
3;135,137,138;,
3;135,138,136;,
3;136,138,139;,
3;137,140,141;,
3;137,141,138;,
3;138,141,142;,
3;138,142,139;,
3;139,142,143;,
3;140,134,144;,
3;140,144,141;,
3;141,144,145;,
3;141,145,142;,
3;142,145,146;,
3;142,146,143;,
3;143,146,84;,
3;88,94,83;,
3;94,91,147;,
3;94,147,83;,
3;83,147,79;,
3;91,89,148;,
3;91,148,147;,
3;147,148,149;,
3;147,149,79;,
3;79,149,76;,
3;89,16,15;,
3;89,15,148;,
3;148,15,14;,
3;148,14,149;,
3;149,14,13;,
3;149,13,76;,
3;76,13,12;,
3;108,114,106;,
3;114,111,150;,
3;114,150,106;,
3;99,151,152;,
3;111,109,153;,
3;111,153,150;,
3;150,153,154;,
3;151,155,156;,
3;157,155,158;,
3;109,42,41;,
3;109,41,153;,
3;153,41,40;,
3;153,40,154;,
3;155,39,159;,
3;155,160,161;,
3;90,35,16;,
3;121,127,117;,
3;127,124,162;,
3;127,162,117;,
3;117,162,113;,
3;124,122,163;,
3;124,163,162;,
3;162,163,164;,
3;162,164,113;,
3;113,164,110;,
3;122,55,54;,
3;122,54,163;,
3;163,54,53;,
3;163,53,164;,
3;164,53,52;,
3;164,52,110;,
3;110,52,42;,
3;134,140,130;,
3;140,137,165;,
3;140,165,130;,
3;130,165,126;,
3;137,135,166;,
3;137,166,165;,
3;165,166,167;,
3;165,167,126;,
3;126,167,123;,
3;135,67,66;,
3;135,66,166;,
3;166,66,65;,
3;166,65,167;,
3;167,65,64;,
3;167,64,123;,
3;123,64,55;,
3;84,80,143;,
3;80,77,168;,
3;80,168,143;,
3;143,168,139;,
3;77,75,169;,
3;77,169,168;,
3;168,169,170;,
3;168,170,139;,
3;139,170,136;,
3;75,12,74;,
3;75,74,169;,
3;169,74,73;,
3;169,73,170;,
3;170,73,72;,
3;170,72,136;,
3;136,72,67;,
3;171,172,173;,
3;172,174,175;,
3;172,175,173;,
3;176,177,178;,
3;174,179,180;,
3;174,180,175;,
3;181,182,183;,
3;184,183,178;,
3;178,183,185;,
3;186,108,107;,
3;179,104,180;,
3;180,104,187;,
3;188,101,183;,
3;183,101,100;,
3;183,100,185;,
3;185,100,88;,
3;189,190,191;,
3;190,192,193;,
3;190,193,191;,
3;191,193,194;,
3;192,195,196;,
3;192,196,193;,
3;193,196,197;,
3;193,197,194;,
3;194,197,186;,
3;195,121,120;,
3;195,120,196;,
3;196,120,119;,
3;196,119,197;,
3;197,119,118;,
3;197,118,186;,
3;186,118,108;,
3;198,199,190;,
3;199,200,201;,
3;199,201,190;,
3;190,201,192;,
3;200,202,203;,
3;200,203,201;,
3;201,203,204;,
3;201,204,192;,
3;192,204,195;,
3;202,134,133;,
3;202,133,203;,
3;203,133,132;,
3;203,132,204;,
3;204,132,131;,
3;204,131,195;,
3;195,131,121;,
3;205,206,199;,
3;206,207,208;,
3;206,208,199;,
3;199,208,200;,
3;207,209,210;,
3;207,210,208;,
3;208,210,211;,
3;208,211,200;,
3;200,211,202;,
3;209,84,146;,
3;209,146,210;,
3;210,146,145;,
3;210,145,211;,
3;211,145,144;,
3;211,144,202;,
3;202,144,134;,
3;212,213,206;,
3;214,178,215;,
3;216,215,206;,
3;206,215,207;,
3;178,185,217;,
3;178,217,215;,
3;215,217,218;,
3;215,218,207;,
3;207,218,209;,
3;185,88,87;,
3;185,87,217;,
3;217,87,86;,
3;217,86,218;,
3;218,86,85;,
3;218,85,209;,
3;209,85,84;;
 }
MeshTextureCoords {
 219;
0.85;1.0;,
0.75;1.0881;,
0.95;1.0881;,
0.75;0.0881042;,
0.75;0.176208;,
0.85;0.147584;,
0.95;0.0881042;,
0.95;0.176208;,
0.75;0.264312;,
0.814414;0.234637;,
0.885586;0.234637;,
0.95;0.264312;,
0.75;0.352416;,
0.798703;0.331227;,
0.85;0.323792;,
0.901297;0.331227;,
0.95;0.352416;,
1.05;1.0;,
0.95;1.0881;,
1.15;1.0881;,
0.95;0.0881042;,
0.95;0.176208;,
1.05;0.147584;,
0.95;0.0881042;,
1.15;0.0881042;,
0.15;0.0881042;,
0.05;0.147584;,
0.15;0.176208;,
0.95;0.176208;,
0.95;0.264312;,
1.01441;0.234637;,
0.95;0.176208;,
0.0144138;0.234637;,
0.0855862;0.234637;,
0.15;0.264312;,
0.998703;0.331227;,
0.95;0.264312;,
0.998703;0.331227;,
0.998703;0.331227;,
1.05;0.323792;,
0.05;0.323792;,
0.101297;0.331227;,
0.15;0.352416;,
0.25;1.0;,
0.15;1.0881;,
0.35;1.0881;,
0.25;0.147584;,
0.35;0.0881042;,
0.35;0.176208;,
0.214414;0.234637;,
0.285586;0.234637;,
0.35;0.264312;,
0.198703;0.331227;,
0.25;0.323792;,
0.301297;0.331227;,
0.35;0.352416;,
0.45;1.0;,
0.55;1.0881;,
0.45;0.147584;,
0.55;0.0881042;,
0.55;0.176208;,
0.414414;0.234637;,
0.485586;0.234637;,
0.55;0.264312;,
0.398703;0.331227;,
0.45;0.323792;,
0.501297;0.331227;,
0.55;0.352416;,
0.65;1.0;,
0.65;0.147584;,
0.614414;0.234637;,
0.685586;0.234637;,
0.598703;0.331227;,
0.65;0.323792;,
0.701297;0.331227;,
0.723595;0.425324;,
0.776405;0.425324;,
0.7;0.5;,
0.75;0.5;,
0.8;0.5;,
0.676405;0.574676;,
0.725369;0.582116;,
0.774631;0.582116;,
0.823595;0.574676;,
0.65;0.647584;,
0.698703;0.668773;,
0.75;0.676208;,
0.801297;0.668773;,
0.85;0.647584;,
0.923595;0.425324;,
0.976405;0.425324;,
0.9;0.5;,
0.95;0.5;,
1.0;0.5;,
0.876405;0.574676;,
0.925369;0.582116;,
0.974631;0.582116;,
1.0;0.5;,
0.974631;0.582116;,
1.0236;0.574676;,
0.898703;0.668773;,
0.95;0.676208;,
0.974631;0.582116;,
0.95;0.676208;,
1.0013;0.668773;,
0.974631;0.582116;,
0.0235953;0.574676;,
0.0012972;0.668773;,
0.05;0.647584;,
0.123595;0.425324;,
0.176405;0.425324;,
0.1;0.5;,
0.15;0.5;,
0.2;0.5;,
0.0764047;0.574676;,
0.125369;0.582116;,
0.174631;0.582116;,
0.223595;0.574676;,
0.0987028;0.668773;,
0.15;0.676208;,
0.201297;0.668773;,
0.25;0.647584;,
0.323595;0.425324;,
0.376405;0.425324;,
0.3;0.5;,
0.35;0.5;,
0.4;0.5;,
0.276405;0.574676;,
0.325369;0.582116;,
0.374631;0.582116;,
0.423595;0.574676;,
0.298703;0.668773;,
0.35;0.676208;,
0.401297;0.668773;,
0.45;0.647584;,
0.523595;0.425324;,
0.576405;0.425324;,
0.5;0.5;,
0.55;0.5;,
0.6;0.5;,
0.476405;0.574676;,
0.525369;0.582116;,
0.574631;0.582116;,
0.623595;0.574676;,
0.498703;0.668773;,
0.55;0.676208;,
0.601297;0.668773;,
0.85;0.5;,
0.874631;0.417884;,
0.825369;0.417884;,
0.05;0.5;,
1.05;0.5;,
1.0;0.5;,
0.0746311;0.417884;,
0.0253688;0.417884;,
1.02537;0.417884;,
1.0;0.5;,
1.0;0.5;,
0.976405;0.425324;,
0.998703;0.331227;,
0.998703;0.331227;,
0.976405;0.425324;,
0.25;0.5;,
0.274631;0.417884;,
0.225369;0.417884;,
0.45;0.5;,
0.474631;0.417884;,
0.425369;0.417884;,
0.65;0.5;,
0.674631;0.417884;,
0.625369;0.417884;,
0.95;1.0;,
1.05;0.911896;,
0.85;0.911896;,
1.05;0.823792;,
0.95;0.852416;,
0.85;0.911896;,
0.95;0.852416;,
0.85;0.823792;,
1.05;0.735688;,
0.985586;0.765363;,
0.95;0.852416;,
0.985586;0.765363;,
0.914414;0.765363;,
0.95;0.852416;,
0.85;0.735688;,
0.05;0.735688;,
0.95;0.676208;,
0.985586;0.765363;,
0.15;1.0;,
0.25;0.911896;,
0.05;0.911896;,
0.25;0.823792;,
0.15;0.852416;,
0.05;0.823792;,
0.25;0.735688;,
0.185586;0.765363;,
0.114414;0.765363;,
0.35;1.0;,
0.45;0.911896;,
0.45;0.823792;,
0.35;0.852416;,
0.45;0.735688;,
0.385586;0.765363;,
0.314414;0.765363;,
0.55;1.0;,
0.65;0.911896;,
0.65;0.823792;,
0.55;0.852416;,
0.65;0.735688;,
0.585586;0.765363;,
0.514414;0.765363;,
0.75;1.0;,
0.85;0.911896;,
0.85;0.911896;,
0.75;0.852416;,
0.85;0.911896;,
0.785586;0.765363;,
0.714414;0.765363;;
}
}
 }
